<?xml version="1.0" encoding="utf-8"?>
<!-- Generator: Adobe Illustrator 27.5.0, SVG Export Plug-In . SVG Version: 6.00 Build 0)  -->
<svg version="1.1" id="_圖層_1" xmlns="http://www.w3.org/2000/svg" xmlns:xlink="http://www.w3.org/1999/xlink" x="0px" y="0px"
	 viewBox="0 0 348.8 348.8" style="enable-background:new 0 0 348.8 348.8;" xml:space="preserve">
<style type="text/css">
	.st0{clip-path:url(#SVGID_00000059271105173652533380000004408971747425954432_);}
	.st1{fill:#231815;}
</style>
<g>
	<defs>
		<path id="SVGID_1_" d="M346.5,0c0.5,0,3.5,346.5,3.5,346.5s-348.8,1.2-350,0C0,155.2,155.2,0,346.5,0z"/>
	</defs>
	<clipPath id="SVGID_00000032622375859923874330000016721201108220630943_">
		<use xlink:href="#SVGID_1_"  style="overflow:visible;"/>
	</clipPath>
	<g style="clip-path:url(#SVGID_00000032622375859923874330000016721201108220630943_);">
		<g>
			<g>
				<path class="st1" d="M8.5,220.4c0.9,0.9,0.9,2.2,0,3.1c-0.8,0.8-2.2,0.8-3.1,0s-0.9-2.2,0-3.1C6.3,219.6,7.6,219.6,8.5,220.4z"
					/>
				<path class="st1" d="M33,196c0.8,0.9,0.9,2.2,0,3.1s-2.2,0.8-3.1,0s-0.9-2.2,0-3.1C30.7,195.1,32.1,195.1,33,196z"/>
				<path class="st1" d="M57.4,171.5c0.8,0.9,0.9,2.2,0,3.1c-0.8,0.8-2.2,0.8-3.1,0c-0.8-0.9-0.9-2.2,0-3.1
					C55.2,170.6,56.6,170.6,57.4,171.5z"/>
				<path class="st1" d="M81.9,147c0.8,0.9,0.9,2.2,0,3.1c-0.8,0.8-2.2,0.8-3.1,0c-0.8-0.9-0.9-2.2,0-3.1
					C79.6,146.2,81,146.2,81.9,147z"/>
				<path class="st1" d="M106.3,122.6c0.8,0.8,0.9,2.2,0,3.1c-0.8,0.8-2.2,0.8-3.1,0s-0.9-2.2,0-3.1
					C104.1,121.7,105.5,121.7,106.3,122.6z"/>
				<path class="st1" d="M130.8,98.1c0.9,0.8,0.9,2.2,0,3.1s-2.2,0.8-3.1,0s-0.9-2.2,0-3.1C128.6,97.2,130,97.2,130.8,98.1
					L130.8,98.1z"/>
				<path class="st1" d="M155.3,73.6c0.9,0.8,0.9,2.2,0,3.1s-2.2,0.8-3.1,0s-0.9-2.2,0-3.1S154.4,72.8,155.3,73.6z"/>
				<path class="st1" d="M179.7,49.2c0.9,0.8,0.9,2.2,0,3.1s-2.2,0.8-3.1,0s-0.9-2.2,0-3.1S178.9,48.3,179.7,49.2z"/>
				<path class="st1" d="M204.2,24.7c0.9,0.9,0.9,2.2,0,3.1s-2.2,0.8-3.1,0s-0.9-2.2,0-3.1S203.4,23.8,204.2,24.7z"/>
				<path class="st1" d="M228.7,0.2c0.9,0.9,0.9,2.2,0,3.1s-2.2,0.8-3.1,0s-0.9-2.2,0-3.1S227.8-0.6,228.7,0.2z"/>
			</g>
			<g>
				<path class="st1" d="M2.5,263.4c0.8,0.9,0.9,2.2,0,3.1s-2.2,0.8-3.1,0s-0.9-2.2,0-3.1S1.6,262.5,2.5,263.4z"/>
				
					<ellipse transform="matrix(0.7071 -0.7071 0.7071 0.7071 -162.5578 88.3866)" class="st1" cx="25.4" cy="240.4" rx="2.2" ry="2.2"/>
				<path class="st1" d="M51.4,214.4c0.8,0.9,0.9,2.2,0,3.1c-0.8,0.8-2.2,0.8-3.1,0s-0.9-2.2,0-3.1
					C49.2,213.6,50.6,213.6,51.4,214.4z"/>
				<path class="st1" d="M75.9,189.9c0.8,0.9,0.9,2.2,0,3.1c-0.8,0.8-2.2,0.8-3.1,0s-0.9-2.2,0-3.1C73.6,189.1,75,189.1,75.9,189.9z
					"/>
				<path class="st1" d="M100.3,165.5c0.8,0.9,0.9,2.2,0,3.1c-0.8,0.8-2.2,0.8-3.1,0s-0.9-2.2,0-3.1
					C98.1,164.6,99.5,164.6,100.3,165.5z"/>
				<path class="st1" d="M124.8,141c0.8,0.9,0.9,2.2,0,3.1c-0.8,0.8-2.2,0.8-3.1,0s-0.9-2.2,0-3.1C122.6,140.2,124,140.2,124.8,141z
					"/>
				<path class="st1" d="M149.3,116.6c0.9,0.8,0.9,2.2,0,3.1s-2.2,0.8-3.1,0s-0.9-2.2,0-3.1S148.4,115.7,149.3,116.6z"/>
				<path class="st1" d="M173.7,92.1c0.9,0.8,0.9,2.2,0,3.1s-2.2,0.8-3.1,0c-0.9-0.8-0.9-2.2,0-3.1S172.9,91.2,173.7,92.1z"/>
				<path class="st1" d="M198.2,67.6c0.9,0.8,0.9,2.2,0,3.1s-2.2,0.8-3.1,0s-0.9-2.2,0-3.1S197.4,66.8,198.2,67.6z"/>
				<path class="st1" d="M222.7,43.2c0.9,0.8,0.9,2.2,0,3.1s-2.2,0.8-3.1,0s-0.9-2.2,0-3.1S221.8,42.3,222.7,43.2z"/>
				<path class="st1" d="M247.1,18.7c0.9,0.9,0.9,2.2,0,3.1s-2.2,0.8-3.1,0s-0.9-2.2,0-3.1S246.3,17.8,247.1,18.7z"/>
			</g>
			<g>
				<path class="st1" d="M20.9,281.8c0.9,0.9,0.9,2.2,0,3.1s-2.2,0.8-3.1,0s-0.9-2.2,0-3.1S20.1,281,20.9,281.8z"/>
				<path class="st1" d="M45.4,257.4c0.8,0.9,0.9,2.2,0,3.1s-2.2,0.8-3.1,0s-0.9-2.2,0-3.1S44.6,256.5,45.4,257.4z"/>
				<path class="st1" d="M69.9,232.9c0.8,0.9,0.9,2.2,0,3.1c-0.8,0.8-2.2,0.8-3.1,0s-0.9-2.2,0-3.1C67.6,232,69,232,69.9,232.9z"/>
				<path class="st1" d="M94.3,208.4c0.8,0.9,0.9,2.2,0,3.1c-0.8,0.8-2.2,0.8-3.1,0s-0.9-2.2,0-3.1
					C92.1,207.6,93.5,207.6,94.3,208.4z"/>
				<path class="st1" d="M118.8,183.9c0.8,0.9,0.9,2.2,0,3.1c-0.8,0.8-2.2,0.8-3.1,0s-0.9-2.2,0-3.1
					C116.6,183.1,118,183.1,118.8,183.9z"/>
				<path class="st1" d="M143.3,159.5c0.9,0.9,0.9,2.2,0,3.1c-0.8,0.8-2.2,0.8-3.1,0s-0.9-2.2,0-3.1
					C141,158.6,142.4,158.6,143.3,159.5z"/>
				<path class="st1" d="M167.7,135c0.9,0.9,0.9,2.2,0,3.1c-0.8,0.8-2.2,0.8-3.1,0s-0.9-2.2,0-3.1
					C165.5,134.1,166.9,134.1,167.7,135z"/>
				<path class="st1" d="M192.2,110.6c0.9,0.8,0.9,2.2,0,3.1s-2.2,0.8-3.1,0s-0.9-2.2,0-3.1S191.3,109.7,192.2,110.6z"/>
				<path class="st1" d="M216.7,86.1c0.9,0.8,0.9,2.2,0,3.1s-2.2,0.8-3.1,0c-0.9-0.8-0.9-2.2,0-3.1S215.8,85.2,216.7,86.1z"/>
				<path class="st1" d="M241.1,61.6c0.9,0.8,0.9,2.2,0,3.1c-0.8,0.8-2.2,0.8-3.1,0s-0.9-2.2,0-3.1S240.3,60.8,241.1,61.6z"/>
				<path class="st1" d="M265.6,37.2c0.9,0.8,0.9,2.2,0,3.1s-2.2,0.8-3.1,0c-0.9-0.8-0.9-2.2,0-3.1S264.8,36.3,265.6,37.2z"/>
				<path class="st1" d="M290.1,12.7c0.9,0.9,0.9,2.2,0,3.1s-2.2,0.8-3.1,0c-0.9-0.9-0.9-2.2,0-3.1S289.2,11.8,290.1,12.7z"/>
			</g>
			<g>
				<path class="st1" d="M14.9,324.7c0.9,0.9,0.9,2.2,0,3.1s-2.2,0.8-3.1,0s-0.9-2.2,0-3.1S14.1,323.9,14.9,324.7z"/>
				<path class="st1" d="M39.4,300.3c0.8,0.9,0.9,2.2,0,3.1s-2.2,0.8-3.1,0s-0.9-2.2,0-3.1S38.6,299.4,39.4,300.3z"/>
				<path class="st1" d="M63.9,275.8c0.9,0.9,0.9,2.2,0,3.1c-0.8,0.8-2.2,0.8-3.1,0s-0.9-2.2,0-3.1S63,275,63.9,275.8z"/>
				<path class="st1" d="M88.3,251.3c0.8,0.9,0.9,2.2,0,3.1c-0.8,0.8-2.2,0.8-3.1,0c-0.8-0.9-0.9-2.2,0-3.1
					C86.1,250.5,87.5,250.5,88.3,251.3z"/>
				<path class="st1" d="M112.8,226.9c0.8,0.9,0.9,2.2,0,3.1c-0.8,0.8-2.2,0.8-3.1,0s-0.9-2.2,0-3.1C110.6,226,112,226,112.8,226.9z
					"/>
				<path class="st1" d="M137.3,202.4c0.9,0.9,0.9,2.2,0,3.1c-0.8,0.8-2.2,0.8-3.1,0s-0.9-2.2,0-3.1S136.4,201.6,137.3,202.4z"/>
				<path class="st1" d="M161.7,177.9c0.9,0.9,0.9,2.2,0,3.1s-2.2,0.8-3.1,0c-0.9-0.9-0.9-2.2,0-3.1S160.9,177.1,161.7,177.9z"/>
				<path class="st1" d="M186.2,153.5c0.9,0.9,0.9,2.2,0,3.1c-0.8,0.8-2.2,0.8-3.1,0s-0.9-2.2,0-3.1
					C184,152.6,185.3,152.6,186.2,153.5z"/>
				<path class="st1" d="M210.7,129c0.9,0.9,0.9,2.2,0,3.1c-0.8,0.8-2.2,0.8-3.1,0s-0.9-2.2,0-3.1
					C208.4,128.1,209.8,128.1,210.7,129z"/>
				<path class="st1" d="M235.1,104.5c0.9,0.8,0.9,2.2,0,3.1s-2.2,0.8-3.1,0c-0.9-0.8-0.9-2.2,0-3.1S234.3,103.7,235.1,104.5z"/>
				<path class="st1" d="M259.6,80.1c0.9,0.8,0.9,2.2,0,3.1s-2.2,0.8-3.1,0s-0.9-2.2,0-3.1C257.4,79.2,258.8,79.2,259.6,80.1z"/>
				<path class="st1" d="M284.1,55.6c0.9,0.8,0.9,2.2,0,3.1s-2.2,0.8-3.1,0s-0.9-2.2,0-3.1S283.2,54.8,284.1,55.6z"/>
				<path class="st1" d="M308.5,31.1c0.9,0.9,0.9,2.2,0,3.1s-2.2,0.8-3.1,0s-0.9-2.2,0-3.1S307.7,30.3,308.5,31.1z"/>
				<path class="st1" d="M333,6.7c0.9,0.8,0.9,2.2,0,3.1s-2.2,0.8-3.1,0c-0.9-0.9-0.9-2.2,0-3.1S332.1,5.8,333,6.7z"/>
			</g>
			<g>
				<path class="st1" d="M33.4,343.2c0.8,0.9,0.9,2.2,0,3.1s-2.2,0.8-3.1,0c-0.9-0.9-0.9-2.2,0-3.1S32.6,342.3,33.4,343.2z"/>
				<path class="st1" d="M57.9,318.7c0.8,0.9,0.9,2.2,0,3.1s-2.2,0.8-3.1,0s-0.9-2.2,0-3.1S57,317.9,57.9,318.7z"/>
				<path class="st1" d="M82.3,294.3c0.8,0.9,0.9,2.2,0,3.1s-2.2,0.8-3.1,0s-0.9-2.2,0-3.1S81.5,293.4,82.3,294.3z"/>
				<path class="st1" d="M106.8,269.8c0.8,0.9,0.9,2.2,0,3.1s-2.2,0.8-3.1,0c-0.8-0.9-0.9-2.2,0-3.1S106,269,106.8,269.8z"/>
				<path class="st1" d="M131.3,245.3c0.9,0.9,0.9,2.2,0,3.1s-2.2,0.8-3.1,0s-0.9-2.2,0-3.1S130.4,244.5,131.3,245.3z"/>
				<path class="st1" d="M155.7,220.9c0.9,0.9,0.9,2.2,0,3.1c-0.8,0.8-2.2,0.8-3.1,0s-0.9-2.2,0-3.1
					C153.5,220,154.9,220,155.7,220.9z"/>
				<path class="st1" d="M180.2,196.4c0.9,0.9,0.9,2.2,0,3.1c-0.8,0.8-2.2,0.8-3.1,0c-0.9-0.9-0.9-2.2,0-3.1
					C178,195.6,179.3,195.6,180.2,196.4z"/>
				<path class="st1" d="M204.7,171.9c0.9,0.9,0.9,2.2,0,3.1c-0.8,0.8-2.2,0.8-3.1,0s-0.9-2.2,0-3.1
					C202.4,171.1,203.8,171.1,204.7,171.9z"/>
				<path class="st1" d="M229.1,147.5c0.9,0.9,0.9,2.2,0,3.1c-0.8,0.8-2.2,0.8-3.1,0s-0.9-2.2,0-3.1
					C226.9,146.6,228.3,146.6,229.1,147.5z"/>
				<path class="st1" d="M253.6,123c0.9,0.8,0.9,2.2,0,3.1s-2.2,0.8-3.1,0s-0.9-2.2,0-3.1S252.7,122.2,253.6,123z"/>
				<path class="st1" d="M278.1,98.5c0.9,0.8,0.9,2.2,0,3.1s-2.2,0.8-3.1,0s-0.9-2.2,0-3.1S277.2,97.7,278.1,98.5z"/>
				<path class="st1" d="M302.5,74.1c0.9,0.8,0.9,2.2,0,3.1s-2.2,0.8-3.1,0s-0.9-2.2,0-3.1S301.7,73.2,302.5,74.1z"/>
				<path class="st1" d="M327,49.6c0.9,0.8,0.9,2.2,0,3.1s-2.2,0.8-3.1,0c-0.9-0.8-0.9-2.2,0-3.1S326.1,48.8,327,49.6z"/>
				<path class="st1" d="M351.5,25.1c0.9,0.9,0.9,2.2,0,3.1s-2.2,0.8-3.1,0s-0.9-2.2,0-3.1S350.6,24.3,351.5,25.1z"/>
			</g>
			<g>
				<path class="st1" d="M76.3,337.2c0.8,0.9,0.9,2.2,0,3.1c-0.8,0.8-2.2,0.8-3.1,0s-0.9-2.2,0-3.1
					C74.1,336.3,75.5,336.3,76.3,337.2z"/>
				<path class="st1" d="M100.8,312.7c0.8,0.9,0.9,2.2,0,3.1c-0.8,0.8-2.2,0.8-3.1,0s-0.9-2.2,0-3.1
					C98.6,311.9,99.9,311.9,100.8,312.7z"/>
				<path class="st1" d="M125.3,288.3c0.8,0.9,0.9,2.2,0,3.1c-0.8,0.8-2.2,0.8-3.1,0s-0.9-2.2,0-3.1
					C123,287.4,124.4,287.4,125.3,288.3z"/>
				<path class="st1" d="M149.7,263.8c0.9,0.9,0.9,2.2,0,3.1s-2.2,0.8-3.1,0c-0.9-0.9-0.9-2.2,0-3.1S148.9,262.9,149.7,263.8z"/>
				<path class="st1" d="M174.2,239.3c0.9,0.9,0.9,2.2,0,3.1c-0.8,0.8-2.2,0.8-3.1,0s-0.9-2.2,0-3.1
					C172,238.5,173.3,238.5,174.2,239.3z"/>
				<path class="st1" d="M198.7,214.9c0.9,0.9,0.9,2.2,0,3.1c-0.8,0.8-2.2,0.8-3.1,0s-0.9-2.2,0-3.1
					C196.4,214,197.8,214,198.7,214.9z"/>
				<path class="st1" d="M223.1,190.4c0.9,0.9,0.9,2.2,0,3.1c-0.8,0.8-2.2,0.8-3.1,0s-0.9-2.2,0-3.1
					C220.9,189.5,222.3,189.5,223.1,190.4z"/>
				<path class="st1" d="M247.6,165.9c0.9,0.9,0.9,2.2,0,3.1c-0.8,0.8-2.2,0.8-3.1,0s-0.9-2.2,0-3.1
					C245.4,165.1,246.7,165.1,247.6,165.9z"/>
				<path class="st1" d="M272.1,141.5c0.9,0.9,0.9,2.2,0,3.1c-0.8,0.8-2.2,0.8-3.1,0c-0.9-0.9-0.9-2.2,0-3.1
					C269.8,140.6,271.2,140.6,272.1,141.5z"/>
				<path class="st1" d="M296.5,117c0.9,0.8,0.9,2.2,0,3.1s-2.2,0.8-3.1,0s-0.9-2.2,0-3.1S295.7,116.1,296.5,117z"/>
				<path class="st1" d="M321,92.5c0.9,0.8,0.9,2.2,0,3.1s-2.2,0.8-3.1,0s-0.9-2.2,0-3.1S320.1,91.7,321,92.5z"/>
				<path class="st1" d="M345.5,68.1c0.9,0.8,0.9,2.2,0,3.1s-2.2,0.8-3.1,0s-0.9-2.2,0-3.1S344.6,67.2,345.5,68.1z"/>
			</g>
			<g>
				<path class="st1" d="M119.3,331.2c0.8,0.9,0.9,2.2,0,3.1c-0.8,0.8-2.2,0.8-3.1,0s-0.9-2.2,0-3.1S118.4,330.3,119.3,331.2z"/>
				<path class="st1" d="M143.7,306.7c0.9,0.9,0.9,2.2,0,3.1s-2.2,0.8-3.1,0s-0.9-2.2,0-3.1S142.9,305.9,143.7,306.7z"/>
				<path class="st1" d="M168.2,282.3c0.9,0.9,0.9,2.2,0,3.1s-2.2,0.8-3.1,0s-0.9-2.2,0-3.1S167.3,281.4,168.2,282.3z"/>
				<path class="st1" d="M192.6,257.8c0.9,0.9,0.9,2.2,0,3.1s-2.2,0.8-3.1,0s-0.9-2.2,0-3.1S191.8,256.9,192.6,257.8z"/>
				<path class="st1" d="M217.1,233.3c0.9,0.9,0.9,2.2,0,3.1c-0.8,0.8-2.2,0.8-3.1,0s-0.9-2.2,0-3.1
					C214.9,232.5,216.3,232.5,217.1,233.3z"/>
				<path class="st1" d="M241.6,208.9c0.9,0.9,0.9,2.2,0,3.1c-0.8,0.8-2.2,0.8-3.1,0c-0.9-0.9-0.9-2.2,0-3.1
					C239.4,208,240.7,208,241.6,208.9z"/>
				<path class="st1" d="M266,184.4c0.9,0.9,0.9,2.2,0,3.1c-0.8,0.8-2.2,0.8-3.1,0s-0.9-2.2,0-3.1
					C263.8,183.5,265.2,183.5,266,184.4z"/>
				<path class="st1" d="M290.5,159.9c0.9,0.9,0.9,2.2,0,3.1s-2.2,0.8-3.1,0s-0.9-2.2,0-3.1S289.7,159.1,290.5,159.9z"/>
				<path class="st1" d="M315,135.5c0.9,0.9,0.9,2.2,0,3.1c-0.8,0.8-2.2,0.8-3.1,0s-0.9-2.2,0-3.1
					C312.8,134.6,314.1,134.6,315,135.5z"/>
				<path class="st1" d="M339.5,111c0.9,0.8,0.9,2.2,0,3.1s-2.2,0.8-3.1,0s-0.9-2.2,0-3.1S338.6,110.1,339.5,111z"/>
			</g>
			<g>
				<path class="st1" d="M162.2,325.2c0.9,0.9,0.9,2.2,0,3.1s-2.2,0.8-3.1,0s-0.9-2.2,0-3.1S161.3,324.3,162.2,325.2z"/>
				<path class="st1" d="M186.6,300.7c0.9,0.9,0.9,2.2,0,3.1s-2.2,0.8-3.1,0s-0.9-2.2,0-3.1S185.8,299.9,186.6,300.7z"/>
				<path class="st1" d="M211.1,276.3c0.9,0.9,0.9,2.2,0,3.1s-2.2,0.8-3.1,0s-0.9-2.2,0-3.1S210.3,275.4,211.1,276.3z"/>
				<path class="st1" d="M235.6,251.8c0.9,0.9,0.9,2.2,0,3.1c-0.8,0.8-2.2,0.8-3.1,0s-0.9-2.2,0-3.1S234.7,250.9,235.6,251.8z"/>
				<path class="st1" d="M260,227.3c0.9,0.9,0.9,2.2,0,3.1c-0.8,0.8-2.2,0.8-3.1,0s-0.9-2.2,0-3.1
					C257.8,226.5,259.2,226.5,260,227.3z"/>
				<path class="st1" d="M284.5,202.9c0.9,0.9,0.9,2.2,0,3.1c-0.8,0.8-2.2,0.8-3.1,0s-0.9-2.2,0-3.1
					C282.3,202,283.7,202,284.5,202.9z"/>
				<path class="st1" d="M309,178.4c0.9,0.9,0.9,2.2,0,3.1c-0.8,0.8-2.2,0.8-3.1,0s-0.9-2.2,0-3.1
					C306.8,177.5,308.1,177.5,309,178.4z"/>
				<path class="st1" d="M333.5,153.9c0.9,0.9,0.9,2.2,0,3.1c-0.8,0.8-2.2,0.8-3.1,0c-0.9-0.9-0.9-2.2,0-3.1
					C331.2,153.1,332.6,153.1,333.5,153.9z"/>
			</g>
			<g>
				<path class="st1" d="M180.6,343.7c0.9,0.9,0.9,2.2,0,3.1s-2.2,0.8-3.1,0s-0.9-2.2,0-3.1S179.8,342.8,180.6,343.7z"/>
				<path class="st1" d="M205.1,319.2c0.9,0.9,0.9,2.2,0,3.1s-2.2,0.8-3.1,0s-0.9-2.2,0-3.1S204.3,318.3,205.1,319.2z"/>
				<path class="st1" d="M229.6,294.7c0.9,0.9,0.9,2.2,0,3.1s-2.2,0.8-3.1,0c-0.9-0.9-0.9-2.2,0-3.1S228.7,293.9,229.6,294.7z"/>
				<path class="st1" d="M254.1,270.3c0.9,0.9,0.9,2.2,0,3.1s-2.2,0.8-3.1,0s-0.9-2.2,0-3.1S253.2,269.4,254.1,270.3z"/>
				<path class="st1" d="M278.5,245.8c0.9,0.9,0.9,2.2,0,3.1c-0.8,0.8-2.2,0.8-3.1,0s-0.9-2.2,0-3.1
					C276.3,244.9,277.7,244.9,278.5,245.8z"/>
				<path class="st1" d="M303,221.3c0.9,0.9,0.9,2.2,0,3.1c-0.8,0.8-2.2,0.8-3.1,0s-0.9-2.2,0-3.1
					C300.8,220.5,302.1,220.5,303,221.3z"/>
				<path class="st1" d="M327.4,196.9c0.9,0.9,0.9,2.2,0,3.1c-0.8,0.8-2.2,0.8-3.1,0s-0.9-2.2,0-3.1
					C325.2,196,326.6,196,327.4,196.9z"/>
				<path class="st1" d="M351.9,172.4c0.9,0.9,0.9,2.2,0,3.1c-0.8,0.8-2.2,0.8-3.1,0s-0.9-2.2,0-3.1
					C349.7,171.5,351.1,171.5,351.9,172.4z"/>
			</g>
			<g>
				<path class="st1" d="M223.6,337.6c0.9,0.9,0.9,2.2,0,3.1s-2.2,0.8-3.1,0s-0.9-2.2,0-3.1S222.7,336.8,223.6,337.6z"/>
				<path class="st1" d="M248,313.2c0.9,0.9,0.9,2.2,0,3.1s-2.2,0.8-3.1,0s-0.9-2.2,0-3.1S247.2,312.3,248,313.2z"/>
				<path class="st1" d="M272.5,288.7c0.9,0.9,0.9,2.2,0,3.1s-2.2,0.8-3.1,0s-0.9-2.2,0-3.1S271.7,287.9,272.5,288.7z"/>
				<path class="st1" d="M297,264.2c0.9,0.9,0.9,2.2,0,3.1s-2.2,0.8-3.1,0s-0.9-2.2,0-3.1S296.1,263.4,297,264.2z"/>
				<path class="st1" d="M321.4,239.8c0.9,0.9,0.9,2.2,0,3.1s-2.2,0.8-3.1,0s-0.9-2.2,0-3.1S320.6,238.9,321.4,239.8z"/>
				<path class="st1" d="M345.9,215.3c0.9,0.9,0.9,2.2,0,3.1c-0.8,0.8-2.2,0.8-3.1,0c-0.9-0.9-0.9-2.2,0-3.1
					C343.7,214.5,345.1,214.5,345.9,215.3z"/>
			</g>
			<g>
				<path class="st1" d="M266.5,331.6c0.9,0.9,0.9,2.2,0,3.1s-2.2,0.8-3.1,0s-0.9-2.2,0-3.1S265.6,330.8,266.5,331.6z"/>
				<path class="st1" d="M291,307.2c0.9,0.9,0.9,2.2,0,3.1s-2.2,0.8-3.1,0c-0.9-0.9-0.9-2.2,0-3.1S290.1,306.3,291,307.2z"/>
				<path class="st1" d="M315.4,282.7c0.9,0.9,0.9,2.2,0,3.1s-2.2,0.8-3.1,0s-0.9-2.2,0-3.1S314.6,281.9,315.4,282.7z"/>
				<path class="st1" d="M339.9,258.2c0.9,0.9,0.9,2.2,0,3.1s-2.2,0.8-3.1,0c-0.9-0.9-0.9-2.2,0-3.1S339,257.4,339.9,258.2z"/>
			</g>
			<g>
				<path class="st1" d="M309.4,325.6c0.9,0.9,0.9,2.2,0,3.1s-2.2,0.8-3.1,0s-0.9-2.2,0-3.1S308.6,324.8,309.4,325.6z"/>
				<path class="st1" d="M333.9,301.2c0.9,0.9,0.9,2.2,0,3.1s-2.2,0.8-3.1,0s-0.9-2.2,0-3.1S333,300.3,333.9,301.2z"/>
			</g>
			<g>
				<path class="st1" d="M327.9,344.1c0.9,0.9,0.9,2.2,0,3.1s-2.2,0.8-3.1,0c-0.9-0.9-0.9-2.2,0-3.1S327,343.2,327.9,344.1z"/>
				<path class="st1" d="M352.4,319.6c0.9,0.9,0.9,2.2,0,3.1s-2.2,0.8-3.1,0s-0.9-2.2,0-3.1S351.5,318.8,352.4,319.6z"/>
			</g>
			<g>
			</g>
			<g>
			</g>
			<g>
			</g>
			<g>
			</g>
			<g>
			</g>
			<g>
			</g>
			<g>
			</g>
			<g>
			</g>
			<g>
			</g>
		</g>
	</g>
</g>
</svg>
