<?xml version="1.0" encoding="UTF-8"?>
<svg xmlns="http://www.w3.org/2000/svg" viewBox="0 0 814.15 254.29">
  <defs>
    <style>
      .cls-1 {
        fill: #7fbca5;
      }

      .cls-2 {
        fill: #89c6c7;
      }

      .cls-3 {
        isolation: isolate;
      }

      .cls-4 {
        fill: #427984;
      }

      .cls-5 {
        fill: #b0c1d3;
      }

      .cls-6 {
        fill: #b4d9de;
      }

      .cls-7 {
        fill: #8098b2;
      }

      .cls-8 {
        fill: #bac8d6;
        mix-blend-mode: multiply;
      }
    </style>
  </defs>
  <g class="cls-3">
    <g id="_圖層_1" data-name="圖層 1">
      <g>
        <path class="cls-7" d="m552.75,206.11c-11.07,2.57-20.58,5.33-28.18,7.83-44.05,14.44-105.88,24.27-133.19,8.43-15.47.38-28.59-1.02-36.82-5.59-17.63-9.8-18.1-21.36-16.62-44.31,3.16-49.05,23.74-75.16-21.36-100.48-33.48-18.79-75.3-5.8-120.97,11.51-10.15,9.98-21.11,19.95-33.41,29.17C114.73,148.26,0,150.64,0,150.64v103.65h688.45c-24.18-43.17-85.24-49.12-135.7-48.18Z"/>
        <g>
          <path class="cls-5" d="m316.58,71.98c45.1,25.32,24.53,51.43,21.36,100.48-1.48,22.95-1.02,34.51,16.62,44.31,8.23,4.57,21.35,5.97,36.82,5.59-2.61-1.52-4.92-3.26-6.85-5.26-22.15-22.95,28.55-64.03,43.52-81.49,28.48-33.23,33.23-81.49-14.24-113.93s-102.07-22.95-139.25-7.12c-27.55,11.73-49.9,40.39-78.94,68.94,45.68-17.31,87.5-30.31,120.97-11.51Z"/>
          <path class="cls-5" d="m552.75,206.11c50.46-.95,111.52,5,135.7,48.18h125.7c-97.99-70-202.16-61.92-261.41-48.18Z"/>
        </g>
        <g>
          <path class="cls-8" d="m524.57,213.93c7.6-2.49,17.11-5.26,28.18-7.83-15.58.29-30.16,1.24-42.32,1.96-28.69,1.69-80.98,13.37-119.05,14.3,27.31,15.84,89.14,6.01,133.19-8.43Z"/>
          <path class="cls-8" d="m195.61,83.49c-22.73,8.62-46.41,18.3-70.5,25.67C47.57,132.9,0,130.62,0,130.62v20.01s114.73-2.37,162.2-37.98c12.3-9.22,23.26-19.19,33.41-29.17Z"/>
        </g>
      </g>
      <g>
        <path class="cls-4" d="m95.2,132.44c8.46-1.59,14.07-9.65,12.68-18.1-10.06,2.39-20.33,4.85-30.51,7.8,2.55,7.24,10.05,11.76,17.83,10.3Z"/>
        <path class="cls-1" d="m107.88,114.34c-.02-.12-.03-.25-.05-.37-1.61-8.59-9.88-14.24-18.47-12.63-8.59,1.61-14.24,9.88-12.63,18.47.15.81.38,1.58.65,2.34,10.08-3.19,20.36-5.63,30.51-7.8Z"/>
      </g>
      <g>
        <path class="cls-2" d="m340.76,129.21c-8.01.16-14.37,6.78-14.21,14.79.15,7.31,5.68,13.24,12.74,14.09l4.61-28.6c-1.01-.2-2.06-.31-3.14-.29Z"/>
        <path class="cls-6" d="m343.89,129.5l-4.61,28.6c.67.08,1.36.13,2.05.12,8.01-.16,14.37-6.78,14.21-14.79-.14-6.93-5.12-12.63-11.65-13.93Z"/>
      </g>
    </g>
  </g>
</svg>