<?xml version="1.0" encoding="utf-8"?>
<!-- Generator: Adobe Illustrator 27.5.0, SVG Export Plug-In . SVG Version: 6.00 Build 0)  -->
<svg version="1.1" id="圖層_2_00000078042512655243400480000006721820867572595863_"
	 xmlns="http://www.w3.org/2000/svg" xmlns:xlink="http://www.w3.org/1999/xlink" x="0px" y="0px" viewBox="0 0 300 300"
	 style="enable-background:new 0 0 300 300;" xml:space="preserve">
<style type="text/css">
	.st0{fill:#FFFFFF;}
</style>
<path class="st0" d="M141.4,120.7c0,10.7-8.9,19.7-19.7,19.7H43c-10.8,0-19.7-8.9-19.7-19.7v-59c0-10.8,8.9-19.7,19.7-19.7h78.6
	c10.8,0,19.7,8.9,19.7,19.7L141.4,120.7L141.4,120.7z M141.4,238.7c0,10.8-8.9,19.7-19.7,19.7H43c-10.8,0-19.7-8.9-19.7-19.7v-59
	c0-10.8,8.9-19.7,19.7-19.7h78.6c10.8,0,19.7,8.9,19.7,19.7L141.4,238.7L141.4,238.7z M279,120.7c0,10.7-8.9,19.7-19.7,19.7h-78.6
	c-10.8,0-19.7-8.9-19.7-19.7v-59c0-10.8,8.9-19.7,19.7-19.7h78.6c10.8,0,19.7,8.9,19.7,19.7V120.7z M279,238.7
	c0,10.8-8.9,19.7-19.7,19.7h-78.6c-10.8,0-19.7-8.9-19.7-19.7v-59c0-10.8,8.9-19.7,19.7-19.7h78.6c10.8,0,19.7,8.9,19.7,19.7V238.7z
	"/>
</svg>
