<?xml version="1.0" encoding="UTF-8"?>
<svg id="_分離模式" data-name="分離模式" xmlns="http://www.w3.org/2000/svg" viewBox="0 0 49.32 42.14">
  <defs>
    <style>
      .cls-1 {
        fill: #fff;
      }
    </style>
  </defs>
  <path class="cls-1" d="m22.76,37.19c0,1.04-.86,1.9-1.9,1.9-.5,0-.98-.21-1.34-.56l-9.87-9.87H1.9c-1.04,0-1.9-.86-1.9-1.9v-11.38c0-1.04.86-1.9,1.9-1.9h7.76L19.53,3.62c.36-.36.83-.56,1.34-.56,1.04,0,1.9.86,1.9,1.9v32.25Zm6.78-9.16c-.23.12-.5.15-.74.15-1.04,0-1.9-.83-1.9-1.9,0-2.25,3.44-1.63,3.44-5.22s-3.44-2.96-3.44-5.22c0-1.07.86-1.9,1.9-1.9.23,0,.5.03.74.15,2.79,1.1,4.6,4,4.6,6.96s-1.81,5.84-4.6,6.96Zm2.99,6.99c-.24.09-.5.15-.74.15-1.07,0-1.93-.86-1.93-1.9,0-.83.47-1.39,1.16-1.75.8-.41,1.54-.77,2.25-1.3,2.93-2.13,4.65-5.54,4.65-9.16s-1.72-7.02-4.65-9.16c-.71-.53-1.45-.89-2.25-1.3-.68-.36-1.16-.92-1.16-1.75,0-1.04.86-1.9,1.9-1.9.27,0,.53.06.77.15,5.57,2.34,9.19,7.94,9.19,13.96s-3.62,11.62-9.19,13.96Zm2.99,6.96c-.24.09-.5.15-.77.15-1.04,0-1.9-.86-1.9-1.9,0-.86.44-1.33,1.16-1.75.41-.24.89-.39,1.33-.62.83-.44,1.66-.95,2.43-1.51,4.86-3.59,7.73-9.25,7.73-15.29s-2.88-11.71-7.73-15.29c-.77-.56-1.6-1.07-2.43-1.51-.44-.24-.92-.39-1.33-.62-.71-.41-1.16-.89-1.16-1.75,0-1.04.86-1.9,1.9-1.9.27,0,.53.06.77.15,8.36,3.59,13.78,11.83,13.78,20.92s-5.42,17.34-13.78,20.92Z"/>
</svg>