<?xml version="1.0" encoding="utf-8"?>
<!-- Generator: Adobe Illustrator 27.5.0, SVG Export Plug-In . SVG Version: 6.00 Build 0)  -->
<svg version="1.1" id="圖層_4" xmlns="http://www.w3.org/2000/svg" xmlns:xlink="http://www.w3.org/1999/xlink" x="0px" y="0px"
	 viewBox="0 0 300 300" style="enable-background:new 0 0 300 300;" xml:space="preserve">
<style type="text/css">
	.st0{fill:#FFFFFF;}
</style>
<path class="st0" d="M269.2,96.2v177c0,8.1-6.6,14.8-14.8,14.8H48c-8.1,0-14.8-6.6-14.8-14.8V27.4c0-8.1,6.6-14.8,14.8-14.8h137.6
	c8.1,0,19.5,4.8,25.2,10.5L258.7,71C264.4,76.7,269.2,88,269.2,96.2z M249.5,110.9h-63.9c-8.1,0-14.8-6.6-14.8-14.8V32.3h-118v236
	h196.6L249.5,110.9L249.5,110.9z M131.5,147.8v83.6c0,2-1.2,3.8-3.1,4.6c-0.6,0.1-1.2,0.3-1.8,0.3c-1.2,0-2.4-0.4-3.5-1.4
	l-25.5-25.6H77.5c-2.8,0-4.9-2.1-4.9-4.9v-29.5c0-2.8,2.2-4.9,4.9-4.9h20.1l25.5-25.6c1.5-1.4,3.5-1.9,5.4-1.1
	C130.3,143.9,131.5,145.8,131.5,147.8z M167.3,223.2c8.6-9.2,13.4-21,13.4-33.6c0-12.6-4.8-24.4-13.4-33.6c-3.7-4-10-4.2-14-0.5
	c-3.8,3.7-4.1,10-0.3,14c5.1,5.5,8,12.6,8,20.1s-2.9,14.6-8,20.1c-3.8,4-3.5,10.3,0.3,14c2,1.7,4.4,2.6,6.8,2.6
	C162.7,226.3,165.3,225.2,167.3,223.2z M200.2,245.3c12.7-15.7,19.8-35.5,19.8-55.8s-7.1-40.1-19.8-55.8c-3.4-4.3-9.7-4.9-13.8-1.5
	c-4.3,3.5-4.9,9.7-1.4,14c10,12.3,15.4,27.4,15.4,43.3s-5.4,31-15.4,43.3c-3.5,4.3-2.9,10.4,1.4,13.8c1.9,1.6,4,2.3,6.1,2.3
	C195.4,249,198.2,247.8,200.2,245.3z M190.5,91.2h57.8c-0.9-2.6-2.3-5.2-3.4-6.3l-48.1-48.1c-1.1-1.1-3.7-2.5-6.3-3.4L190.5,91.2
	L190.5,91.2z"/>
</svg>
