<?xml version="1.0" encoding="UTF-8"?>
<svg id="_圖層_1" data-name="圖層 1" xmlns="http://www.w3.org/2000/svg" viewBox="0 0 795.37 121.36">
  <defs>
    <style>
      .cls-1 {
        fill: #7fbca5;
      }

      .cls-2 {
        fill: #7a95b6;
      }

      .cls-3 {
        fill: #427984;
      }
    </style>
  </defs>
  <path class="cls-2" d="m.47,102.33s40.62,20.04,150.86,18.99c88.8-.85,140.57-28.4,171.96-46.42,28.48-16.35,70.84-50.44,173.17-42,102.33,8.44,228.4,18.46,298.92-32.9H.47S-.59,102.33.47,102.33Z"/>
  <g>
    <path class="cls-3" d="m679.36,24.46c-8.61,0-15.6,6.88-15.81,15.45,10.33-.49,20.88-1.02,31.43-2.04-1.17-7.59-7.7-13.41-15.62-13.41Z"/>
    <path class="cls-1" d="m663.56,39.91c0,.13-.02.25-.02.38,0,8.74,7.08,15.82,15.82,15.82s15.82-7.08,15.82-15.82c0-.82-.08-1.63-.2-2.41-10.5,1.28-21.05,1.78-31.43,2.04Z"/>
  </g>
</svg>