<?xml version="1.0" encoding="UTF-8"?>
<svg id="_圖層_1" data-name="圖層 1" xmlns="http://www.w3.org/2000/svg" viewBox="0 0 390.07 66.46">
  <defs>
    <style>
      .cls-1 {
        fill: #fff;
      }

      .cls-2 {
        fill: #6a86a8;
      }

      .cls-3, .cls-4 {
        fill: none;
        stroke: #fff;
        stroke-miterlimit: 10;
      }

      .cls-5 {
        fill: #86a0be;
      }

      .cls-4 {
        stroke-width: 1.9px;
      }
    </style>
  </defs>
  <rect class="cls-2" x="0" y="0" width="390.07" height="66.46" rx="33.23" ry="33.23"/>
  <rect class="cls-5" x="0" y="0" width="66.46" height="66.46" rx="33.23" ry="33.23"/>
  <rect class="cls-4" x="9.68" y="9.68" width="47.1" height="47.1" rx="23.55" ry="23.55"/>
  <g>
    <line class="cls-3" x1="32.44" y1="12.85" x2="32.44" y2="17.8"/>
    <line class="cls-3" x1="32.44" y1="49.64" x2="32.44" y2="54.59"/>
  </g>
  <g>
    <line class="cls-3" x1="22" y1="15.64" x2="24.48" y2="19.93"/>
    <line class="cls-3" x1="40.4" y1="47.5" x2="42.88" y2="51.8"/>
  </g>
  <g>
    <line class="cls-3" x1="14.36" y1="23.28" x2="18.65" y2="25.76"/>
    <line class="cls-3" x1="46.22" y1="41.68" x2="50.52" y2="44.16"/>
  </g>
  <g>
    <line class="cls-3" x1="53.31" y1="33.72" x2="48.36" y2="33.72"/>
    <line class="cls-3" x1="16.52" y1="33.72" x2="11.57" y2="33.72"/>
  </g>
  <g>
    <line class="cls-3" x1="50.52" y1="23.28" x2="46.22" y2="25.76"/>
    <line class="cls-3" x1="18.65" y1="41.68" x2="14.36" y2="44.16"/>
  </g>
  <g>
    <line class="cls-3" x1="42.88" y1="15.64" x2="40.4" y2="19.93"/>
    <line class="cls-3" x1="24.48" y1="47.5" x2="22" y2="51.8"/>
  </g>
  <g>
    <polygon class="cls-1" points="32.44 19.77 30.07 38.31 34.81 38.31 32.44 19.77"/>
    <polygon class="cls-1" points="23.06 44.86 34.62 37.32 32.3 34.6 23.06 44.86"/>
  </g>
</svg>