<?xml version="1.0" encoding="utf-8"?>
<!-- Generator: Adobe Illustrator 27.5.0, SVG Export Plug-In . SVG Version: 6.00 Build 0)  -->
<svg version="1.1" id="圖層_3" xmlns="http://www.w3.org/2000/svg" xmlns:xlink="http://www.w3.org/1999/xlink" x="0px" y="0px"
	 viewBox="0 0 300 300" style="enable-background:new 0 0 300 300;" xml:space="preserve">
<style type="text/css">
	.st0{fill:#FFFFFF;}
</style>
<path class="st0" d="M92.2,86.3c0,8.1-6.6,14.7-14.8,14.7H28.3c-8.1,0-14.7-6.6-14.7-14.7V56.8c0-8.1,6.6-14.7,14.7-14.7h49.2
	c8.2,0,14.8,6.6,14.8,14.7V86.3z M92.2,165c0,8.1-6.6,14.7-14.8,14.7H28.3c-8.1,0-14.7-6.6-14.7-14.7v-29.5
	c0-8.1,6.6-14.7,14.7-14.7h49.2c8.2,0,14.8,6.6,14.8,14.7V165z M92.2,243.6c0,8.1-6.6,14.7-14.8,14.7H28.3
	c-8.1,0-14.7-6.6-14.7-14.7v-29.5c0-8.1,6.6-14.7,14.7-14.7h49.2c8.2,0,14.8,6.6,14.8,14.7V243.6z M288.8,86.3
	c0,8.1-6.6,14.7-14.8,14.7H126.6c-8.1,0-14.7-6.6-14.7-14.7V56.8c0-8.1,6.6-14.7,14.7-14.7h147.5c8.1,0,14.8,6.6,14.8,14.7
	L288.8,86.3L288.8,86.3z M288.8,165c0,8.1-6.6,14.7-14.8,14.7H126.6c-8.1,0-14.7-6.6-14.7-14.7v-29.5c0-8.1,6.6-14.7,14.7-14.7
	h147.5c8.1,0,14.8,6.6,14.8,14.7L288.8,165L288.8,165z M288.8,243.6c0,8.1-6.6,14.7-14.8,14.7H126.6c-8.1,0-14.7-6.6-14.7-14.7
	v-29.5c0-8.1,6.6-14.7,14.7-14.7h147.5c8.1,0,14.8,6.6,14.8,14.7L288.8,243.6L288.8,243.6z"/>
</svg>
