<?xml version="1.0" encoding="UTF-8"?>
<svg id="_圖層_1" data-name="圖層 1" xmlns="http://www.w3.org/2000/svg" viewBox="0 0 23.26 27.87">
  <defs>
    <style>
      .cls-1 {
        fill: #455d7d;
      }
    </style>
  </defs>
  <path class="cls-1" d="m21.6,10.9L5.55.58C3.16-.96,0,.76,0,3.61v20.65c0,2.85,3.16,4.57,5.55,3.03l16.05-10.33c2.21-1.42,2.21-4.64,0-6.06Z"/>
</svg>