<?xml version="1.0" encoding="UTF-8"?>
<svg id="_圖層_1" data-name="圖層 1" xmlns="http://www.w3.org/2000/svg" viewBox="0 0 1920.76 230.29">
  <defs>
    <style>
      .cls-1 {
        fill: #dae2ea;
      }

      .cls-2 {
        fill: #eff0f3;
      }
    </style>
  </defs>
  <path class="cls-2" d="m0,215.74s74.08-73.72,413.51-77.28c339.43-3.56,592.22,27.3,871.12,27.3s497.27-61.71,564.92-96.13,71.21-35.6,71.21-35.6v196.27H0v-14.55Z"/>
  <path class="cls-1" d="m.76,218.48c29.98-19.11,137.69-75.53,361.32-72.9,269.01,3.16,705.76,45.89,960.53,36.4,254.77-9.49,387.69-18.99,598.15-118.68V0s-151.79,100.92-514.29,136.09c-212.04,20.57-504.79,7.91-772.22-4.75C375.21,119.08,102.8,126.12,1.12,215.74l-.36,2.74Z"/>
</svg>