<?xml version="1.0" encoding="utf-8"?>
<!-- Generator: Adobe Illustrator 27.5.0, SVG Export Plug-In . SVG Version: 6.00 Build 0)  -->
<svg version="1.1" id="_圖層_1" xmlns="http://www.w3.org/2000/svg" xmlns:xlink="http://www.w3.org/1999/xlink" x="0px" y="0px"
	 viewBox="0 0 504.3 498.3" style="enable-background:new 0 0 504.3 498.3;" xml:space="preserve">
<style type="text/css">
	.st0{clip-path:url(#SVGID_00000093897263183171197160000014212339269480885667_);}
	.st1{fill:#231815;}
	.st2{fill:#B6C1E0;}
</style>
<g>
	<g>
		<g>
			<defs>
				<circle id="SVGID_1_" cx="252.9" cy="253" r="245.1"/>
			</defs>
			<clipPath id="SVGID_00000084528100552551802910000007440530325059056053_">
				<use xlink:href="#SVGID_1_"  style="overflow:visible;"/>
			</clipPath>
			<g style="clip-path:url(#SVGID_00000084528100552551802910000007440530325059056053_);">
				<g>
					<g>
						<path class="st1" d="M13.8,163.8c0.6,0.6,0.6,1.6,0,2.2s-1.6,0.6-2.2,0s-0.6-1.6,0-2.2C12.2,163.1,13.2,163.2,13.8,163.8z"/>
						<path class="st1" d="M31.1,146.5c0.6,0.6,0.6,1.6,0,2.2s-1.6,0.6-2.2,0c-0.6-0.6-0.6-1.6,0-2.2
							C29.5,145.8,30.5,145.9,31.1,146.5z"/>
						<path class="st1" d="M48.4,129.1c0.6,0.6,0.6,1.6,0,2.2s-1.6,0.6-2.2,0c-0.6-0.6-0.6-1.6,0-2.2S47.8,128.5,48.4,129.1z"/>
						<path class="st1" d="M65.7,111.9c0.6,0.6,0.6,1.6,0,2.2s-1.6,0.6-2.2,0c-0.6-0.6-0.6-1.6,0-2.2
							C64.1,111.2,65.1,111.2,65.7,111.9z"/>
						<path class="st1" d="M83,94.5c0.6,0.6,0.6,1.6,0,2.2s-1.6,0.6-2.2,0c-0.6-0.6-0.6-1.6,0-2.2C81.4,93.9,82.4,93.9,83,94.5z"/>
						<path class="st1" d="M100.3,77.2c0.6,0.6,0.6,1.6,0,2.2s-1.6,0.6-2.2,0c-0.6-0.6-0.6-1.6,0-2.2
							C98.7,76.6,99.7,76.6,100.3,77.2z"/>
						<path class="st1" d="M117.6,59.9c0.6,0.6,0.6,1.6,0,2.2s-1.6,0.6-2.2,0c-0.6-0.6-0.6-1.6,0-2.2C116,59.3,117,59.3,117.6,59.9z
							"/>
						<path class="st1" d="M134.9,42.6c0.6,0.6,0.6,1.6,0,2.2s-1.6,0.6-2.2,0c-0.6-0.6-0.6-1.6,0-2.2S134.3,42,134.9,42.6z"/>
						<path class="st1" d="M152.2,25.3c0.6,0.6,0.6,1.6,0,2.2s-1.6,0.6-2.2,0s-0.6-1.6,0-2.2C150.6,24.7,151.6,24.7,152.2,25.3z"/>
						<path class="st1" d="M169.5,8c0.6,0.6,0.6,1.6,0,2.2s-1.6,0.6-2.2,0s-0.6-1.6,0-2.2S168.9,7.4,169.5,8z"/>
					</g>
					<g>
						<path class="st1" d="M9.5,194.1c0.6,0.6,0.6,1.6,0,2.2s-1.6,0.6-2.2,0s-0.6-1.6,0-2.2S8.9,193.5,9.5,194.1z"/>
						<path class="st1" d="M26.8,176.8c0.6,0.6,0.6,1.6,0,2.2s-1.6,0.6-2.2,0c-0.6-0.6-0.6-1.6,0-2.2
							C25.2,176.2,26.2,176.2,26.8,176.8z"/>
						<path class="st1" d="M44.1,159.5c0.6,0.6,0.6,1.6,0,2.2s-1.6,0.6-2.2,0s-0.6-1.6,0-2.2C42.5,158.9,43.5,158.9,44.1,159.5z"/>
						<path class="st1" d="M61.4,142.2c0.6,0.6,0.6,1.6,0,2.2s-1.6,0.6-2.2,0c-0.6-0.6-0.6-1.6,0-2.2
							C59.9,141.6,60.8,141.6,61.4,142.2z"/>
						<path class="st1" d="M78.7,124.9c0.6,0.6,0.6,1.6,0,2.2s-1.6,0.6-2.2,0c-0.6-0.6-0.6-1.6,0-2.2
							C77.2,124.3,78.1,124.3,78.7,124.9z"/>
						<path class="st1" d="M96,107.6c0.6,0.6,0.6,1.6,0,2.2s-1.6,0.6-2.2,0s-0.6-1.6,0-2.2C94.5,107,95.4,107,96,107.6z"/>
						<path class="st1" d="M113.3,90.3c0.6,0.6,0.6,1.6,0,2.2s-1.6,0.6-2.2,0c-0.6-0.6-0.6-1.6,0-2.2
							C111.8,89.7,112.7,89.7,113.3,90.3z"/>
						<path class="st1" d="M130.6,73c0.6,0.6,0.6,1.6,0,2.2s-1.6,0.6-2.2,0c-0.6-0.6-0.6-1.6,0-2.2C129.1,72.4,130,72.4,130.6,73z"
							/>
						<path class="st1" d="M147.9,55.7c0.6,0.6,0.6,1.6,0,2.2s-1.6,0.6-2.2,0s-0.6-1.6,0-2.2C146.4,55.1,147.3,55.1,147.9,55.7
							L147.9,55.7z"/>
						<path class="st1" d="M165.2,38.4c0.6,0.6,0.6,1.6,0,2.2s-1.6,0.6-2.2,0s-0.6-1.6,0-2.2C163.7,37.8,164.6,37.8,165.2,38.4z"/>
						<path class="st1" d="M182.5,21.1c0.6,0.6,0.6,1.6,0,2.2s-1.6,0.6-2.2,0s-0.6-1.6,0-2.2C181,20.5,181.9,20.5,182.5,21.1z"/>
						<path class="st1" d="M199.9,3.8c0.6,0.6,0.6,1.6,0,2.2s-1.6,0.6-2.2,0s-0.6-1.6,0-2.2C198.3,3.2,199.2,3.2,199.9,3.8
							L199.9,3.8z"/>
					</g>
					<g>
						<path class="st1" d="M5.3,224.5c0.6,0.6,0.6,1.6,0,2.2s-1.6,0.6-2.2,0s-0.6-1.6,0-2.2C3.7,223.9,4.7,223.9,5.3,224.5z"/>
						<path class="st1" d="M22.6,207.2c0.6,0.6,0.6,1.6,0,2.2s-1.6,0.6-2.2,0s-0.6-1.6,0-2.2C21,206.6,22,206.6,22.6,207.2z"/>
						<path class="st1" d="M39.9,189.9c0.6,0.6,0.6,1.6,0,2.2s-1.6,0.6-2.2,0c-0.6-0.6-0.6-1.6,0-2.2S39.3,189.3,39.9,189.9z"/>
						<path class="st1" d="M57.2,172.6c0.6,0.6,0.6,1.6,0,2.2s-1.6,0.6-2.2,0c-0.6-0.6-0.6-1.6,0-2.2S56.6,172,57.2,172.6z"/>
						<path class="st1" d="M74.5,155.3c0.6,0.6,0.6,1.6,0,2.2s-1.6,0.6-2.2,0c-0.6-0.6-0.6-1.6,0-2.2
							C72.9,154.7,73.9,154.7,74.5,155.3z"/>
						<path class="st1" d="M91.8,138c0.6,0.6,0.6,1.6,0,2.2s-1.6,0.6-2.2,0s-0.6-1.6,0-2.2C90.2,137.3,91.2,137.4,91.8,138z"/>
						<path class="st1" d="M109.1,120.7c0.6,0.6,0.6,1.6,0,2.2s-1.6,0.6-2.2,0c-0.6-0.6-0.6-1.6,0-2.2
							C107.5,120,108.5,120.1,109.1,120.7z"/>
						<path class="st1" d="M126.4,103.4c0.6,0.6,0.6,1.6,0,2.2s-1.6,0.6-2.2,0c-0.6-0.6-0.6-1.6,0-2.2
							C124.8,102.7,125.8,102.8,126.4,103.4z"/>
						<path class="st1" d="M143.7,86c0.6,0.6,0.6,1.6,0,2.2s-1.6,0.6-2.2,0s-0.6-1.6,0-2.2S143.1,85.4,143.7,86z"/>
						<path class="st1" d="M161,68.8c0.6,0.6,0.6,1.6,0,2.2s-1.6,0.6-2.2,0s-0.6-1.6,0-2.2C159.4,68.1,160.4,68.1,161,68.8z"/>
						<path class="st1" d="M178.3,51.4c0.6,0.6,0.6,1.6,0,2.2s-1.6,0.6-2.2,0s-0.6-1.6,0-2.2C176.7,50.8,177.7,50.8,178.3,51.4z"/>
						<path class="st1" d="M195.6,34.1c0.6,0.6,0.6,1.6,0,2.2s-1.6,0.6-2.2,0s-0.6-1.6,0-2.2S195,33.5,195.6,34.1z"/>
						<path class="st1" d="M212.9,16.8c0.6,0.6,0.6,1.6,0,2.2s-1.6,0.6-2.2,0s-0.6-1.6,0-2.2C211.3,16.2,212.3,16.2,212.9,16.8z"/>
						<path class="st1" d="M230.2-0.5c0.6,0.6,0.6,1.6,0,2.2c-0.6,0.6-1.6,0.6-2.2,0s-0.6-1.6,0-2.2C228.6-1.1,229.6-1.1,230.2-0.5z
							"/>
					</g>
					<g>
						<path class="st1" d="M1,254.9c0.6,0.6,0.6,1.6,0,2.2s-1.6,0.6-2.2,0s-0.6-1.6,0-2.2C-0.6,254.2,0.4,254.2,1,254.9z"/>
						<path class="st1" d="M18.3,237.5c0.6,0.6,0.6,1.6,0,2.2c-0.6,0.6-1.6,0.6-2.2,0s-0.6-1.6,0-2.2
							C16.7,236.9,17.7,236.9,18.3,237.5z"/>
						<path class="st1" d="M35.6,220.2c0.6,0.6,0.6,1.6,0,2.2s-1.6,0.6-2.2,0s-0.6-1.6,0-2.2C34.1,219.6,35,219.6,35.6,220.2z"/>
						<path class="st1" d="M52.9,202.9c0.6,0.6,0.6,1.6,0,2.2s-1.6,0.6-2.2,0c-0.6-0.6-0.6-1.6,0-2.2
							C51.4,202.3,52.3,202.3,52.9,202.9z"/>
						<path class="st1" d="M70.2,185.6c0.6,0.6,0.6,1.6,0,2.2s-1.6,0.6-2.2,0s-0.6-1.6,0-2.2C68.7,185,69.6,185,70.2,185.6z"/>
						<path class="st1" d="M87.5,168.3c0.6,0.6,0.6,1.6,0,2.2s-1.6,0.6-2.2,0c-0.6-0.6-0.6-1.6,0-2.2
							C86,167.7,86.9,167.7,87.5,168.3z"/>
						<path class="st1" d="M104.8,151c0.6,0.6,0.6,1.6,0,2.2s-1.6,0.6-2.2,0c-0.6-0.6-0.6-1.6,0-2.2
							C103.3,150.4,104.2,150.4,104.8,151z"/>
						<path class="st1" d="M122.1,133.7c0.6,0.6,0.6,1.6,0,2.2s-1.6,0.6-2.2,0s-0.6-1.6,0-2.2C120.6,133.1,121.5,133.1,122.1,133.7z
							"/>
						<path class="st1" d="M139.4,116.4c0.6,0.6,0.6,1.6,0,2.2s-1.6,0.6-2.2,0c-0.6-0.6-0.6-1.6,0-2.2
							C137.9,115.8,138.8,115.8,139.4,116.4z"/>
						<path class="st1" d="M156.8,99.1c0.6,0.6,0.6,1.6,0,2.2s-1.6,0.6-2.2,0s-0.6-1.6,0-2.2C155.2,98.5,156.1,98.5,156.8,99.1z"/>
						<path class="st1" d="M174,81.8c0.6,0.6,0.6,1.6,0,2.2s-1.6,0.6-2.2,0s-0.6-1.6,0-2.2C172.5,81.2,173.4,81.2,174,81.8z"/>
						<path class="st1" d="M191.4,64.5c0.6,0.6,0.6,1.6,0,2.2s-1.6,0.6-2.2,0s-0.6-1.6,0-2.2S190.8,63.9,191.4,64.5z"/>
						<path class="st1" d="M208.7,47.2c0.6,0.6,0.6,1.6,0,2.2s-1.6,0.6-2.2,0s-0.6-1.6,0-2.2S208.1,46.6,208.7,47.2z"/>
						<path class="st1" d="M226,29.9c0.6,0.6,0.6,1.6,0,2.2s-1.6,0.6-2.2,0s-0.6-1.6,0-2.2S225.4,29.3,226,29.9z"/>
						<path class="st1" d="M243.3,12.6c0.6,0.6,0.6,1.6,0,2.2s-1.6,0.6-2.2,0s-0.6-1.6,0-2.2C241.7,12,242.7,12,243.3,12.6z"/>
					</g>
					<g>
						<path class="st1" d="M14.1,267.9c0.6,0.6,0.6,1.6,0,2.2c-0.6,0.6-1.6,0.6-2.2,0s-0.6-1.6,0-2.2S13.5,267.3,14.1,267.9z"/>
						<ellipse class="st1" cx="30.3" cy="251.7" rx="1.5" ry="1.5"/>
						<path class="st1" d="M48.7,233.3c0.6,0.6,0.6,1.6,0,2.2s-1.6,0.6-2.2,0c-0.6-0.6-0.6-1.6,0-2.2
							C47.1,232.7,48.1,232.7,48.7,233.3z"/>
						<path class="st1" d="M66,216c0.6,0.6,0.6,1.6,0,2.2s-1.6,0.6-2.2,0s-0.6-1.6,0-2.2C64.4,215.4,65.4,215.4,66,216z"/>
						<ellipse class="st1" cx="82.2" cy="199.8" rx="1.5" ry="1.5"/>
						<path class="st1" d="M100.6,181.4c0.6,0.6,0.6,1.6,0,2.2s-1.6,0.6-2.2,0s-0.6-1.6,0-2.2C99,180.8,100,180.8,100.6,181.4z"/>
						<path class="st1" d="M117.9,164.1c0.6,0.6,0.6,1.6,0,2.2s-1.6,0.6-2.2,0c-0.6-0.6-0.6-1.6,0-2.2S117.3,163.5,117.9,164.1z"/>
						<path class="st1" d="M135.2,146.8c0.6,0.6,0.6,1.6,0,2.2s-1.6,0.6-2.2,0c-0.6-0.6-0.6-1.6,0-2.2
							C133.6,146.2,134.6,146.2,135.2,146.8z"/>
						<path class="st1" d="M152.5,129.5c0.6,0.6,0.6,1.6,0,2.2s-1.6,0.6-2.2,0s-0.6-1.6,0-2.2S151.9,128.9,152.5,129.5z"/>
						<path class="st1" d="M169.8,112.2c0.6,0.6,0.6,1.6,0,2.2s-1.6,0.6-2.2,0s-0.6-1.6,0-2.2C168.2,111.6,169.2,111.6,169.8,112.2z
							"/>
						<path class="st1" d="M187.1,94.9c0.6,0.6,0.6,1.6,0,2.2s-1.6,0.6-2.2,0s-0.6-1.6,0-2.2C185.5,94.2,186.5,94.3,187.1,94.9z"/>
						<path class="st1" d="M204.4,77.6c0.6,0.6,0.6,1.6,0,2.2s-1.6,0.6-2.2,0s-0.6-1.6,0-2.2C202.9,76.9,203.8,77,204.4,77.6z"/>
						<path class="st1" d="M221.7,60.2c0.6,0.6,0.6,1.6,0,2.2s-1.6,0.6-2.2,0s-0.6-1.6,0-2.2S221.1,59.6,221.7,60.2z"/>
						<path class="st1" d="M239,43c0.6,0.6,0.6,1.6,0,2.2s-1.6,0.6-2.2,0s-0.6-1.6,0-2.2C237.4,42.3,238.4,42.4,239,43z"/>
						<path class="st1" d="M256.3,25.6c0.6,0.6,0.6,1.6,0,2.2s-1.6,0.6-2.2,0s-0.6-1.6,0-2.2C254.8,25,255.7,25,256.3,25.6z"/>
						<path class="st1" d="M273.6,8.3c0.6,0.6,0.6,1.6,0,2.2s-1.6,0.6-2.2,0s-0.6-1.6,0-2.2C272.1,7.7,273,7.7,273.6,8.3z"/>
					</g>
					<g>
						<path class="st1" d="M9.8,298.3c0.6,0.6,0.6,1.6,0,2.2c-0.6,0.6-1.6,0.6-2.2,0s-0.6-1.6,0-2.2C8.2,297.7,9.2,297.7,9.8,298.3z
							"/>
						<path class="st1" d="M27.1,281c0.6,0.6,0.6,1.6,0,2.2c-0.6,0.6-1.6,0.6-2.2,0c-0.6-0.6-0.6-1.6,0-2.2
							C25.6,280.4,26.5,280.4,27.1,281z"/>
						<ellipse class="st1" cx="43.3" cy="264.7" rx="1.5" ry="1.5"/>
						<path class="st1" d="M61.7,246.4c0.6,0.6,0.6,1.6,0,2.2s-1.6,0.6-2.2,0c-0.6-0.6-0.6-1.6,0-2.2
							C60.2,245.7,61.1,245.8,61.7,246.4z"/>
						<path class="st1" d="M79,229c0.6,0.6,0.6,1.6,0,2.2s-1.6,0.6-2.2,0c-0.6-0.6-0.6-1.6,0-2.2C77.5,228.4,78.4,228.4,79,229z"/>
						<ellipse class="st1" cx="95.3" cy="212.8" rx="1.5" ry="1.5"/>
						<path class="st1" d="M113.6,194.4c0.6,0.6,0.6,1.6,0,2.2s-1.6,0.6-2.2,0c-0.6-0.6-0.6-1.6,0-2.2
							C112.1,193.8,113.1,193.8,113.6,194.4z"/>
						<path class="st1" d="M130.9,177.1c0.6,0.6,0.6,1.6,0,2.2s-1.6,0.6-2.2,0c-0.6-0.6-0.6-1.6,0-2.2S130.4,176.5,130.9,177.1z"/>
						<path class="st1" d="M148.3,159.8c0.6,0.6,0.6,1.6,0,2.2s-1.6,0.6-2.2,0s-0.6-1.6,0-2.2C146.7,159.2,147.7,159.2,148.3,159.8z
							"/>
						<path class="st1" d="M165.6,142.5c0.6,0.6,0.6,1.6,0,2.2s-1.6,0.6-2.2,0s-0.6-1.6,0-2.2S165,141.9,165.6,142.5z"/>
						<path class="st1" d="M182.9,125.2c0.6,0.6,0.6,1.6,0,2.2s-1.6,0.6-2.2,0s-0.6-1.6,0-2.2S182.3,124.6,182.9,125.2z"/>
						<path class="st1" d="M200.2,107.9c0.6,0.6,0.6,1.6,0,2.2s-1.6,0.6-2.2,0s-0.6-1.6,0-2.2S199.6,107.3,200.2,107.9z"/>
						<path class="st1" d="M217.5,90.6c0.6,0.6,0.6,1.6,0,2.2s-1.6,0.6-2.2,0s-0.6-1.6,0-2.2S216.9,90,217.5,90.6z"/>
						<path class="st1" d="M234.8,73.3c0.6,0.6,0.6,1.6,0,2.2s-1.6,0.6-2.2,0s-0.6-1.6,0-2.2S234.2,72.7,234.8,73.3z"/>
						<path class="st1" d="M252.1,56c0.6,0.6,0.6,1.6,0,2.2s-1.6,0.6-2.2,0s-0.6-1.6,0-2.2S251.5,55.4,252.1,56z"/>
						<path class="st1" d="M269.4,38.7c0.6,0.6,0.6,1.6,0,2.2s-1.6,0.6-2.2,0s-0.6-1.6,0-2.2S268.8,38.1,269.4,38.7z"/>
						<path class="st1" d="M286.7,21.4c0.6,0.6,0.6,1.6,0,2.2s-1.6,0.6-2.2,0s-0.6-1.6,0-2.2S286.1,20.8,286.7,21.4z"/>
						<path class="st1" d="M304,4.1c0.6,0.6,0.6,1.6,0,2.2s-1.6,0.6-2.2,0s-0.6-1.6,0-2.2S303.4,3.5,304,4.1z"/>
					</g>
					<g>
						<path class="st1" d="M5.6,328.6c0.6,0.6,0.6,1.6,0,2.2c-0.6,0.6-1.6,0.6-2.2,0s-0.6-1.6,0-2.2C4,328,5,328,5.6,328.6z"/>
						<path class="st1" d="M22.9,311.3c0.6,0.6,0.6,1.6,0,2.2c-0.6,0.6-1.6,0.6-2.2,0s-0.6-1.6,0-2.2S22.3,310.7,22.9,311.3z"/>
						<path class="st1" d="M40.2,294c0.6,0.6,0.6,1.6,0,2.2c-0.6,0.6-1.6,0.6-2.2,0c-0.6-0.6-0.6-1.6,0-2.2
							C38.6,293.4,39.6,293.4,40.2,294z"/>
						<path class="st1" d="M57.5,276.7c0.6,0.6,0.6,1.6,0,2.2c-0.6,0.6-1.6,0.6-2.2,0c-0.6-0.6-0.6-1.6,0-2.2
							C55.9,276.1,56.9,276.1,57.5,276.7z"/>
						<path class="st1" d="M74.8,259.4c0.6,0.6,0.6,1.6,0,2.2s-1.6,0.6-2.2,0s-0.6-1.6,0-2.2S74.2,258.8,74.8,259.4z"/>
						<path class="st1" d="M92.1,242.1c0.6,0.6,0.6,1.6,0,2.2s-1.6,0.6-2.2,0c-0.6-0.6-0.6-1.6,0-2.2
							C90.5,241.5,91.5,241.5,92.1,242.1z"/>
						<path class="st1" d="M109.4,224.8c0.6,0.6,0.6,1.6,0,2.2s-1.6,0.6-2.2,0c-0.6-0.6-0.6-1.6,0-2.2
							C107.8,224.2,108.8,224.2,109.4,224.8z"/>
						<path class="st1" d="M126.7,207.5c0.6,0.6,0.6,1.6,0,2.2s-1.6,0.6-2.2,0s-0.6-1.6,0-2.2S126.1,206.9,126.7,207.5z"/>
						<path class="st1" d="M144,190.2c0.6,0.6,0.6,1.6,0,2.2s-1.6,0.6-2.2,0s-0.6-1.6,0-2.2C142.4,189.6,143.4,189.6,144,190.2z"/>
						<path class="st1" d="M161.3,172.9c0.6,0.6,0.6,1.6,0,2.2s-1.6,0.6-2.2,0s-0.6-1.6,0-2.2C159.7,172.3,160.7,172.3,161.3,172.9z
							"/>
						<path class="st1" d="M178.6,155.6c0.6,0.6,0.6,1.6,0,2.2s-1.6,0.6-2.2,0s-0.6-1.6,0-2.2S178,155,178.6,155.6z"/>
						<path class="st1" d="M195.9,138.3c0.6,0.6,0.6,1.6,0,2.2s-1.6,0.6-2.2,0s-0.6-1.6,0-2.2C194.4,137.7,195.3,137.7,195.9,138.3z
							"/>
						<path class="st1" d="M213.2,121c0.6,0.6,0.6,1.6,0,2.2s-1.6,0.6-2.2,0s-0.6-1.6,0-2.2C211.7,120.4,212.6,120.4,213.2,121z"/>
						<path class="st1" d="M230.5,103.7c0.6,0.6,0.6,1.6,0,2.2s-1.6,0.6-2.2,0s-0.6-1.6,0-2.2C229,103.1,229.9,103.1,230.5,103.7z"
							/>
						<path class="st1" d="M247.8,86.4c0.6,0.6,0.6,1.6,0,2.2s-1.6,0.6-2.2,0s-0.6-1.6,0-2.2C246.3,85.8,247.2,85.8,247.8,86.4z"/>
						<path class="st1" d="M265.1,69.1c0.6,0.6,0.6,1.6,0,2.2s-1.6,0.6-2.2,0s-0.6-1.6,0-2.2C263.6,68.4,264.5,68.5,265.1,69.1z"/>
						<path class="st1" d="M282.4,51.8c0.6,0.6,0.6,1.6,0,2.2s-1.6,0.6-2.2,0s-0.6-1.6,0-2.2C280.9,51.1,281.8,51.2,282.4,51.8z"/>
						<path class="st1" d="M299.8,34.5c0.6,0.6,0.6,1.6,0,2.2s-1.6,0.6-2.2,0s-0.6-1.6,0-2.2C298.2,33.8,299.1,33.9,299.8,34.5z"/>
						<path class="st1" d="M317,17.1c0.6,0.6,0.6,1.6,0,2.2s-1.6,0.6-2.2,0s-0.6-1.6,0-2.2C315.5,16.5,316.4,16.5,317,17.1z"/>
						<path class="st1" d="M334.4-0.1c0.6,0.6,0.6,1.6,0,2.2c-0.6,0.6-1.6,0.6-2.2,0s-0.6-1.6,0-2.2C332.8-0.8,333.8-0.7,334.4-0.1z
							"/>
					</g>
					<g>
						<path class="st1" d="M1.3,359c0.6,0.6,0.6,1.6,0,2.2c-0.6,0.6-1.6,0.6-2.2,0s-0.6-1.6,0-2.2C-0.2,358.4,0.7,358.4,1.3,359z"/>
						<path class="st1" d="M18.6,341.7c0.6,0.6,0.6,1.6,0,2.2c-0.6,0.6-1.6,0.6-2.2,0s-0.6-1.6,0-2.2
							C17.1,341.1,18,341.1,18.6,341.7z"/>
						<path class="st1" d="M35.9,324.4c0.6,0.6,0.6,1.6,0,2.2c-0.6,0.6-1.6,0.6-2.2,0s-0.6-1.6,0-2.2
							C34.4,323.8,35.3,323.8,35.9,324.4z"/>
						<path class="st1" d="M53.2,307.1c0.6,0.6,0.6,1.6,0,2.2c-0.6,0.6-1.6,0.6-2.2,0c-0.6-0.6-0.6-1.6,0-2.2
							C51.7,306.5,52.6,306.5,53.2,307.1z"/>
						<path class="st1" d="M70.6,289.8c0.6,0.6,0.6,1.6,0,2.2c-0.6,0.6-1.6,0.6-2.2,0c-0.6-0.6-0.6-1.6,0-2.2
							C69,289.2,70,289.2,70.6,289.8z"/>
						<path class="st1" d="M87.9,272.5c0.6,0.6,0.6,1.6,0,2.2c-0.6,0.6-1.6,0.6-2.2,0s-0.6-1.6,0-2.2
							C86.3,271.9,87.3,271.9,87.9,272.5z"/>
						<path class="st1" d="M105.2,255.2c0.6,0.6,0.6,1.6,0,2.2s-1.6,0.6-2.2,0c-0.6-0.6-0.6-1.6,0-2.2S104.6,254.6,105.2,255.2z"/>
						<path class="st1" d="M122.5,237.9c0.6,0.6,0.6,1.6,0,2.2s-1.6,0.6-2.2,0c-0.6-0.6-0.6-1.6,0-2.2
							C120.9,237.2,121.9,237.3,122.5,237.9z"/>
						<path class="st1" d="M139.8,220.6c0.6,0.6,0.6,1.6,0,2.2s-1.6,0.6-2.2,0s-0.6-1.6,0-2.2C138.2,219.9,139.2,220,139.8,220.6z"
							/>
						<path class="st1" d="M157.1,203.2c0.6,0.6,0.6,1.6,0,2.2s-1.6,0.6-2.2,0s-0.6-1.6,0-2.2S156.5,202.6,157.1,203.2z"/>
						<path class="st1" d="M174.4,186c0.6,0.6,0.6,1.6,0,2.2s-1.6,0.6-2.2,0s-0.6-1.6,0-2.2C172.8,185.3,173.8,185.4,174.4,186z"/>
						<path class="st1" d="M191.7,168.6c0.6,0.6,0.6,1.6,0,2.2s-1.6,0.6-2.2,0s-0.6-1.6,0-2.2S191.1,168,191.7,168.6z"/>
						<path class="st1" d="M209,151.3c0.6,0.6,0.6,1.6,0,2.2s-1.6,0.6-2.2,0s-0.6-1.6,0-2.2C207.4,150.7,208.4,150.7,209,151.3z"/>
						<path class="st1" d="M226.3,134c0.6,0.6,0.6,1.6,0,2.2s-1.6,0.6-2.2,0s-0.6-1.6,0-2.2C224.7,133.4,225.7,133.4,226.3,134z"/>
						<path class="st1" d="M243.6,116.7c0.6,0.6,0.6,1.6,0,2.2s-1.6,0.6-2.2,0s-0.6-1.6,0-2.2S243,116.1,243.6,116.7z"/>
						<path class="st1" d="M260.9,99.4c0.6,0.6,0.6,1.6,0,2.2s-1.6,0.6-2.2,0s-0.6-1.6,0-2.2S260.3,98.8,260.9,99.4z"/>
						<path class="st1" d="M278.2,82.1c0.6,0.6,0.6,1.6,0,2.2s-1.6,0.6-2.2,0s-0.6-1.6,0-2.2S277.6,81.5,278.2,82.1z"/>
						<path class="st1" d="M295.5,64.8c0.6,0.6,0.6,1.6,0,2.2s-1.6,0.6-2.2,0s-0.6-1.6,0-2.2C293.9,64.2,294.9,64.2,295.5,64.8z"/>
						<path class="st1" d="M312.8,47.5c0.6,0.6,0.6,1.6,0,2.2s-1.6,0.6-2.2,0s-0.6-1.6,0-2.2C311.2,46.9,312.2,46.9,312.8,47.5z"/>
						<path class="st1" d="M330.1,30.2c0.6,0.6,0.6,1.6,0,2.2s-1.6,0.6-2.2,0s-0.6-1.6,0-2.2S329.5,29.6,330.1,30.2z"/>
						<path class="st1" d="M347.4,12.9c0.6,0.6,0.6,1.6,0,2.2s-1.6,0.6-2.2,0s-0.6-1.6,0-2.2C345.9,12.3,346.8,12.3,347.4,12.9z"/>
					</g>
					<g>
						<path class="st1" d="M14.4,372c0.6,0.6,0.6,1.6,0,2.2s-1.6,0.6-2.2,0s-0.6-1.6,0-2.2S13.8,371.4,14.4,372z"/>
						<ellipse class="st1" cx="30.6" cy="355.8" rx="1.5" ry="1.5"/>
						<path class="st1" d="M49,337.4c0.6,0.6,0.6,1.6,0,2.2s-1.6,0.6-2.2,0c-0.6-0.6-0.6-1.6,0-2.2S48.4,336.8,49,337.4z"/>
						<path class="st1" d="M66.3,320.1c0.6,0.6,0.6,1.6,0,2.2s-1.6,0.6-2.2,0s-0.6-1.6,0-2.2S65.7,319.5,66.3,320.1z"/>
						<ellipse class="st1" cx="82.5" cy="303.9" rx="1.5" ry="1.5"/>
						<path class="st1" d="M100.9,285.5c0.6,0.6,0.6,1.6,0,2.2s-1.6,0.6-2.2,0c-0.6-0.6-0.6-1.6,0-2.2S100.3,284.9,100.9,285.5z"/>
						<path class="st1" d="M118.2,268.2c0.6,0.6,0.6,1.6,0,2.2s-1.6,0.6-2.2,0s-0.6-1.6,0-2.2S117.6,267.6,118.2,268.2z"/>
						<ellipse class="st1" cx="134.4" cy="252" rx="1.5" ry="1.5"/>
						<path class="st1" d="M152.8,233.6c0.6,0.6,0.6,1.6,0,2.2s-1.6,0.6-2.2,0s-0.6-1.6,0-2.2S152.2,233,152.8,233.6z"/>
						<path class="st1" d="M170.1,216.3c0.6,0.6,0.6,1.6,0,2.2s-1.6,0.6-2.2,0s-0.6-1.6,0-2.2S169.5,215.7,170.1,216.3z"/>
						<ellipse class="st1" cx="186.3" cy="200.1" rx="1.5" ry="1.5"/>
						<path class="st1" d="M204.7,181.7c0.6,0.6,0.6,1.6,0,2.2s-1.6,0.6-2.2,0s-0.6-1.6,0-2.2C203.2,181.1,204.1,181.1,204.7,181.7z
							"/>
						<path class="st1" d="M222,164.4c0.6,0.6,0.6,1.6,0,2.2s-1.6,0.6-2.2,0s-0.6-1.6,0-2.2C220.5,163.8,221.4,163.8,222,164.4z"/>
						<path class="st1" d="M239.3,147.1c0.6,0.6,0.6,1.6,0,2.2s-1.6,0.6-2.2,0s-0.6-1.6,0-2.2C237.8,146.5,238.7,146.5,239.3,147.1z
							"/>
						<path class="st1" d="M256.6,129.8c0.6,0.6,0.6,1.6,0,2.2s-1.6,0.6-2.2,0s-0.6-1.6,0-2.2C255.1,129.2,256,129.2,256.6,129.8z"
							/>
						<path class="st1" d="M274,112.5c0.6,0.6,0.6,1.6,0,2.2s-1.6,0.6-2.2,0s-0.6-1.6,0-2.2S273.4,111.9,274,112.5z"/>
						<path class="st1" d="M291.3,95.2c0.6,0.6,0.6,1.6,0,2.2s-1.6,0.6-2.2,0s-0.6-1.6,0-2.2C289.7,94.6,290.7,94.6,291.3,95.2z"/>
						<path class="st1" d="M308.6,77.9c0.6,0.6,0.6,1.6,0,2.2s-1.6,0.6-2.2,0s-0.6-1.6,0-2.2S308,77.3,308.6,77.9z"/>
						<path class="st1" d="M325.9,60.6c0.6,0.6,0.6,1.6,0,2.2s-1.6,0.6-2.2,0s-0.6-1.6,0-2.2S325.3,60,325.9,60.6z"/>
						<path class="st1" d="M343.2,43.3c0.6,0.6,0.6,1.6,0,2.2s-1.6,0.6-2.2,0s-0.6-1.6,0-2.2C341.6,42.7,342.6,42.7,343.2,43.3z"/>
						<path class="st1" d="M360.5,26c0.6,0.6,0.6,1.6,0,2.2s-1.6,0.6-2.2,0s-0.6-1.6,0-2.2C358.9,25.3,359.9,25.4,360.5,26z"/>
						<path class="st1" d="M377.8,8.7c0.6,0.6,0.6,1.6,0,2.2s-1.6,0.6-2.2,0s-0.6-1.6,0-2.2C376.2,8,377.2,8.1,377.8,8.7z"/>
					</g>
					<g>
						<path class="st1" d="M10.1,402.4c0.6,0.6,0.6,1.6,0,2.2c-0.6,0.6-1.6,0.6-2.2,0s-0.6-1.6,0-2.2
							C8.6,401.8,9.5,401.8,10.1,402.4z"/>
						<path class="st1" d="M27.4,385.1c0.6,0.6,0.6,1.6,0,2.2c-0.6,0.6-1.6,0.6-2.2,0c-0.6-0.6-0.6-1.6,0-2.2
							C25.9,384.5,26.9,384.5,27.4,385.1z"/>
						<path class="st1" d="M44.8,367.8c0.6,0.6,0.6,1.6,0,2.2c-0.6,0.6-1.6,0.6-2.2,0c-0.6-0.6-0.6-1.6,0-2.2
							C43.2,367.2,44.2,367.2,44.8,367.8z"/>
						<path class="st1" d="M62.1,350.5c0.6,0.6,0.6,1.6,0,2.2c-0.6,0.6-1.6,0.6-2.2,0s-0.6-1.6,0-2.2
							C60.5,349.9,61.5,349.9,62.1,350.5z"/>
						<path class="st1" d="M79.4,333.2c0.6,0.6,0.6,1.6,0,2.2c-0.6,0.6-1.6,0.6-2.2,0c-0.6-0.6-0.6-1.6,0-2.2S78.8,332.6,79.4,333.2
							z"/>
						<path class="st1" d="M96.7,315.9c0.6,0.6,0.6,1.6,0,2.2s-1.6,0.6-2.2,0c-0.6-0.6-0.6-1.6,0-2.2S96.1,315.3,96.7,315.9z"/>
						<path class="st1" d="M114,298.6c0.6,0.6,0.6,1.6,0,2.2c-0.6,0.6-1.6,0.6-2.2,0s-0.6-1.6,0-2.2C112.4,298,113.4,298,114,298.6z
							"/>
						<path class="st1" d="M131.3,281.3c0.6,0.6,0.6,1.6,0,2.2c-0.6,0.6-1.6,0.6-2.2,0c-0.6-0.6-0.6-1.6,0-2.2
							C129.7,280.7,130.7,280.7,131.3,281.3z"/>
						<path class="st1" d="M148.6,264c0.6,0.6,0.6,1.6,0,2.2s-1.6,0.6-2.2,0s-0.6-1.6,0-2.2C147,263.4,148,263.4,148.6,264z"/>
						<path class="st1" d="M165.9,246.7c0.6,0.6,0.6,1.6,0,2.2s-1.6,0.6-2.2,0s-0.6-1.6,0-2.2S165.3,246.1,165.9,246.7z"/>
						<path class="st1" d="M183.2,229.4c0.6,0.6,0.6,1.6,0,2.2s-1.6,0.6-2.2,0s-0.6-1.6,0-2.2S182.6,228.8,183.2,229.4z"/>
						<path class="st1" d="M200.5,212.1c0.6,0.6,0.6,1.6,0,2.2s-1.6,0.6-2.2,0s-0.6-1.6,0-2.2C198.9,211.4,199.9,211.5,200.5,212.1z
							"/>
						<path class="st1" d="M217.8,194.8c0.6,0.6,0.6,1.6,0,2.2s-1.6,0.6-2.2,0s-0.6-1.6,0-2.2C216.2,194.1,217.2,194.2,217.8,194.8z
							"/>
						<path class="st1" d="M235.1,177.5c0.6,0.6,0.6,1.6,0,2.2s-1.6,0.6-2.2,0s-0.6-1.6,0-2.2C233.5,176.8,234.5,176.9,235.1,177.5z
							"/>
						<path class="st1" d="M252.4,160.1c0.6,0.6,0.6,1.6,0,2.2s-1.6,0.6-2.2,0s-0.6-1.6,0-2.2S251.8,159.5,252.4,160.1z"/>
						<path class="st1" d="M269.7,142.9c0.6,0.6,0.6,1.6,0,2.2s-1.6,0.6-2.2,0s-0.6-1.6,0-2.2C268.1,142.2,269.1,142.2,269.7,142.9z
							"/>
						<path class="st1" d="M287,125.5c0.6,0.6,0.6,1.6,0,2.2s-1.6,0.6-2.2,0s-0.6-1.6,0-2.2S286.4,124.9,287,125.5z"/>
						<path class="st1" d="M304.3,108.2c0.6,0.6,0.6,1.6,0,2.2s-1.6,0.6-2.2,0s-0.6-1.6,0-2.2C302.7,107.6,303.7,107.6,304.3,108.2z
							"/>
						<path class="st1" d="M321.6,90.9c0.6,0.6,0.6,1.6,0,2.2s-1.6,0.6-2.2,0s-0.6-1.6,0-2.2S321,90.3,321.6,90.9z"/>
						<path class="st1" d="M338.9,73.6c0.6,0.6,0.6,1.6,0,2.2s-1.6,0.6-2.2,0s-0.6-1.6,0-2.2C337.4,73,338.3,73,338.9,73.6z"/>
						<path class="st1" d="M356.2,56.3c0.6,0.6,0.6,1.6,0,2.2s-1.6,0.6-2.2,0s-0.6-1.6,0-2.2C354.7,55.7,355.6,55.7,356.2,56.3z"/>
						<path class="st1" d="M373.5,39c0.6,0.6,0.6,1.6,0,2.2s-1.6,0.6-2.2,0s-0.6-1.6,0-2.2C372,38.4,372.9,38.4,373.5,39z"/>
						<path class="st1" d="M390.8,21.7c0.6,0.6,0.6,1.6,0,2.2s-1.6,0.6-2.2,0s-0.6-1.6,0-2.2C389.3,21.1,390.2,21.1,390.8,21.7z"/>
						<path class="st1" d="M408.1,4.4c0.6,0.6,0.6,1.6,0,2.2s-1.6,0.6-2.2,0s-0.6-1.6,0-2.2C406.6,3.8,407.5,3.8,408.1,4.4z"/>
					</g>
					<g>
						<ellipse class="st1" cx="22.1" cy="416.6" rx="1.5" ry="1.5"/>
						<ellipse class="st1" cx="39.4" cy="399.2" rx="1.5" ry="1.5"/>
						<path class="st1" d="M57.8,380.9c0.6,0.6,0.6,1.6,0,2.2s-1.6,0.6-2.2,0c-0.6-0.6-0.6-1.6,0-2.2S57.2,380.3,57.8,380.9z"/>
						<ellipse class="st1" cx="74" cy="364.6" rx="1.5" ry="1.5"/>
						<ellipse class="st1" cx="91.3" cy="347.3" rx="1.5" ry="1.5"/>
						<path class="st1" d="M109.7,329c0.6,0.6,0.6,1.6,0,2.2s-1.6,0.6-2.2,0c-0.6-0.6-0.6-1.6,0-2.2
							C108.2,328.3,109.1,328.3,109.7,329z"/>
						<ellipse class="st1" cx="125.9" cy="312.7" rx="1.5" ry="1.5"/>
						<ellipse class="st1" cx="143.2" cy="295.4" rx="1.5" ry="1.5"/>
						<path class="st1" d="M161.6,277c0.6,0.6,0.6,1.6,0,2.2c-0.6,0.6-1.6,0.6-2.2,0s-0.6-1.6,0-2.2
							C160.1,276.4,161,276.4,161.6,277z"/>
						<ellipse class="st1" cx="177.9" cy="260.8" rx="1.5" ry="1.5"/>
						<ellipse class="st1" cx="195.2" cy="243.5" rx="1.5" ry="1.5"/>
						<path class="st1" d="M213.5,225.1c0.6,0.6,0.6,1.6,0,2.2s-1.6,0.6-2.2,0s-0.6-1.6,0-2.2C212,224.5,212.9,224.5,213.5,225.1z"
							/>
						<ellipse class="st1" cx="229.8" cy="208.9" rx="1.5" ry="1.5"/>
						<path class="st1" d="M248.1,190.5c0.6,0.6,0.6,1.6,0,2.2s-1.6,0.6-2.2,0s-0.6-1.6,0-2.2C246.6,189.9,247.5,189.9,248.1,190.5z
							"/>
						<path class="st1" d="M265.5,173.2c0.6,0.6,0.6,1.6,0,2.2s-1.6,0.6-2.2,0s-0.6-1.6,0-2.2S264.9,172.6,265.5,173.2z"/>
						<path class="st1" d="M282.8,155.9c0.6,0.6,0.6,1.6,0,2.2s-1.6,0.6-2.2,0s-0.6-1.6,0-2.2C281.2,155.3,282.2,155.3,282.8,155.9z
							"/>
						<path class="st1" d="M300.1,138.6c0.6,0.6,0.6,1.6,0,2.2s-1.6,0.6-2.2,0s-0.6-1.6,0-2.2S299.5,138,300.1,138.6z"/>
						<path class="st1" d="M317.4,121.3c0.6,0.6,0.6,1.6,0,2.2s-1.6,0.6-2.2,0s-0.6-1.6,0-2.2C315.8,120.7,316.8,120.7,317.4,121.3z
							"/>
						<path class="st1" d="M334.7,104c0.6,0.6,0.6,1.6,0,2.2s-1.6,0.6-2.2,0s-0.6-1.6,0-2.2S334.1,103.4,334.7,104z"/>
						<path class="st1" d="M352,86.7c0.6,0.6,0.6,1.6,0,2.2s-1.6,0.6-2.2,0s-0.6-1.6,0-2.2S351.4,86.1,352,86.7z"/>
						<path class="st1" d="M369.3,69.4c0.6,0.6,0.6,1.6,0,2.2s-1.6,0.6-2.2,0s-0.6-1.6,0-2.2C367.7,68.8,368.7,68.8,369.3,69.4z"/>
						<path class="st1" d="M386.6,52.1c0.6,0.6,0.6,1.6,0,2.2s-1.6,0.6-2.2,0s-0.6-1.6,0-2.2S386,51.5,386.6,52.1z"/>
						<path class="st1" d="M403.9,34.8c0.6,0.6,0.6,1.6,0,2.2s-1.6,0.6-2.2,0s-0.6-1.6,0-2.2C402.3,34.2,403.3,34.2,403.9,34.8z"/>
						<path class="st1" d="M421.2,17.5c0.6,0.6,0.6,1.6,0,2.2s-1.6,0.6-2.2,0s-0.6-1.6,0-2.2S420.6,16.9,421.2,17.5z"/>
						<path class="st1" d="M438.5,0.2c0.6,0.6,0.6,1.6,0,2.2c-0.6,0.6-1.6,0.6-2.2,0c-0.6-0.6-0.6-1.6,0-2.2
							C436.9-0.4,437.9-0.4,438.5,0.2z"/>
					</g>
					<g>
						<path class="st1" d="M36.3,428.5c0.6,0.6,0.6,1.6,0,2.2c-0.6,0.6-1.6,0.6-2.2,0s-0.6-1.6,0-2.2
							C34.7,427.9,35.7,427.9,36.3,428.5z"/>
						<path class="st1" d="M53.6,411.2c0.6,0.6,0.6,1.6,0,2.2c-0.6,0.6-1.6,0.6-2.2,0c-0.6-0.6-0.6-1.6,0-2.2
							C52,410.6,53,410.6,53.6,411.2z"/>
						<path class="st1" d="M70.9,393.9c0.6,0.6,0.6,1.6,0,2.2c-0.6,0.6-1.6,0.6-2.2,0c-0.6-0.6-0.6-1.6,0-2.2S70.3,393.3,70.9,393.9
							z"/>
						<path class="st1" d="M88.2,376.6c0.6,0.6,0.6,1.6,0,2.2c-0.6,0.6-1.6,0.6-2.2,0s-0.6-1.6,0-2.2C86.6,376,87.6,376,88.2,376.6z
							"/>
						<path class="st1" d="M105.5,359.3c0.6,0.6,0.6,1.6,0,2.2c-0.6,0.6-1.6,0.6-2.2,0c-0.6-0.6-0.6-1.6,0-2.2
							C103.9,358.7,104.9,358.7,105.5,359.3z"/>
						<path class="st1" d="M122.8,342c0.6,0.6,0.6,1.6,0,2.2c-0.6,0.6-1.6,0.6-2.2,0s-0.6-1.6,0-2.2S122.2,341.4,122.8,342z"/>
						<path class="st1" d="M140.1,324.7c0.6,0.6,0.6,1.6,0,2.2c-0.6,0.6-1.6,0.6-2.2,0s-0.6-1.6,0-2.2
							C138.5,324.1,139.5,324.1,140.1,324.7z"/>
						<path class="st1" d="M157.4,307.4c0.6,0.6,0.6,1.6,0,2.2c-0.6,0.6-1.6,0.6-2.2,0s-0.6-1.6,0-2.2S156.8,306.8,157.4,307.4z"/>
						<path class="st1" d="M174.7,290.1c0.6,0.6,0.6,1.6,0,2.2c-0.6,0.6-1.6,0.6-2.2,0s-0.6-1.6,0-2.2S174.1,289.5,174.7,290.1z"/>
						<path class="st1" d="M192,272.8c0.6,0.6,0.6,1.6,0,2.2c-0.6,0.6-1.6,0.6-2.2,0s-0.6-1.6,0-2.2
							C190.4,272.2,191.4,272.2,192,272.8z"/>
						<path class="st1" d="M209.3,255.5c0.6,0.6,0.6,1.6,0,2.2s-1.6,0.6-2.2,0s-0.6-1.6,0-2.2C207.7,254.9,208.7,254.9,209.3,255.5z
							"/>
						<path class="st1" d="M226.6,238.2c0.6,0.6,0.6,1.6,0,2.2s-1.6,0.6-2.2,0s-0.6-1.6,0-2.2S226,237.6,226.6,238.2z"/>
						<path class="st1" d="M243.9,220.9c0.6,0.6,0.6,1.6,0,2.2s-1.6,0.6-2.2,0s-0.6-1.6,0-2.2S243.3,220.3,243.9,220.9z"/>
						<path class="st1" d="M261.2,203.6c0.6,0.6,0.6,1.6,0,2.2s-1.6,0.6-2.2,0s-0.6-1.6,0-2.2S260.6,203,261.2,203.6z"/>
						<path class="st1" d="M278.5,186.3c0.6,0.6,0.6,1.6,0,2.2s-1.6,0.6-2.2,0s-0.6-1.6,0-2.2C276.9,185.7,277.9,185.7,278.5,186.3z
							"/>
						<path class="st1" d="M295.8,169c0.6,0.6,0.6,1.6,0,2.2s-1.6,0.6-2.2,0s-0.6-1.6,0-2.2C294.2,168.3,295.2,168.4,295.8,169z"/>
						<path class="st1" d="M313.1,151.7c0.6,0.6,0.6,1.6,0,2.2s-1.6,0.6-2.2,0s-0.6-1.6,0-2.2C311.6,151,312.5,151.1,313.1,151.7z"
							/>
						<path class="st1" d="M330.4,134.4c0.6,0.6,0.6,1.6,0,2.2s-1.6,0.6-2.2,0s-0.6-1.6,0-2.2C328.9,133.7,329.8,133.8,330.4,134.4z
							"/>
						<path class="st1" d="M347.7,117c0.6,0.6,0.6,1.6,0,2.2s-1.6,0.6-2.2,0s-0.6-1.6,0-2.2C346.2,116.4,347.1,116.4,347.7,117z"/>
						<path class="st1" d="M365,99.8c0.6,0.6,0.6,1.6,0,2.2s-1.6,0.6-2.2,0s-0.6-1.6,0-2.2C363.5,99.1,364.4,99.1,365,99.8z"/>
						<path class="st1" d="M382.3,82.4c0.6,0.6,0.6,1.6,0,2.2s-1.6,0.6-2.2,0s-0.6-1.6,0-2.2C380.8,81.8,381.7,81.8,382.3,82.4z"/>
						<path class="st1" d="M399.6,65.1c0.6,0.6,0.6,1.6,0,2.2s-1.6,0.6-2.2,0s-0.6-1.6,0-2.2C398.1,64.5,399,64.5,399.6,65.1z"/>
						<path class="st1" d="M417,47.8c0.6,0.6,0.6,1.6,0,2.2s-1.6,0.6-2.2,0s-0.6-1.6,0-2.2C415.4,47.2,416.4,47.2,417,47.8z"/>
						<path class="st1" d="M434.3,30.5c0.6,0.6,0.6,1.6,0,2.2s-1.6,0.6-2.2,0s-0.6-1.6,0-2.2C432.7,29.9,433.7,29.9,434.3,30.5z"/>
						<path class="st1" d="M451.6,13.2c0.6,0.6,0.6,1.6,0,2.2s-1.6,0.6-2.2,0s-0.6-1.6,0-2.2C450,12.6,451,12.6,451.6,13.2z"/>
					</g>
					<g>
						<path class="st1" d="M49.3,441.6c0.6,0.6,0.6,1.6,0,2.2s-1.6,0.6-2.2,0s-0.6-1.6,0-2.2S48.7,441,49.3,441.6z"/>
						<path class="st1" d="M66.6,424.3c0.6,0.6,0.6,1.6,0,2.2s-1.6,0.6-2.2,0s-0.6-1.6,0-2.2S66,423.7,66.6,424.3z"/>
						<ellipse class="st1" cx="82.8" cy="408.1" rx="1.5" ry="1.5"/>
						<path class="st1" d="M101.2,389.7c0.6,0.6,0.6,1.6,0,2.2s-1.6,0.6-2.2,0s-0.6-1.6,0-2.2S100.6,389.1,101.2,389.7z"/>
						<path class="st1" d="M118.5,372.4c0.6,0.6,0.6,1.6,0,2.2s-1.6,0.6-2.2,0s-0.6-1.6,0-2.2S117.9,371.8,118.5,372.4z"/>
						<ellipse class="st1" cx="134.8" cy="356.1" rx="1.5" ry="1.5"/>
						<path class="st1" d="M153.1,337.8c0.6,0.6,0.6,1.6,0,2.2s-1.6,0.6-2.2,0s-0.6-1.6,0-2.2S152.5,337.2,153.1,337.8z"/>
						<path class="st1" d="M170.4,320.5c0.6,0.6,0.6,1.6,0,2.2s-1.6,0.6-2.2,0s-0.6-1.6,0-2.2S169.8,319.9,170.4,320.5z"/>
						<ellipse class="st1" cx="186.7" cy="304.2" rx="1.5" ry="1.5"/>
						<path class="st1" d="M205,285.8c0.6,0.6,0.6,1.6,0,2.2s-1.6,0.6-2.2,0s-0.6-1.6,0-2.2S204.4,285.2,205,285.8z"/>
						<path class="st1" d="M222.4,268.5c0.6,0.6,0.6,1.6,0,2.2s-1.6,0.6-2.2,0s-0.6-1.6,0-2.2S221.8,267.9,222.4,268.5z"/>
						<ellipse class="st1" cx="238.6" cy="252.3" rx="1.5" ry="1.5"/>
						<path class="st1" d="M257,233.9c0.6,0.6,0.6,1.6,0,2.2s-1.6,0.6-2.2,0s-0.6-1.6,0-2.2S256.4,233.3,257,233.9z"/>
						<path class="st1" d="M274.3,216.6c0.6,0.6,0.6,1.6,0,2.2s-1.6,0.6-2.2,0s-0.6-1.6,0-2.2S273.7,216,274.3,216.6z"/>
						<ellipse class="st1" cx="290.5" cy="200.4" rx="1.5" ry="1.5"/>
						<path class="st1" d="M308.9,182c0.6,0.6,0.6,1.6,0,2.2s-1.6,0.6-2.2,0s-0.6-1.6,0-2.2S308.3,181.4,308.9,182z"/>
						<path class="st1" d="M326.2,164.7c0.6,0.6,0.6,1.6,0,2.2s-1.6,0.6-2.2,0s-0.6-1.6,0-2.2S325.6,164.1,326.2,164.7z"/>
						<path class="st1" d="M343.5,147.4c0.6,0.6,0.6,1.6,0,2.2s-1.6,0.6-2.2,0s-0.6-1.6,0-2.2S342.9,146.8,343.5,147.4z"/>
						<path class="st1" d="M360.8,130.1c0.6,0.6,0.6,1.6,0,2.2s-1.6,0.6-2.2,0s-0.6-1.6,0-2.2C359.2,129.5,360.2,129.5,360.8,130.1z
							"/>
						<path class="st1" d="M378.1,112.8c0.6,0.6,0.6,1.6,0,2.2s-1.6,0.6-2.2,0s-0.6-1.6,0-2.2C376.5,112.2,377.5,112.2,378.1,112.8z
							"/>
						<path class="st1" d="M395.4,95.5c0.6,0.6,0.6,1.6,0,2.2s-1.6,0.6-2.2,0s-0.6-1.6,0-2.2S394.8,94.9,395.4,95.5z"/>
						<path class="st1" d="M412.7,78.2c0.6,0.6,0.6,1.6,0,2.2s-1.6,0.6-2.2,0s-0.6-1.6,0-2.2S412.1,77.6,412.7,78.2z"/>
						<path class="st1" d="M430,60.9c0.6,0.6,0.6,1.6,0,2.2s-1.6,0.6-2.2,0s-0.6-1.6,0-2.2C428.4,60.3,429.4,60.3,430,60.9z"/>
						<path class="st1" d="M447.3,43.6c0.6,0.6,0.6,1.6,0,2.2s-1.6,0.6-2.2,0s-0.6-1.6,0-2.2C445.7,43,446.7,43,447.3,43.6z"/>
						<path class="st1" d="M464.6,26.3c0.6,0.6,0.6,1.6,0,2.2s-1.6,0.6-2.2,0s-0.6-1.6,0-2.2C463,25.7,464,25.7,464.6,26.3z"/>
						<path class="st1" d="M481.9,9c0.6,0.6,0.6,1.6,0,2.2s-1.6,0.6-2.2,0s-0.6-1.6,0-2.2S481.3,8.4,481.9,9z"/>
					</g>
					<g>
						<path class="st1" d="M62.4,454.6c0.6,0.6,0.6,1.6,0,2.2c-0.6,0.6-1.6,0.6-2.2,0s-0.6-1.6,0-2.2C60.8,454,61.8,454,62.4,454.6z
							"/>
						<path class="st1" d="M79.7,437.3c0.6,0.6,0.6,1.6,0,2.2c-0.6,0.6-1.6,0.6-2.2,0c-0.6-0.6-0.6-1.6,0-2.2
							C78.1,436.7,79.1,436.7,79.7,437.3z"/>
						<path class="st1" d="M97,420c0.6,0.6,0.6,1.6,0,2.2c-0.6,0.6-1.6,0.6-2.2,0c-0.6-0.6-0.6-1.6,0-2.2
							C95.4,419.4,96.4,419.4,97,420z"/>
						<path class="st1" d="M114.3,402.7c0.6,0.6,0.6,1.6,0,2.2c-0.6,0.6-1.6,0.6-2.2,0s-0.6-1.6,0-2.2
							C112.7,402.1,113.7,402.1,114.3,402.7z"/>
						<path class="st1" d="M131.6,385.4c0.6,0.6,0.6,1.6,0,2.2c-0.6,0.6-1.6,0.6-2.2,0c-0.6-0.6-0.6-1.6,0-2.2
							C130,384.8,131,384.8,131.6,385.4z"/>
						<path class="st1" d="M148.9,368.1c0.6,0.6,0.6,1.6,0,2.2c-0.6,0.6-1.6,0.6-2.2,0s-0.6-1.6,0-2.2
							C147.3,367.5,148.3,367.5,148.9,368.1z"/>
						<path class="st1" d="M166.2,350.8c0.6,0.6,0.6,1.6,0,2.2c-0.6,0.6-1.6,0.6-2.2,0s-0.6-1.6,0-2.2
							C164.6,350.2,165.6,350.2,166.2,350.8z"/>
						<path class="st1" d="M183.5,333.5c0.6,0.6,0.6,1.6,0,2.2c-0.6,0.6-1.6,0.6-2.2,0s-0.6-1.6,0-2.2
							C181.9,332.9,182.9,332.9,183.5,333.5z"/>
						<path class="st1" d="M200.8,316.2c0.6,0.6,0.6,1.6,0,2.2c-0.6,0.6-1.6,0.6-2.2,0s-0.6-1.6,0-2.2
							C199.2,315.6,200.2,315.6,200.8,316.2z"/>
						<path class="st1" d="M218.1,298.9c0.6,0.6,0.6,1.6,0,2.2c-0.6,0.6-1.6,0.6-2.2,0s-0.6-1.6,0-2.2S217.5,298.3,218.1,298.9z"/>
						<path class="st1" d="M235.4,281.6c0.6,0.6,0.6,1.6,0,2.2c-0.6,0.6-1.6,0.6-2.2,0s-0.6-1.6,0-2.2
							C233.9,281,234.8,281,235.4,281.6z"/>
						<path class="st1" d="M252.7,264.3c0.6,0.6,0.6,1.6,0,2.2c-0.6,0.6-1.6,0.6-2.2,0s-0.6-1.6,0-2.2
							C251.1,263.7,252.1,263.7,252.7,264.3z"/>
						<path class="st1" d="M270,247c0.6,0.6,0.6,1.6,0,2.2s-1.6,0.6-2.2,0s-0.6-1.6,0-2.2S269.4,246.4,270,247z"/>
						<path class="st1" d="M287.3,229.7c0.6,0.6,0.6,1.6,0,2.2s-1.6,0.6-2.2,0s-0.6-1.6,0-2.2C285.8,229.1,286.7,229.1,287.3,229.7z
							"/>
						<path class="st1" d="M304.6,212.4c0.6,0.6,0.6,1.6,0,2.2s-1.6,0.6-2.2,0s-0.6-1.6,0-2.2C303.1,211.8,304,211.8,304.6,212.4z"
							/>
						<path class="st1" d="M321.9,195.1c0.6,0.6,0.6,1.6,0,2.2s-1.6,0.6-2.2,0s-0.6-1.6,0-2.2C320.4,194.5,321.3,194.5,321.9,195.1z
							"/>
						<path class="st1" d="M339.2,177.8c0.6,0.6,0.6,1.6,0,2.2s-1.6,0.6-2.2,0s-0.6-1.6,0-2.2C337.7,177.2,338.6,177.2,339.2,177.8z
							"/>
						<path class="st1" d="M356.5,160.5c0.6,0.6,0.6,1.6,0,2.2s-1.6,0.6-2.2,0s-0.6-1.6,0-2.2C355,159.9,355.9,159.9,356.5,160.5z"
							/>
						<path class="st1" d="M373.9,143.2c0.6,0.6,0.6,1.6,0,2.2s-1.6,0.6-2.2,0s-0.6-1.6,0-2.2S373.2,142.6,373.9,143.2z"/>
						<path class="st1" d="M391.1,125.9c0.6,0.6,0.6,1.6,0,2.2s-1.6,0.6-2.2,0s-0.6-1.6,0-2.2C389.6,125.2,390.5,125.3,391.1,125.9z
							"/>
						<path class="st1" d="M408.5,108.6c0.6,0.6,0.6,1.6,0,2.2s-1.6,0.6-2.2,0s-0.6-1.6,0-2.2C406.9,107.9,407.9,108,408.5,108.6z"
							/>
						<path class="st1" d="M425.8,91.2c0.6,0.6,0.6,1.6,0,2.2s-1.6,0.6-2.2,0s-0.6-1.6,0-2.2C424.2,90.6,425.2,90.6,425.8,91.2z"/>
						<path class="st1" d="M443.1,74c0.6,0.6,0.6,1.6,0,2.2s-1.6,0.6-2.2,0s-0.6-1.6,0-2.2C441.5,73.3,442.5,73.4,443.1,74z"/>
						<path class="st1" d="M460.4,56.6c0.6,0.6,0.6,1.6,0,2.2s-1.6,0.6-2.2,0s-0.6-1.6,0-2.2S459.8,56,460.4,56.6z"/>
						<path class="st1" d="M477.7,39.3c0.6,0.6,0.6,1.6,0,2.2s-1.6,0.6-2.2,0s-0.6-1.6,0-2.2S477.1,38.7,477.7,39.3z"/>
						<path class="st1" d="M495,22c0.6,0.6,0.6,1.6,0,2.2s-1.6,0.6-2.2,0s-0.6-1.6,0-2.2C493.4,21.4,494.4,21.4,495,22z"/>
					</g>
					<g>
						<path class="st1" d="M75.4,467.7c0.6,0.6,0.6,1.6,0,2.2s-1.6,0.6-2.2,0s-0.6-1.6,0-2.2C73.9,467.1,74.8,467.1,75.4,467.7z"/>
						<path class="st1" d="M92.7,450.4c0.6,0.6,0.6,1.6,0,2.2c-0.6,0.6-1.6,0.6-2.2,0c-0.6-0.6-0.6-1.6,0-2.2
							C91.2,449.8,92.1,449.8,92.7,450.4z"/>
						<path class="st1" d="M110,433.1c0.6,0.6,0.6,1.6,0,2.2c-0.6,0.6-1.6,0.6-2.2,0c-0.6-0.6-0.6-1.6,0-2.2
							C108.5,432.5,109.4,432.5,110,433.1z"/>
						<path class="st1" d="M127.3,415.8c0.6,0.6,0.6,1.6,0,2.2s-1.6,0.6-2.2,0s-0.6-1.6,0-2.2C125.8,415.2,126.7,415.2,127.3,415.8z
							"/>
						<path class="st1" d="M144.6,398.5c0.6,0.6,0.6,1.6,0,2.2c-0.6,0.6-1.6,0.6-2.2,0c-0.6-0.6-0.6-1.6,0-2.2
							C143.1,397.9,144.1,397.9,144.6,398.5z"/>
						<path class="st1" d="M162,381.2c0.6,0.6,0.6,1.6,0,2.2c-0.6,0.6-1.6,0.6-2.2,0s-0.6-1.6,0-2.2S161.4,380.6,162,381.2z"/>
						<path class="st1" d="M179.3,363.9c0.6,0.6,0.6,1.6,0,2.2s-1.6,0.6-2.2,0s-0.6-1.6,0-2.2C177.7,363.3,178.7,363.3,179.3,363.9z
							"/>
						<path class="st1" d="M196.6,346.6c0.6,0.6,0.6,1.6,0,2.2c-0.6,0.6-1.6,0.6-2.2,0s-0.6-1.6,0-2.2C195,346,196,346,196.6,346.6z
							"/>
						<path class="st1" d="M213.9,329.3c0.6,0.6,0.6,1.6,0,2.2c-0.6,0.6-1.6,0.6-2.2,0s-0.6-1.6,0-2.2
							C212.3,328.7,213.3,328.7,213.9,329.3z"/>
						<path class="st1" d="M231.2,312c0.6,0.6,0.6,1.6,0,2.2c-0.6,0.6-1.6,0.6-2.2,0s-0.6-1.6,0-2.2
							C229.6,311.4,230.6,311.4,231.2,312z"/>
						<path class="st1" d="M248.5,294.7c0.6,0.6,0.6,1.6,0,2.2c-0.6,0.6-1.6,0.6-2.2,0s-0.6-1.6,0-2.2
							C246.9,294,247.9,294.1,248.5,294.7z"/>
						<path class="st1" d="M265.8,277.3c0.6,0.6,0.6,1.6,0,2.2c-0.6,0.6-1.6,0.6-2.2,0s-0.6-1.6,0-2.2
							C264.2,276.7,265.2,276.7,265.8,277.3z"/>
						<path class="st1" d="M283.1,260c0.6,0.6,0.6,1.6,0,2.2c-0.6,0.6-1.6,0.6-2.2,0s-0.6-1.6,0-2.2
							C281.5,259.4,282.5,259.4,283.1,260z"/>
						<path class="st1" d="M300.4,242.8c0.6,0.6,0.6,1.6,0,2.2s-1.6,0.6-2.2,0s-0.6-1.6,0-2.2C298.8,242.1,299.8,242.1,300.4,242.8z
							"/>
						<path class="st1" d="M317.7,225.4c0.6,0.6,0.6,1.6,0,2.2s-1.6,0.6-2.2,0s-0.6-1.6,0-2.2S317.1,224.8,317.7,225.4z"/>
						<path class="st1" d="M335,208.1c0.6,0.6,0.6,1.6,0,2.2s-1.6,0.6-2.2,0s-0.6-1.6,0-2.2S334.4,207.5,335,208.1z"/>
						<path class="st1" d="M352.3,190.8c0.6,0.6,0.6,1.6,0,2.2s-1.6,0.6-2.2,0s-0.6-1.6,0-2.2C350.7,190.2,351.7,190.2,352.3,190.8z
							"/>
						<path class="st1" d="M369.6,173.5c0.6,0.6,0.6,1.6,0,2.2s-1.6,0.6-2.2,0s-0.6-1.6,0-2.2S369,172.9,369.6,173.5z"/>
						<path class="st1" d="M386.9,156.2c0.6,0.6,0.6,1.6,0,2.2s-1.6,0.6-2.2,0s-0.6-1.6,0-2.2S386.3,155.6,386.9,156.2z"/>
						<path class="st1" d="M404.2,138.9c0.6,0.6,0.6,1.6,0,2.2s-1.6,0.6-2.2,0c-0.6-0.6-0.6-1.6,0-2.2
							C402.6,138.3,403.6,138.3,404.2,138.9z"/>
						<path class="st1" d="M421.5,121.6c0.6,0.6,0.6,1.6,0,2.2s-1.6,0.6-2.2,0s-0.6-1.6,0-2.2C420,121,420.9,121,421.5,121.6z"/>
						<path class="st1" d="M438.8,104.3c0.6,0.6,0.6,1.6,0,2.2s-1.6,0.6-2.2,0s-0.6-1.6,0-2.2C437.2,103.7,438.2,103.7,438.8,104.3z
							"/>
						<path class="st1" d="M456.1,87c0.6,0.6,0.6,1.6,0,2.2s-1.6,0.6-2.2,0s-0.6-1.6,0-2.2C454.6,86.4,455.5,86.4,456.1,87z"/>
						<path class="st1" d="M473.4,69.7c0.6,0.6,0.6,1.6,0,2.2s-1.6,0.6-2.2,0s-0.6-1.6,0-2.2C471.9,69.1,472.8,69.1,473.4,69.7z"/>
						<path class="st1" d="M490.7,52.4c0.6,0.6,0.6,1.6,0,2.2s-1.6,0.6-2.2,0s-0.6-1.6,0-2.2C489.2,51.8,490.1,51.8,490.7,52.4z"/>
					</g>
					<g>
						<path class="st1" d="M88.5,480.8c0.6,0.6,0.6,1.6,0,2.2c-0.6,0.6-1.6,0.6-2.2,0c-0.6-0.6-0.6-1.6,0-2.2S87.9,480.2,88.5,480.8
							z"/>
						<path class="st1" d="M105.8,463.5c0.6,0.6,0.6,1.6,0,2.2c-0.6,0.6-1.6,0.6-2.2,0s-0.6-1.6,0-2.2
							C104.2,462.8,105.2,462.8,105.8,463.5z"/>
						<ellipse class="st1" cx="122" cy="447.2" rx="1.5" ry="1.5"/>
						<path class="st1" d="M140.4,428.8c0.6,0.6,0.6,1.6,0,2.2c-0.6,0.6-1.6,0.6-2.2,0c-0.6-0.6-0.6-1.6,0-2.2
							C138.8,428.2,139.8,428.2,140.4,428.8z"/>
						<path class="st1" d="M157.7,411.5c0.6,0.6,0.6,1.6,0,2.2c-0.6,0.6-1.6,0.6-2.2,0s-0.6-1.6,0-2.2
							C156.1,410.9,157.1,410.9,157.7,411.5z"/>
						<ellipse class="st1" cx="173.9" cy="395.3" rx="1.5" ry="1.5"/>
						<path class="st1" d="M192.3,376.9c0.6,0.6,0.6,1.6,0,2.2c-0.6,0.6-1.6,0.6-2.2,0s-0.6-1.6,0-2.2
							C190.7,376.3,191.7,376.3,192.3,376.9z"/>
						<path class="st1" d="M209.6,359.6c0.6,0.6,0.6,1.6,0,2.2c-0.6,0.6-1.6,0.6-2.2,0s-0.6-1.6,0-2.2C208,359,209,359,209.6,359.6z
							"/>
						<ellipse class="st1" cx="225.8" cy="343.4" rx="1.5" ry="1.5"/>
						<path class="st1" d="M244.2,325c0.6,0.6,0.6,1.6,0,2.2c-0.6,0.6-1.6,0.6-2.2,0s-0.6-1.6,0-2.2
							C242.7,324.4,243.6,324.4,244.2,325z"/>
						<path class="st1" d="M261.5,307.7c0.6,0.6,0.6,1.6,0,2.2c-0.6,0.6-1.6,0.6-2.2,0s-0.6-1.6,0-2.2
							C260,307.1,260.9,307.1,261.5,307.7z"/>
						<ellipse class="st1" cx="277.7" cy="291.5" rx="1.5" ry="1.5"/>
						<path class="st1" d="M296.1,273.1c0.6,0.6,0.6,1.6,0,2.2c-0.6,0.6-1.6,0.6-2.2,0s-0.6-1.6,0-2.2
							C294.6,272.5,295.5,272.5,296.1,273.1z"/>
						<path class="st1" d="M313.4,255.8c0.6,0.6,0.6,1.6,0,2.2s-1.6,0.6-2.2,0s-0.6-1.6,0-2.2C311.9,255.2,312.8,255.2,313.4,255.8z
							"/>
						<ellipse class="st1" cx="329.7" cy="239.6" rx="1.5" ry="1.5"/>
						<path class="st1" d="M348,221.2c0.6,0.6,0.6,1.6,0,2.2s-1.6,0.6-2.2,0s-0.6-1.6,0-2.2C346.5,220.6,347.4,220.6,348,221.2z"/>
						<path class="st1" d="M365.4,203.9c0.6,0.6,0.6,1.6,0,2.2s-1.6,0.6-2.2,0s-0.6-1.6,0-2.2S364.8,203.3,365.4,203.9z"/>
						<path class="st1" d="M382.7,186.6c0.6,0.6,0.6,1.6,0,2.2s-1.6,0.6-2.2,0s-0.6-1.6,0-2.2S382.1,186,382.7,186.6z"/>
						<path class="st1" d="M400,169.3c0.6,0.6,0.6,1.6,0,2.2s-1.6,0.6-2.2,0s-0.6-1.6,0-2.2C398.4,168.7,399.4,168.7,400,169.3z"/>
						<path class="st1" d="M417.3,152c0.6,0.6,0.6,1.6,0,2.2s-1.6,0.6-2.2,0s-0.6-1.6,0-2.2C415.7,151.4,416.7,151.4,417.3,152z"/>
						<path class="st1" d="M434.6,134.7c0.6,0.6,0.6,1.6,0,2.2s-1.6,0.6-2.2,0s-0.6-1.6,0-2.2C433,134.1,434,134.1,434.6,134.7z"/>
						<path class="st1" d="M451.9,117.4c0.6,0.6,0.6,1.6,0,2.2s-1.6,0.6-2.2,0s-0.6-1.6,0-2.2S451.3,116.8,451.9,117.4z"/>
						<path class="st1" d="M469.2,100.1c0.6,0.6,0.6,1.6,0,2.2s-1.6,0.6-2.2,0s-0.6-1.6,0-2.2C467.6,99.4,468.6,99.5,469.2,100.1z"
							/>
						<path class="st1" d="M486.5,82.8c0.6,0.6,0.6,1.6,0,2.2s-1.6,0.6-2.2,0s-0.6-1.6,0-2.2C484.9,82.1,485.9,82.2,486.5,82.8z"/>
						<path class="st1" d="M503.8,65.5c0.6,0.6,0.6,1.6,0,2.2s-1.6,0.6-2.2,0s-0.6-1.6,0-2.2C502.2,64.8,503.2,64.9,503.8,65.5z"/>
					</g>
					<g>
						<path class="st1" d="M101.6,493.8c0.6,0.6,0.6,1.6,0,2.2s-1.6,0.6-2.2,0c-0.6-0.6-0.6-1.6,0-2.2
							C100,493.2,101,493.2,101.6,493.8z"/>
						<path class="st1" d="M118.9,476.5c0.6,0.6,0.6,1.6,0,2.2c-0.6,0.6-1.6,0.6-2.2,0s-0.6-1.6,0-2.2
							C117.3,475.9,118.3,475.9,118.9,476.5z"/>
						<ellipse class="st1" cx="135.1" cy="460.3" rx="1.5" ry="1.5"/>
						<path class="st1" d="M153.5,441.9c0.6,0.6,0.6,1.6,0,2.2c-0.6,0.6-1.6,0.6-2.2,0s-0.6-1.6,0-2.2S152.9,441.3,153.5,441.9z"/>
						<path class="st1" d="M170.8,424.6c0.6,0.6,0.6,1.6,0,2.2c-0.6,0.6-1.6,0.6-2.2,0s-0.6-1.6,0-2.2
							C169.2,424,170.2,424,170.8,424.6z"/>
						<ellipse class="st1" cx="187" cy="408.4" rx="1.5" ry="1.5"/>
						<path class="st1" d="M205.4,390c0.6,0.6,0.6,1.6,0,2.2c-0.6,0.6-1.6,0.6-2.2,0s-0.6-1.6,0-2.2
							C203.8,389.4,204.8,389.4,205.4,390z"/>
						<path class="st1" d="M222.7,372.7c0.6,0.6,0.6,1.6,0,2.2c-0.6,0.6-1.6,0.6-2.2,0s-0.6-1.6,0-2.2S222.1,372.1,222.7,372.7z"/>
						<ellipse class="st1" cx="238.9" cy="356.5" rx="1.5" ry="1.5"/>
						<path class="st1" d="M257.3,338.1c0.6,0.6,0.6,1.6,0,2.2c-0.6,0.6-1.6,0.6-2.2,0s-0.6-1.6,0-2.2
							C255.7,337.5,256.7,337.5,257.3,338.1z"/>
						<path class="st1" d="M274.6,320.8c0.6,0.6,0.6,1.6,0,2.2c-0.6,0.6-1.6,0.6-2.2,0s-0.6-1.6,0-2.2
							C273,320.2,274,320.2,274.6,320.8z"/>
						<ellipse class="st1" cx="290.8" cy="304.6" rx="1.5" ry="1.5"/>
						<path class="st1" d="M309.2,286.2c0.6,0.6,0.6,1.6,0,2.2c-0.6,0.6-1.6,0.6-2.2,0s-0.6-1.6,0-2.2S308.6,285.6,309.2,286.2z"/>
						<path class="st1" d="M326.5,268.9c0.6,0.6,0.6,1.6,0,2.2c-0.6,0.6-1.6,0.6-2.2,0s-0.6-1.6,0-2.2
							C324.9,268.2,325.9,268.3,326.5,268.9z"/>
						<ellipse class="st1" cx="342.7" cy="252.6" rx="1.5" ry="1.5"/>
						<path class="st1" d="M361.1,234.2c0.6,0.6,0.6,1.6,0,2.2s-1.6,0.6-2.2,0s-0.6-1.6,0-2.2S360.5,233.6,361.1,234.2z"/>
						<path class="st1" d="M378.4,217c0.6,0.6,0.6,1.6,0,2.2s-1.6,0.6-2.2,0s-0.6-1.6,0-2.2C376.9,216.3,377.8,216.4,378.4,217z"/>
						<ellipse class="st1" cx="394.6" cy="200.7" rx="1.5" ry="1.5"/>
						<path class="st1" d="M413,182.3c0.6,0.6,0.6,1.6,0,2.2s-1.6,0.6-2.2,0s-0.6-1.6,0-2.2C411.5,181.7,412.4,181.7,413,182.3z"/>
						<path class="st1" d="M430.3,165c0.6,0.6,0.6,1.6,0,2.2s-1.6,0.6-2.2,0s-0.6-1.6,0-2.2C428.8,164.4,429.7,164.4,430.3,165z"/>
						<path class="st1" d="M447.6,147.7c0.6,0.6,0.6,1.6,0,2.2s-1.6,0.6-2.2,0s-0.6-1.6,0-2.2C446.1,147.1,447,147.1,447.6,147.7z"
							/>
						<path class="st1" d="M464.9,130.4c0.6,0.6,0.6,1.6,0,2.2s-1.6,0.6-2.2,0s-0.6-1.6,0-2.2C463.4,129.8,464.3,129.8,464.9,130.4z
							"/>
						<path class="st1" d="M482.2,113.1c0.6,0.6,0.6,1.6,0,2.2s-1.6,0.6-2.2,0s-0.6-1.6,0-2.2S481.6,112.5,482.2,113.1z"/>
						<path class="st1" d="M499.5,95.8c0.6,0.6,0.6,1.6,0,2.2s-1.6,0.6-2.2,0s-0.6-1.6,0-2.2C498,95.2,499,95.2,499.5,95.8z"/>
					</g>
					<g>
						<path class="st1" d="M131.9,489.6c0.6,0.6,0.6,1.6,0,2.2c-0.6,0.6-1.6,0.6-2.2,0c-0.6-0.6-0.6-1.6,0-2.2
							C130.3,489,131.3,489,131.9,489.6z"/>
						<path class="st1" d="M149.2,472.3c0.6,0.6,0.6,1.6,0,2.2c-0.6,0.6-1.6,0.6-2.2,0s-0.6-1.6,0-2.2
							C147.6,471.7,148.6,471.7,149.2,472.3z"/>
						<path class="st1" d="M166.5,455c0.6,0.6,0.6,1.6,0,2.2c-0.6,0.6-1.6,0.6-2.2,0s-0.6-1.6,0-2.2S165.9,454.4,166.5,455z"/>
						<path class="st1" d="M183.8,437.7c0.6,0.6,0.6,1.6,0,2.2c-0.6,0.6-1.6,0.6-2.2,0s-0.6-1.6,0-2.2
							C182.2,437,183.2,437.1,183.8,437.7z"/>
						<path class="st1" d="M201.1,420.3c0.6,0.6,0.6,1.6,0,2.2c-0.6,0.6-1.6,0.6-2.2,0s-0.6-1.6,0-2.2
							C199.6,419.7,200.5,419.7,201.1,420.3z"/>
						<path class="st1" d="M218.4,403c0.6,0.6,0.6,1.6,0,2.2c-0.6,0.6-1.6,0.6-2.2,0s-0.6-1.6,0-2.2S217.8,402.4,218.4,403z"/>
						<path class="st1" d="M235.7,385.7c0.6,0.6,0.6,1.6,0,2.2c-0.6,0.6-1.6,0.6-2.2,0s-0.6-1.6,0-2.2
							C234.2,385.1,235.1,385.1,235.7,385.7z"/>
						<path class="st1" d="M253,368.4c0.6,0.6,0.6,1.6,0,2.2c-0.6,0.6-1.6,0.6-2.2,0s-0.6-1.6,0-2.2
							C251.5,367.8,252.4,367.8,253,368.4z"/>
						<path class="st1" d="M270.3,351.1c0.6,0.6,0.6,1.6,0,2.2c-0.6,0.6-1.6,0.6-2.2,0s-0.6-1.6,0-2.2
							C268.8,350.5,269.7,350.5,270.3,351.1z"/>
						<path class="st1" d="M287.6,333.8c0.6,0.6,0.6,1.6,0,2.2c-0.6,0.6-1.6,0.6-2.2,0s-0.6-1.6,0-2.2
							C286.1,333.2,287,333.2,287.6,333.8z"/>
						<path class="st1" d="M305,316.5c0.6,0.6,0.6,1.6,0,2.2c-0.6,0.6-1.6,0.6-2.2,0s-0.6-1.6,0-2.2
							C303.4,315.9,304.4,315.9,305,316.5z"/>
						<path class="st1" d="M322.3,299.2c0.6,0.6,0.6,1.6,0,2.2c-0.6,0.6-1.6,0.6-2.2,0s-0.6-1.6,0-2.2
							C320.7,298.6,321.7,298.6,322.3,299.2z"/>
						<path class="st1" d="M339.6,281.9c0.6,0.6,0.6,1.6,0,2.2c-0.6,0.6-1.6,0.6-2.2,0s-0.6-1.6,0-2.2S339,281.3,339.6,281.9z"/>
						<path class="st1" d="M356.9,264.6c0.6,0.6,0.6,1.6,0,2.2c-0.6,0.6-1.6,0.6-2.2,0s-0.6-1.6,0-2.2
							C355.3,264,356.3,264,356.9,264.6z"/>
						<path class="st1" d="M374.2,247.3c0.6,0.6,0.6,1.6,0,2.2s-1.6,0.6-2.2,0s-0.6-1.6,0-2.2C372.6,246.7,373.6,246.7,374.2,247.3z
							"/>
						<path class="st1" d="M391.5,230c0.6,0.6,0.6,1.6,0,2.2s-1.6,0.6-2.2,0s-0.6-1.6,0-2.2S390.9,229.4,391.5,230z"/>
						<path class="st1" d="M408.8,212.7c0.6,0.6,0.6,1.6,0,2.2s-1.6,0.6-2.2,0s-0.6-1.6,0-2.2C407.2,212.1,408.2,212.1,408.8,212.7z
							"/>
						<path class="st1" d="M426.1,195.4c0.6,0.6,0.6,1.6,0,2.2s-1.6,0.6-2.2,0s-0.6-1.6,0-2.2C424.5,194.8,425.5,194.8,426.1,195.4z
							"/>
						<path class="st1" d="M443.4,178.1c0.6,0.6,0.6,1.6,0,2.2s-1.6,0.6-2.2,0s-0.6-1.6,0-2.2S442.8,177.5,443.4,178.1z"/>
						<path class="st1" d="M460.7,160.8c0.6,0.6,0.6,1.6,0,2.2s-1.6,0.6-2.2,0s-0.6-1.6,0-2.2C459.1,160.2,460.1,160.2,460.7,160.8z
							"/>
						<path class="st1" d="M478,143.5c0.6,0.6,0.6,1.6,0,2.2s-1.6,0.6-2.2,0s-0.6-1.6,0-2.2C476.4,142.9,477.4,142.9,478,143.5z"/>
						<path class="st1" d="M495.3,126.2c0.6,0.6,0.6,1.6,0,2.2s-1.6,0.6-2.2,0s-0.6-1.6,0-2.2C493.7,125.6,494.7,125.6,495.3,126.2z
							"/>
					</g>
					<g>
						<path class="st1" d="M162.3,485.3c0.6,0.6,0.6,1.6,0,2.2c-0.6,0.6-1.6,0.6-2.2,0s-0.6-1.6,0-2.2
							C160.7,484.7,161.7,484.7,162.3,485.3z"/>
						<path class="st1" d="M179.6,468c0.6,0.6,0.6,1.6,0,2.2c-0.6,0.6-1.6,0.6-2.2,0s-0.6-1.6,0-2.2C178,467.4,179,467.4,179.6,468z
							"/>
						<path class="st1" d="M196.9,450.7c0.6,0.6,0.6,1.6,0,2.2c-0.6,0.6-1.6,0.6-2.2,0s-0.6-1.6,0-2.2S196.3,450.1,196.9,450.7z"/>
						<path class="st1" d="M214.2,433.4c0.6,0.6,0.6,1.6,0,2.2c-0.6,0.6-1.6,0.6-2.2,0s-0.6-1.6,0-2.2S213.6,432.8,214.2,433.4z"/>
						<path class="st1" d="M231.5,416.1c0.6,0.6,0.6,1.6,0,2.2c-0.6,0.6-1.6,0.6-2.2,0s-0.6-1.6,0-2.2
							C229.9,415.5,230.9,415.5,231.5,416.1z"/>
						<path class="st1" d="M248.8,398.8c0.6,0.6,0.6,1.6,0,2.2c-0.6,0.6-1.6,0.6-2.2,0s-0.6-1.6,0-2.2
							C247.2,398.2,248.2,398.2,248.8,398.8z"/>
						<path class="st1" d="M266.1,381.5c0.6,0.6,0.6,1.6,0,2.2c-0.6,0.6-1.6,0.6-2.2,0s-0.6-1.6,0-2.2
							C264.5,380.9,265.5,380.9,266.1,381.5z"/>
						<path class="st1" d="M283.4,364.2c0.6,0.6,0.6,1.6,0,2.2c-0.6,0.6-1.6,0.6-2.2,0s-0.6-1.6,0-2.2S282.8,363.6,283.4,364.2z"/>
						<path class="st1" d="M300.7,346.9c0.6,0.6,0.6,1.6,0,2.2c-0.6,0.6-1.6,0.6-2.2,0s-0.6-1.6,0-2.2S300.1,346.3,300.7,346.9z"/>
						<path class="st1" d="M318,329.6c0.6,0.6,0.6,1.6,0,2.2c-0.6,0.6-1.6,0.6-2.2,0s-0.6-1.6,0-2.2C316.4,329,317.4,329,318,329.6z
							"/>
						<path class="st1" d="M335.3,312.3c0.6,0.6,0.6,1.6,0,2.2c-0.6,0.6-1.6,0.6-2.2,0s-0.6-1.6,0-2.2
							C333.7,311.7,334.7,311.7,335.3,312.3z"/>
						<path class="st1" d="M352.6,295c0.6,0.6,0.6,1.6,0,2.2c-0.6,0.6-1.6,0.6-2.2,0s-0.6-1.6,0-2.2C351,294.4,352,294.4,352.6,295z
							"/>
						<path class="st1" d="M369.9,277.7c0.6,0.6,0.6,1.6,0,2.2c-0.6,0.6-1.6,0.6-2.2,0s-0.6-1.6,0-2.2
							C368.4,277.1,369.3,277.1,369.9,277.7z"/>
						<path class="st1" d="M387.2,260.4c0.6,0.6,0.6,1.6,0,2.2c-0.6,0.6-1.6,0.6-2.2,0s-0.6-1.6,0-2.2
							C385.7,259.8,386.6,259.8,387.2,260.4z"/>
						<path class="st1" d="M404.5,243.1c0.6,0.6,0.6,1.6,0,2.2s-1.6,0.6-2.2,0c-0.6-0.6-0.6-1.6,0-2.2
							C403,242.4,403.9,242.5,404.5,243.1z"/>
						<path class="st1" d="M421.8,225.8c0.6,0.6,0.6,1.6,0,2.2s-1.6,0.6-2.2,0s-0.6-1.6,0-2.2C420.3,225.1,421.2,225.2,421.8,225.8z
							"/>
						<path class="st1" d="M439.1,208.5c0.6,0.6,0.6,1.6,0,2.2s-1.6,0.6-2.2,0s-0.6-1.6,0-2.2C437.6,207.8,438.5,207.9,439.1,208.5z
							"/>
						<path class="st1" d="M456.4,191.1c0.6,0.6,0.6,1.6,0,2.2s-1.6,0.6-2.2,0s-0.6-1.6,0-2.2C454.9,190.5,455.8,190.5,456.4,191.1z
							"/>
						<path class="st1" d="M473.8,173.9c0.6,0.6,0.6,1.6,0,2.2s-1.6,0.6-2.2,0s-0.6-1.6,0-2.2C472.2,173.2,473.2,173.2,473.8,173.9z
							"/>
						<path class="st1" d="M491,156.5c0.6,0.6,0.6,1.6,0,2.2s-1.6,0.6-2.2,0s-0.6-1.6,0-2.2C489.5,155.9,490.5,155.9,491,156.5z"/>
					</g>
					<g>
						<ellipse class="st1" cx="174.2" cy="499.5" rx="1.5" ry="1.5"/>
						<path class="st1" d="M192.6,481.1c0.6,0.6,0.6,1.6,0,2.2s-1.6,0.6-2.2,0s-0.6-1.6,0-2.2S192,480.5,192.6,481.1z"/>
						<path class="st1" d="M209.9,463.8c0.6,0.6,0.6,1.6,0,2.2s-1.6,0.6-2.2,0s-0.6-1.6,0-2.2S209.3,463.2,209.9,463.8z"/>
						<ellipse class="st1" cx="226.2" cy="447.6" rx="1.5" ry="1.5"/>
						<path class="st1" d="M244.5,429.2c0.6,0.6,0.6,1.6,0,2.2s-1.6,0.6-2.2,0s-0.6-1.6,0-2.2S243.9,428.6,244.5,429.2z"/>
						<path class="st1" d="M261.9,411.9c0.6,0.6,0.6,1.6,0,2.2s-1.6,0.6-2.2,0s-0.6-1.6,0-2.2S261.2,411.3,261.9,411.9z"/>
						<ellipse class="st1" cx="278.1" cy="395.6" rx="1.5" ry="1.5"/>
						<path class="st1" d="M296.5,377.2c0.6,0.6,0.6,1.6,0,2.2s-1.6,0.6-2.2,0s-0.6-1.6,0-2.2S295.9,376.6,296.5,377.2z"/>
						<path class="st1" d="M313.8,360c0.6,0.6,0.6,1.6,0,2.2s-1.6,0.6-2.2,0s-0.6-1.6,0-2.2S313.2,359.3,313.8,360z"/>
						<ellipse class="st1" cx="330" cy="343.7" rx="1.5" ry="1.5"/>
						<path class="st1" d="M348.4,325.3c0.6,0.6,0.6,1.6,0,2.2s-1.6,0.6-2.2,0s-0.6-1.6,0-2.2S347.8,324.7,348.4,325.3z"/>
						<path class="st1" d="M365.7,308c0.6,0.6,0.6,1.6,0,2.2s-1.6,0.6-2.2,0s-0.6-1.6,0-2.2S365.1,307.4,365.7,308z"/>
						<ellipse class="st1" cx="381.9" cy="291.8" rx="1.5" ry="1.5"/>
						<path class="st1" d="M400.3,273.4c0.6,0.6,0.6,1.6,0,2.2s-1.6,0.6-2.2,0s-0.6-1.6,0-2.2S399.7,272.8,400.3,273.4z"/>
						<path class="st1" d="M417.6,256.1c0.6,0.6,0.6,1.6,0,2.2s-1.6,0.6-2.2,0s-0.6-1.6,0-2.2S417,255.5,417.6,256.1z"/>
						<path class="st1" d="M434.9,238.8c0.6,0.6,0.6,1.6,0,2.2s-1.6,0.6-2.2,0s-0.6-1.6,0-2.2C433.3,238.2,434.3,238.2,434.9,238.8z
							"/>
						<path class="st1" d="M452.2,221.5c0.6,0.6,0.6,1.6,0,2.2s-1.6,0.6-2.2,0s-0.6-1.6,0-2.2S451.6,220.9,452.2,221.5z"/>
						<path class="st1" d="M469.5,204.2c0.6,0.6,0.6,1.6,0,2.2s-1.6,0.6-2.2,0s-0.6-1.6,0-2.2C467.9,203.6,468.9,203.6,469.5,204.2z
							"/>
						<path class="st1" d="M486.8,186.9c0.6,0.6,0.6,1.6,0,2.2s-1.6,0.6-2.2,0s-0.6-1.6,0-2.2C485.2,186.3,486.2,186.3,486.8,186.9z
							"/>
						<path class="st1" d="M504.1,169.6c0.6,0.6,0.6,1.6,0,2.2s-1.6,0.6-2.2,0s-0.6-1.6,0-2.2C502.5,169,503.5,169,504.1,169.6z"/>
					</g>
					<g>
						<path class="st1" d="M205.7,494.1c0.6,0.6,0.6,1.6,0,2.2c-0.6,0.6-1.6,0.6-2.2,0s-0.6-1.6,0-2.2
							C204.1,493.5,205.1,493.5,205.7,494.1z"/>
						<path class="st1" d="M223,476.8c0.6,0.6,0.6,1.6,0,2.2c-0.6,0.6-1.6,0.6-2.2,0s-0.6-1.6,0-2.2
							C221.4,476.2,222.4,476.2,223,476.8z"/>
						<path class="st1" d="M240.3,459.5c0.6,0.6,0.6,1.6,0,2.2s-1.6,0.6-2.2,0s-0.6-1.6,0-2.2C238.7,458.9,239.7,458.9,240.3,459.5z
							"/>
						<path class="st1" d="M257.6,442.2c0.6,0.6,0.6,1.6,0,2.2c-0.6,0.6-1.6,0.6-2.2,0s-0.6-1.6,0-2.2S257,441.6,257.6,442.2z"/>
						<path class="st1" d="M274.9,424.9c0.6,0.6,0.6,1.6,0,2.2c-0.6,0.6-1.6,0.6-2.2,0s-0.6-1.6,0-2.2S274.3,424.3,274.9,424.9z"/>
						<path class="st1" d="M292.2,407.6c0.6,0.6,0.6,1.6,0,2.2s-1.6,0.6-2.2,0s-0.6-1.6,0-2.2C290.6,407,291.6,407,292.2,407.6z"/>
						<path class="st1" d="M309.5,390.3c0.6,0.6,0.6,1.6,0,2.2c-0.6,0.6-1.6,0.6-2.2,0s-0.6-1.6,0-2.2
							C307.9,389.7,308.9,389.7,309.5,390.3z"/>
						<path class="st1" d="M326.8,373c0.6,0.6,0.6,1.6,0,2.2c-0.6,0.6-1.6,0.6-2.2,0s-0.6-1.6,0-2.2
							C325.2,372.4,326.2,372.4,326.8,373z"/>
						<path class="st1" d="M344.1,355.7c0.6,0.6,0.6,1.6,0,2.2s-1.6,0.6-2.2,0s-0.6-1.6,0-2.2C342.6,355.1,343.5,355.1,344.1,355.7z
							"/>
						<path class="st1" d="M361.4,338.4c0.6,0.6,0.6,1.6,0,2.2c-0.6,0.6-1.6,0.6-2.2,0s-0.6-1.6,0-2.2
							C359.9,337.8,360.8,337.8,361.4,338.4z"/>
						<path class="st1" d="M378.7,321.1c0.6,0.6,0.6,1.6,0,2.2c-0.6,0.6-1.6,0.6-2.2,0s-0.6-1.6,0-2.2
							C377.2,320.5,378.1,320.5,378.7,321.1z"/>
						<path class="st1" d="M396,303.8c0.6,0.6,0.6,1.6,0,2.2s-1.6,0.6-2.2,0s-0.6-1.6,0-2.2C394.5,303.2,395.4,303.2,396,303.8z"/>
						<path class="st1" d="M413.3,286.5c0.6,0.6,0.6,1.6,0,2.2c-0.6,0.6-1.6,0.6-2.2,0s-0.6-1.6,0-2.2
							C411.8,285.9,412.7,285.9,413.3,286.5z"/>
						<path class="st1" d="M430.7,269.2c0.6,0.6,0.6,1.6,0,2.2c-0.6,0.6-1.6,0.6-2.2,0c-0.6-0.6-0.6-1.6,0-2.2
							S430.1,268.6,430.7,269.2z"/>
						<path class="st1" d="M448,251.9c0.6,0.6,0.6,1.6,0,2.2s-1.6,0.6-2.2,0s-0.6-1.6,0-2.2C446.4,251.3,447.4,251.3,448,251.9z"/>
						<path class="st1" d="M465.3,234.6c0.6,0.6,0.6,1.6,0,2.2s-1.6,0.6-2.2,0s-0.6-1.6,0-2.2S464.7,234,465.3,234.6z"/>
						<path class="st1" d="M482.6,217.3c0.6,0.6,0.6,1.6,0,2.2s-1.6,0.6-2.2,0s-0.6-1.6,0-2.2C481,216.7,482,216.7,482.6,217.3z"/>
						<path class="st1" d="M499.9,200c0.6,0.6,0.6,1.6,0,2.2s-1.6,0.6-2.2,0s-0.6-1.6,0-2.2C498.3,199.3,499.3,199.4,499.9,200z"/>
					</g>
					<g>
						<ellipse class="st1" cx="235" cy="491" rx="1.5" ry="1.5"/>
						<path class="st1" d="M253.4,472.6c0.6,0.6,0.6,1.6,0,2.2c-0.6,0.6-1.6,0.6-2.2,0s-0.6-1.6,0-2.2S252.8,472,253.4,472.6z"/>
						<ellipse class="st1" cx="269.6" cy="456.4" rx="1.5" ry="1.5"/>
						<ellipse class="st1" cx="286.9" cy="439.1" rx="1.5" ry="1.5"/>
						<path class="st1" d="M305.3,420.7c0.6,0.6,0.6,1.6,0,2.2c-0.6,0.6-1.6,0.6-2.2,0s-0.6-1.6,0-2.2
							C303.7,420.1,304.7,420.1,305.3,420.7z"/>
						<ellipse class="st1" cx="321.5" cy="404.5" rx="1.5" ry="1.5"/>
						<ellipse class="st1" cx="338.8" cy="387.1" rx="1.5" ry="1.5"/>
						<path class="st1" d="M357.2,368.8c0.6,0.6,0.6,1.6,0,2.2c-0.6,0.6-1.6,0.6-2.2,0s-0.6-1.6,0-2.2
							C355.6,368.2,356.6,368.2,357.2,368.8z"/>
						<ellipse class="st1" cx="373.4" cy="352.5" rx="1.5" ry="1.5"/>
						<ellipse class="st1" cx="390.7" cy="335.2" rx="1.5" ry="1.5"/>
						<path class="st1" d="M409.1,316.8c0.6,0.6,0.6,1.6,0,2.2c-0.6,0.6-1.6,0.6-2.2,0c-0.6-0.6-0.6-1.6,0-2.2
							C407.5,316.2,408.5,316.2,409.1,316.8z"/>
						<path class="st1" d="M426.4,299.5c0.6,0.6,0.6,1.6,0,2.2s-1.6,0.6-2.2,0s-0.6-1.6,0-2.2S425.8,298.9,426.4,299.5z"/>
						<path class="st1" d="M443.7,282.2c0.6,0.6,0.6,1.6,0,2.2s-1.6,0.6-2.2,0c-0.6-0.6-0.6-1.6,0-2.2S443.1,281.6,443.7,282.2z"/>
						<path class="st1" d="M461,264.9c0.6,0.6,0.6,1.6,0,2.2c-0.6,0.6-1.6,0.6-2.2,0c-0.6-0.6-0.6-1.6,0-2.2
							C459.4,264.3,460.4,264.3,461,264.9z"/>
						<path class="st1" d="M478.3,247.6c0.6,0.6,0.6,1.6,0,2.2s-1.6,0.6-2.2,0s-0.6-1.6,0-2.2S477.7,247,478.3,247.6z"/>
						<path class="st1" d="M495.6,230.3c0.6,0.6,0.6,1.6,0,2.2s-1.6,0.6-2.2,0s-0.6-1.6,0-2.2S495,229.7,495.6,230.3z"/>
					</g>
					<g>
						<path class="st1" d="M266.4,485.6c0.6,0.6,0.6,1.6,0,2.2c-0.6,0.6-1.6,0.6-2.2,0s-0.6-1.6,0-2.2S265.8,485,266.4,485.6z"/>
						<path class="st1" d="M283.7,468.3c0.6,0.6,0.6,1.6,0,2.2c-0.6,0.6-1.6,0.6-2.2,0s-0.6-1.6,0-2.2
							C282.1,467.7,283.1,467.7,283.7,468.3z"/>
						<path class="st1" d="M301,451c0.6,0.6,0.6,1.6,0,2.2c-0.6,0.6-1.6,0.6-2.2,0s-0.6-1.6,0-2.2C299.4,450.4,300.4,450.4,301,451z
							"/>
						<path class="st1" d="M318.3,433.7c0.6,0.6,0.6,1.6,0,2.2c-0.6,0.6-1.6,0.6-2.2,0s-0.6-1.6,0-2.2S317.7,433.1,318.3,433.7z"/>
						<path class="st1" d="M335.6,416.4c0.6,0.6,0.6,1.6,0,2.2c-0.6,0.6-1.6,0.6-2.2,0s-0.6-1.6,0-2.2
							C334.1,415.8,335,415.8,335.6,416.4z"/>
						<path class="st1" d="M352.9,399.1c0.6,0.6,0.6,1.6,0,2.2c-0.6,0.6-1.6,0.6-2.2,0s-0.6-1.6,0-2.2
							C351.4,398.5,352.3,398.5,352.9,399.1z"/>
						<path class="st1" d="M370.2,381.8c0.6,0.6,0.6,1.6,0,2.2c-0.6,0.6-1.6,0.6-2.2,0s-0.6-1.6,0-2.2S369.6,381.2,370.2,381.8z"/>
						<path class="st1" d="M387.5,364.5c0.6,0.6,0.6,1.6,0,2.2c-0.6,0.6-1.6,0.6-2.2,0s-0.6-1.6,0-2.2
							C386,363.9,386.9,363.9,387.5,364.5z"/>
						<path class="st1" d="M404.8,347.2c0.6,0.6,0.6,1.6,0,2.2c-0.6,0.6-1.6,0.6-2.2,0c-0.6-0.6-0.6-1.6,0-2.2
							C403.3,346.6,404.2,346.6,404.8,347.2z"/>
						<path class="st1" d="M422.2,329.9c0.6,0.6,0.6,1.6,0,2.2c-0.6,0.6-1.6,0.6-2.2,0s-0.6-1.6,0-2.2S421.6,329.3,422.2,329.9z"/>
						<path class="st1" d="M439.5,312.6c0.6,0.6,0.6,1.6,0,2.2c-0.6,0.6-1.6,0.6-2.2,0c-0.6-0.6-0.6-1.6,0-2.2
							C437.9,312,438.9,312,439.5,312.6z"/>
						<path class="st1" d="M456.8,295.3c0.6,0.6,0.6,1.6,0,2.2s-1.6,0.6-2.2,0c-0.6-0.6-0.6-1.6,0-2.2S456.2,294.7,456.8,295.3z"/>
						<path class="st1" d="M474.1,278c0.6,0.6,0.6,1.6,0,2.2c-0.6,0.6-1.6,0.6-2.2,0s-0.6-1.6,0-2.2S473.5,277.4,474.1,278z"/>
						<path class="st1" d="M491.4,260.7c0.6,0.6,0.6,1.6,0,2.2c-0.6,0.6-1.6,0.6-2.2,0c-0.6-0.6-0.6-1.6,0-2.2
							S490.8,260.1,491.4,260.7z"/>
					</g>
					<g>
						<path class="st1" d="M296.8,481.4c0.6,0.6,0.6,1.6,0,2.2s-1.6,0.6-2.2,0s-0.6-1.6,0-2.2S296.2,480.8,296.8,481.4z"/>
						<path class="st1" d="M314.1,464.1c0.6,0.6,0.6,1.6,0,2.2s-1.6,0.6-2.2,0s-0.6-1.6,0-2.2S313.5,463.5,314.1,464.1z"/>
						<ellipse class="st1" cx="330.3" cy="447.9" rx="1.5" ry="1.5"/>
						<path class="st1" d="M348.7,429.5c0.6,0.6,0.6,1.6,0,2.2s-1.6,0.6-2.2,0s-0.6-1.6,0-2.2S348.1,428.9,348.7,429.5z"/>
						<path class="st1" d="M366,412.2c0.6,0.6,0.6,1.6,0,2.2s-1.6,0.6-2.2,0s-0.6-1.6,0-2.2S365.4,411.6,366,412.2z"/>
						<ellipse class="st1" cx="382.2" cy="396" rx="1.5" ry="1.5"/>
						<path class="st1" d="M400.6,377.6c0.6,0.6,0.6,1.6,0,2.2s-1.6,0.6-2.2,0s-0.6-1.6,0-2.2S400,377,400.6,377.6z"/>
						<path class="st1" d="M417.9,360.3c0.6,0.6,0.6,1.6,0,2.2s-1.6,0.6-2.2,0s-0.6-1.6,0-2.2S417.3,359.7,417.9,360.3z"/>
						<path class="st1" d="M435.2,343c0.6,0.6,0.6,1.6,0,2.2s-1.6,0.6-2.2,0c-0.6-0.6-0.6-1.6,0-2.2
							C433.6,342.4,434.6,342.4,435.2,343z"/>
						<path class="st1" d="M452.5,325.7c0.6,0.6,0.6,1.6,0,2.2c-0.6,0.6-1.6,0.6-2.2,0c-0.6-0.6-0.6-1.6,0-2.2
							C451,325,451.9,325.1,452.5,325.7z"/>
						<path class="st1" d="M469.8,308.3c0.6,0.6,0.6,1.6,0,2.2c-0.6,0.6-1.6,0.6-2.2,0c-0.6-0.6-0.6-1.6,0-2.2
							C468.2,307.7,469.2,307.7,469.8,308.3z"/>
						<path class="st1" d="M487.1,291c0.6,0.6,0.6,1.6,0,2.2c-0.6,0.6-1.6,0.6-2.2,0s-0.6-1.6,0-2.2S486.5,290.4,487.1,291z"/>
						<path class="st1" d="M504.4,273.8c0.6,0.6,0.6,1.6,0,2.2c-0.6,0.6-1.6,0.6-2.2,0c-0.6-0.6-0.6-1.6,0-2.2
							C502.9,273.1,503.8,273.1,504.4,273.8z"/>
					</g>
					<g>
						<path class="st1" d="M309.8,494.5c0.6,0.6,0.6,1.6,0,2.2c-0.6,0.6-1.6,0.6-2.2,0s-0.6-1.6,0-2.2
							C308.3,493.8,309.2,493.8,309.8,494.5z"/>
						<path class="st1" d="M327.1,477.2c0.6,0.6,0.6,1.6,0,2.2c-0.6,0.6-1.6,0.6-2.2,0s-0.6-1.6,0-2.2
							C325.6,476.5,326.5,476.5,327.1,477.2z"/>
						<path class="st1" d="M344.4,459.8c0.6,0.6,0.6,1.6,0,2.2c-0.6,0.6-1.6,0.6-2.2,0s-0.6-1.6,0-2.2
							C342.9,459.2,343.8,459.2,344.4,459.8z"/>
						<path class="st1" d="M361.8,442.5c0.6,0.6,0.6,1.6,0,2.2c-0.6,0.6-1.6,0.6-2.2,0s-0.6-1.6,0-2.2
							C360.2,441.9,361.1,441.9,361.8,442.5z"/>
						<path class="st1" d="M379,425.2c0.6,0.6,0.6,1.6,0,2.2c-0.6,0.6-1.6,0.6-2.2,0s-0.6-1.6,0-2.2
							C377.5,424.6,378.4,424.6,379,425.2z"/>
						<path class="st1" d="M396.4,407.9c0.6,0.6,0.6,1.6,0,2.2c-0.6,0.6-1.6,0.6-2.2,0s-0.6-1.6,0-2.2S395.8,407.3,396.4,407.9z"/>
						<path class="st1" d="M413.7,390.6c0.6,0.6,0.6,1.6,0,2.2c-0.6,0.6-1.6,0.6-2.2,0s-0.6-1.6,0-2.2
							C412.1,390,413.1,390,413.7,390.6z"/>
						<path class="st1" d="M431,373.3c0.6,0.6,0.6,1.6,0,2.2c-0.6,0.6-1.6,0.6-2.2,0c-0.6-0.6-0.6-1.6,0-2.2
							C429.4,372.7,430.4,372.7,431,373.3z"/>
						<path class="st1" d="M448.3,356c0.6,0.6,0.6,1.6,0,2.2c-0.6,0.6-1.6,0.6-2.2,0c-0.6-0.6-0.6-1.6,0-2.2
							C446.7,355.4,447.7,355.4,448.3,356z"/>
						<path class="st1" d="M465.6,338.7c0.6,0.6,0.6,1.6,0,2.2s-1.6,0.6-2.2,0c-0.6-0.6-0.6-1.6,0-2.2S465,338.1,465.6,338.7z"/>
						<path class="st1" d="M482.9,321.4c0.6,0.6,0.6,1.6,0,2.2c-0.6,0.6-1.6,0.6-2.2,0c-0.6-0.6-0.6-1.6,0-2.2
							S482.3,320.8,482.9,321.4z"/>
						<path class="st1" d="M500.2,304.1c0.6,0.6,0.6,1.6,0,2.2c-0.6,0.6-1.6,0.6-2.2,0c-0.6-0.6-0.6-1.6,0-2.2
							C498.6,303.5,499.6,303.5,500.2,304.1z"/>
					</g>
					<g>
						<path class="st1" d="M340.2,490.2c0.6,0.6,0.6,1.6,0,2.2c-0.6,0.6-1.6,0.6-2.2,0s-0.6-1.6,0-2.2S339.6,489.6,340.2,490.2z"/>
						<path class="st1" d="M357.5,472.9c0.6,0.6,0.6,1.6,0,2.2c-0.6,0.6-1.6,0.6-2.2,0s-0.6-1.6,0-2.2S356.9,472.3,357.5,472.9z"/>
						<path class="st1" d="M374.8,455.6c0.6,0.6,0.6,1.6,0,2.2s-1.6,0.6-2.2,0s-0.6-1.6,0-2.2C373.2,455,374.2,455,374.8,455.6z"/>
						<path class="st1" d="M392.1,438.3c0.6,0.6,0.6,1.6,0,2.2c-0.6,0.6-1.6,0.6-2.2,0s-0.6-1.6,0-2.2
							C390.5,437.7,391.5,437.7,392.1,438.3z"/>
						<path class="st1" d="M409.4,421c0.6,0.6,0.6,1.6,0,2.2c-0.6,0.6-1.6,0.6-2.2,0c-0.6-0.6-0.6-1.6,0-2.2
							C407.8,420.4,408.8,420.4,409.4,421z"/>
						<path class="st1" d="M426.7,403.7c0.6,0.6,0.6,1.6,0,2.2s-1.6,0.6-2.2,0s-0.6-1.6,0-2.2S426.1,403.1,426.7,403.7z"/>
						<path class="st1" d="M444,386.4c0.6,0.6,0.6,1.6,0,2.2s-1.6,0.6-2.2,0c-0.6-0.6-0.6-1.6,0-2.2S443.4,385.8,444,386.4z"/>
						<path class="st1" d="M461.3,369.1c0.6,0.6,0.6,1.6,0,2.2c-0.6,0.6-1.6,0.6-2.2,0c-0.6-0.6-0.6-1.6,0-2.2
							C459.8,368.5,460.7,368.5,461.3,369.1z"/>
						<path class="st1" d="M478.6,351.8c0.6,0.6,0.6,1.6,0,2.2c-0.6,0.6-1.6,0.6-2.2,0s-0.6-1.6,0-2.2
							C477.1,351.2,478,351.2,478.6,351.8z"/>
						<path class="st1" d="M495.9,334.5c0.6,0.6,0.6,1.6,0,2.2c-0.6,0.6-1.6,0.6-2.2,0c-0.6-0.6-0.6-1.6,0-2.2
							S495.3,333.9,495.9,334.5z"/>
					</g>
					<g>
						<ellipse class="st1" cx="369.5" cy="487" rx="1.5" ry="1.5"/>
						<path class="st1" d="M387.9,468.7c0.6,0.6,0.6,1.6,0,2.2c-0.6,0.6-1.6,0.6-2.2,0s-0.6-1.6,0-2.2
							C386.3,468,387.3,468.1,387.9,468.7z"/>
						<path class="st1" d="M405.2,451.3c0.6,0.6,0.6,1.6,0,2.2c-0.6,0.6-1.6,0.6-2.2,0c-0.6-0.6-0.6-1.6,0-2.2
							C403.6,450.7,404.6,450.7,405.2,451.3z"/>
						<ellipse class="st1" cx="421.4" cy="435.1" rx="1.5" ry="1.5"/>
						<path class="st1" d="M439.8,416.8c0.6,0.6,0.6,1.6,0,2.2c-0.6,0.6-1.6,0.6-2.2,0c-0.6-0.6-0.6-1.6,0-2.2
							C438.2,416.1,439.2,416.1,439.8,416.8z"/>
						<path class="st1" d="M457.1,399.4c0.6,0.6,0.6,1.6,0,2.2s-1.6,0.6-2.2,0c-0.6-0.6-0.6-1.6,0-2.2S456.5,398.8,457.1,399.4z"/>
						<path class="st1" d="M474.4,382.1c0.6,0.6,0.6,1.6,0,2.2c-0.6,0.6-1.6,0.6-2.2,0s-0.6-1.6,0-2.2S473.8,381.5,474.4,382.1z"/>
						<path class="st1" d="M491.7,364.8c0.6,0.6,0.6,1.6,0,2.2c-0.6,0.6-1.6,0.6-2.2,0c-0.6-0.6-0.6-1.6,0-2.2
							C490.1,364.2,491.1,364.2,491.7,364.8z"/>
					</g>
					<g>
						<path class="st1" d="M400.9,481.7c0.6,0.6,0.6,1.6,0,2.2c-0.6,0.6-1.6,0.6-2.2,0s-0.6-1.6,0-2.2
							C399.4,481.1,400.3,481.1,400.9,481.7z"/>
						<path class="st1" d="M418.2,464.4c0.6,0.6,0.6,1.6,0,2.2c-0.6,0.6-1.6,0.6-2.2,0c-0.6-0.6-0.6-1.6,0-2.2
							C416.7,463.8,417.6,463.8,418.2,464.4z"/>
						<path class="st1" d="M435.5,447.1c0.6,0.6,0.6,1.6,0,2.2s-1.6,0.6-2.2,0c-0.6-0.6-0.6-1.6,0-2.2
							C434,446.5,434.9,446.5,435.5,447.1z"/>
						<path class="st1" d="M452.8,429.8c0.6,0.6,0.6,1.6,0,2.2s-1.6,0.6-2.2,0c-0.6-0.6-0.6-1.6,0-2.2S452.2,429.2,452.8,429.8z"/>
						<path class="st1" d="M470.1,412.5c0.6,0.6,0.6,1.6,0,2.2c-0.6,0.6-1.6,0.6-2.2,0c-0.6-0.6-0.6-1.6,0-2.2
							C468.6,411.9,469.5,411.9,470.1,412.5z"/>
						<path class="st1" d="M487.4,395.2c0.6,0.6,0.6,1.6,0,2.2c-0.6,0.6-1.6,0.6-2.2,0c-0.6-0.6-0.6-1.6,0-2.2
							S486.8,394.6,487.4,395.2z"/>
						<path class="st1" d="M504.8,377.9c0.6,0.6,0.6,1.6,0,2.2s-1.6,0.6-2.2,0c-0.6-0.6-0.6-1.6,0-2.2S504.2,377.3,504.8,377.9z"/>
					</g>
					<g>
						<path class="st1" d="M414,494.8c0.6,0.6,0.6,1.6,0,2.2c-0.6,0.6-1.6,0.6-2.2,0s-0.6-1.6,0-2.2
							C412.4,494.2,413.4,494.2,414,494.8z"/>
						<path class="st1" d="M431.3,477.5c0.6,0.6,0.6,1.6,0,2.2c-0.6,0.6-1.6,0.6-2.2,0c-0.6-0.6-0.6-1.6,0-2.2
							C429.7,476.9,430.7,476.9,431.3,477.5z"/>
						<path class="st1" d="M448.6,460.2c0.6,0.6,0.6,1.6,0,2.2c-0.6,0.6-1.6,0.6-2.2,0c-0.6-0.6-0.6-1.6,0-2.2
							C447,459.6,448,459.6,448.6,460.2z"/>
						<path class="st1" d="M465.9,442.9c0.6,0.6,0.6,1.6,0,2.2s-1.6,0.6-2.2,0c-0.6-0.6-0.6-1.6,0-2.2S465.3,442.3,465.9,442.9z"/>
						<path class="st1" d="M483.2,425.6c0.6,0.6,0.6,1.6,0,2.2c-0.6,0.6-1.6,0.6-2.2,0c-0.6-0.6-0.6-1.6,0-2.2
							C481.6,425,482.6,425,483.2,425.6z"/>
						<path class="st1" d="M500.5,408.2c0.6,0.6,0.6,1.6,0,2.2c-0.6,0.6-1.6,0.6-2.2,0c-0.6-0.6-0.6-1.6,0-2.2
							C498.9,407.6,499.9,407.6,500.5,408.2z"/>
					</g>
					<g>
						<path class="st1" d="M444.3,490.5c0.6,0.6,0.6,1.6,0,2.2s-1.6,0.6-2.2,0c-0.6-0.6-0.6-1.6,0-2.2S443.7,489.9,444.3,490.5z"/>
						<path class="st1" d="M461.7,473.2c0.6,0.6,0.6,1.6,0,2.2c-0.6,0.6-1.6,0.6-2.2,0c-0.6-0.6-0.6-1.6,0-2.2
							S461.1,472.6,461.7,473.2z"/>
						<path class="st1" d="M479,455.9c0.6,0.6,0.6,1.6,0,2.2c-0.6,0.6-1.6,0.6-2.2,0s-0.6-1.6,0-2.2
							C477.4,455.3,478.4,455.3,479,455.9z"/>
						<path class="st1" d="M496.3,438.6c0.6,0.6,0.6,1.6,0,2.2s-1.6,0.6-2.2,0c-0.6-0.6-0.6-1.6,0-2.2S495.7,438,496.3,438.6z"/>
					</g>
					<g>
						<path class="st1" d="M474.7,486.3c0.6,0.6,0.6,1.6,0,2.2c-0.6,0.6-1.6,0.6-2.2,0s-0.6-1.6,0-2.2S474.1,485.7,474.7,486.3z"/>
						<path class="st1" d="M492,469c0.6,0.6,0.6,1.6,0,2.2c-0.6,0.6-1.6,0.6-2.2,0c-0.6-0.6-0.6-1.6,0-2.2
							C490.4,468.4,491.4,468.4,492,469z"/>
					</g>
					<g>
						<path class="st1" d="M505.1,482c0.6,0.6,0.6,1.6,0,2.2s-1.6,0.6-2.2,0c-0.6-0.6-0.6-1.6,0-2.2S504.5,481.4,505.1,482z"/>
					</g>
				</g>
			</g>
		</g>
	</g>
</g>
<circle class="st2" cx="252.2" cy="247.1" r="116.5"/>
</svg>
