<?xml version="1.0" encoding="utf-8"?>
<!-- Generator: Adobe Illustrator 27.5.0, SVG Export Plug-In . SVG Version: 6.00 Build 0)  -->
<svg version="1.1" id="圖層_1" xmlns="http://www.w3.org/2000/svg" xmlns:xlink="http://www.w3.org/1999/xlink" x="0px" y="0px"
	 viewBox="0 0 300 300" style="enable-background:new 0 0 300 300;" xml:space="preserve">
<style type="text/css">
	.st0{fill:#FFFFFF;}
</style>
<path class="st0" d="M151.2,228.9c-7.5,0-15.1-0.5-22.3-1.2c-20.1,17.8-44.1,30.4-70.7,37.2c-5.5,1.5-11.5,2.6-17.5,3.4
	c-0.3,0-0.6,0-0.8,0c-3.1,0-5.8-2.5-6.6-5.8c0-0.1,0-0.1,0-0.1c-0.8-3.8,1.8-6.1,4.2-8.9c9.7-10.9,20.7-20.1,28-45.8
	c-31.6-18-51.9-45.8-51.9-77c0-54.2,61.6-98.3,137.6-98.3s137.6,44.1,137.6,98.3C288.8,185,227.2,228.9,151.2,228.9z M33.2,130.6
	c0,22.9,15.4,44.7,41.9,59.8l13.4,7.7l-4.2,14.8c-2.9,10.9-6.8,19.4-10.8,26.4c15.5-6.4,29.7-15.2,42.2-26.3l6.6-5.8l8.8,0.9
	c6.6,0.8,13.4,1.2,20,1.2c63.9,0,118-35.9,118-78.7s-54.1-78.6-118-78.6S33.2,87.9,33.2,130.6z M92.2,150.2
	c-10.9,0-19.7-8.8-19.7-19.7s8.8-19.7,19.7-19.7c10.9,0,19.7,8.8,19.7,19.7S103.1,150.2,92.2,150.2z M151.2,150.2
	c-10.9,0-19.7-8.8-19.7-19.7s8.8-19.7,19.7-19.7c10.9,0,19.7,8.8,19.7,19.7S162.1,150.2,151.2,150.2z M210.2,150.2
	c-10.9,0-19.7-8.8-19.7-19.7s8.8-19.7,19.7-19.7c10.9,0,19.7,8.8,19.7,19.7S221.1,150.2,210.2,150.2z"/>
</svg>
