<?xml version="1.0" encoding="UTF-8"?>
<svg id="_圖層_1" data-name="圖層 1" xmlns="http://www.w3.org/2000/svg" xmlns:xlink="http://www.w3.org/1999/xlink" viewBox="0 0 693.1 693.1">
  <defs>
    <style>
      .cls-1 {
        clip-path: url(#clippath);
      }

      .cls-2 {
        fill: none;
      }

      .cls-3 {
        fill: #231815;
      }
    </style>
    <clipPath id="clippath">
      <circle class="cls-2" cx="346.55" cy="346.55" r="346.55"/>
    </clipPath>
  </defs>
  <g class="cls-1">
    <g>
      <g>
        <path class="cls-3" d="m8.48,220.42c.85.85.86,2.23.02,3.07-.84.84-2.22.84-3.07-.02s-.86-2.23-.02-3.07c.84-.84,2.22-.84,3.07.02Z"/>
        <path class="cls-3" d="m32.95,195.96c.85.85.86,2.23.02,3.07s-2.22.84-3.07-.02-.86-2.23-.02-3.07c.84-.84,2.22-.84,3.07.02Z"/>
        <path class="cls-3" d="m57.41,171.49c.85.85.86,2.23.02,3.07-.84.84-2.22.84-3.07-.02-.85-.85-.86-2.23-.02-3.07.84-.84,2.22-.84,3.07.02Z"/>
        <path class="cls-3" d="m81.88,147.02c.85.85.86,2.23.02,3.07-.84.84-2.22.84-3.07-.02-.85-.85-.86-2.23-.02-3.07.84-.84,2.22-.84,3.07.02Z"/>
        <path class="cls-3" d="m106.35,122.56c.85.85.86,2.23.02,3.07-.84.84-2.22.84-3.07-.02s-.86-2.23-.02-3.07c.84-.84,2.22-.84,3.07.02Z"/>
        <path class="cls-3" d="m130.81,98.09c.85.85.86,2.23.02,3.07-.84.84-2.22.84-3.07-.02s-.86-2.23-.02-3.07c.84-.84,2.22-.84,3.07.02Z"/>
        <path class="cls-3" d="m155.28,73.62c.85.85.86,2.23.02,3.07-.84.84-2.22.84-3.07-.02s-.86-2.23-.02-3.07c.84-.84,2.22-.84,3.07.02Z"/>
        <path class="cls-3" d="m179.74,49.16c.85.85.86,2.23.02,3.07-.84.84-2.22.84-3.07-.02s-.86-2.23-.02-3.07c.84-.84,2.22-.84,3.07.02Z"/>
        <path class="cls-3" d="m204.21,24.69c.85.85.86,2.23.02,3.07-.84.84-2.22.84-3.07-.02s-.86-2.23-.02-3.07c.84-.84,2.22-.84,3.07.02Z"/>
        <path class="cls-3" d="m228.68.22c.85.85.86,2.23.02,3.07-.84.84-2.22.84-3.07-.02s-.86-2.23-.02-3.07c.84-.84,2.22-.84,3.07.02Z"/>
      </g>
      <g>
        <path class="cls-3" d="m2.48,263.35c.85.85.86,2.23.02,3.07-.84.84-2.22.84-3.07-.02s-.86-2.23-.02-3.07c.84-.84,2.22-.84,3.07.02Z"/>
        <ellipse class="cls-3" cx="25.41" cy="240.41" rx="2.16" ry="2.19" transform="translate(-162.55 88.39) rotate(-45)"/>
        <path class="cls-3" d="m51.41,214.42c.85.85.86,2.23.02,3.07-.84.84-2.22.84-3.07-.02s-.86-2.23-.02-3.07c.84-.84,2.22-.84,3.07.02Z"/>
        <path class="cls-3" d="m75.88,189.95c.85.85.86,2.23.02,3.07-.84.84-2.22.84-3.07-.02s-.86-2.23-.02-3.07c.84-.84,2.22-.84,3.07.02Z"/>
        <path class="cls-3" d="m100.34,165.49c.85.85.86,2.23.02,3.07-.84.84-2.22.84-3.07-.02s-.86-2.23-.02-3.07c.84-.84,2.22-.84,3.07.02Z"/>
        <path class="cls-3" d="m124.81,141.02c.85.85.86,2.23.02,3.07-.84.84-2.22.84-3.07-.02s-.86-2.23-.02-3.07c.84-.84,2.22-.84,3.07.02Z"/>
        <path class="cls-3" d="m149.27,116.55c.85.85.86,2.23.02,3.07-.84.84-2.22.84-3.07-.02s-.86-2.23-.02-3.07c.84-.84,2.22-.84,3.07.02Z"/>
        <path class="cls-3" d="m173.74,92.09c.85.85.86,2.23.02,3.07-.84.84-2.22.84-3.07-.02-.85-.85-.86-2.23-.02-3.07.84-.84,2.22-.84,3.07.02Z"/>
        <path class="cls-3" d="m198.21,67.62c.85.85.86,2.23.02,3.07-.84.84-2.22.84-3.07-.02s-.86-2.23-.02-3.07c.84-.84,2.22-.84,3.07.02Z"/>
        <path class="cls-3" d="m222.67,43.15c.85.85.86,2.23.02,3.07-.84.84-2.22.84-3.07-.02s-.86-2.23-.02-3.07c.84-.84,2.22-.84,3.07.02Z"/>
        <path class="cls-3" d="m247.14,18.69c.85.85.86,2.23.02,3.07s-2.22.84-3.07-.02-.86-2.23-.02-3.07,2.22-.84,3.07.02Z"/>
      </g>
      <g>
        <path class="cls-3" d="m20.94,281.81c.85.85.86,2.23.02,3.07-.84.84-2.22.84-3.07-.02s-.86-2.23-.02-3.07c.84-.84,2.22-.84,3.07.02Z"/>
        <path class="cls-3" d="m45.41,257.35c.85.85.86,2.23.02,3.07s-2.22.84-3.07-.02-.86-2.23-.02-3.07c.84-.84,2.22-.84,3.07.02Z"/>
        <path class="cls-3" d="m69.87,232.88c.85.85.86,2.23.02,3.07-.84.84-2.22.84-3.07-.02s-.86-2.23-.02-3.07c.84-.84,2.22-.84,3.07.02Z"/>
        <path class="cls-3" d="m94.34,208.41c.85.85.86,2.23.02,3.07-.84.84-2.22.84-3.07-.02s-.86-2.23-.02-3.07c.84-.84,2.22-.84,3.07.02Z"/>
        <path class="cls-3" d="m118.8,183.95c.85.85.86,2.23.02,3.07-.84.84-2.22.84-3.07-.02s-.86-2.23-.02-3.07c.84-.84,2.22-.84,3.07.02Z"/>
        <path class="cls-3" d="m143.27,159.48c.85.85.86,2.23.02,3.07-.84.84-2.22.84-3.07-.02s-.86-2.23-.02-3.07c.84-.84,2.22-.84,3.07.02Z"/>
        <path class="cls-3" d="m167.74,135.01c.85.85.86,2.23.02,3.07-.84.84-2.22.84-3.07-.02s-.86-2.23-.02-3.07c.84-.84,2.22-.84,3.07.02Z"/>
        <path class="cls-3" d="m192.2,110.55c.85.85.86,2.23.02,3.07s-2.22.84-3.07-.02-.86-2.23-.02-3.07,2.22-.84,3.07.02Z"/>
        <path class="cls-3" d="m216.67,86.08c.85.85.86,2.23.02,3.07s-2.22.84-3.07-.02c-.85-.85-.86-2.23-.02-3.07.84-.84,2.22-.84,3.07.02Z"/>
        <path class="cls-3" d="m241.14,61.62c.85.85.86,2.23.02,3.07-.84.84-2.22.84-3.07-.02s-.86-2.23-.02-3.07c.84-.84,2.22-.84,3.07.02Z"/>
        <path class="cls-3" d="m265.6,37.15c.85.85.86,2.23.02,3.07-.84.84-2.22.84-3.07-.02-.85-.85-.86-2.23-.02-3.07.84-.84,2.22-.84,3.07.02Z"/>
        <path class="cls-3" d="m290.07,12.68c.85.85.86,2.23.02,3.07-.84.84-2.22.84-3.07-.02-.85-.85-.86-2.23-.02-3.07.84-.84,2.22-.84,3.07.02Z"/>
      </g>
      <g>
        <path class="cls-3" d="m14.94,324.74c.85.85.86,2.23.02,3.07s-2.22.84-3.07-.02-.86-2.23-.02-3.07,2.22-.84,3.07.02Z"/>
        <path class="cls-3" d="m39.4,300.28c.85.85.86,2.23.02,3.07-.84.84-2.22.84-3.07-.02s-.86-2.23-.02-3.07,2.22-.84,3.07.02Z"/>
        <path class="cls-3" d="m63.87,275.81c.85.85.86,2.23.02,3.07-.84.84-2.22.84-3.07-.02s-.86-2.23-.02-3.07c.84-.84,2.22-.84,3.07.02Z"/>
        <path class="cls-3" d="m88.33,251.34c.85.85.86,2.23.02,3.07-.84.84-2.22.84-3.07-.02-.85-.85-.86-2.23-.02-3.07.84-.84,2.22-.84,3.07.02Z"/>
        <path class="cls-3" d="m112.8,226.88c.85.85.86,2.23.02,3.07-.84.84-2.22.84-3.07-.02s-.86-2.23-.02-3.07c.84-.84,2.22-.84,3.07.02Z"/>
        <path class="cls-3" d="m137.27,202.41c.85.85.86,2.23.02,3.07-.84.84-2.22.84-3.07-.02s-.86-2.23-.02-3.07,2.22-.84,3.07.02Z"/>
        <path class="cls-3" d="m161.73,177.94c.85.85.86,2.23.02,3.07s-2.22.84-3.07-.02c-.85-.85-.86-2.23-.02-3.07s2.22-.84,3.07.02Z"/>
        <path class="cls-3" d="m186.2,153.48c.85.85.86,2.23.02,3.07-.84.84-2.22.84-3.07-.02s-.86-2.23-.02-3.07c.84-.84,2.22-.84,3.07.02Z"/>
        <path class="cls-3" d="m210.67,129.01c.85.85.86,2.23.02,3.07-.84.84-2.22.84-3.07-.02s-.86-2.23-.02-3.07c.84-.84,2.22-.84,3.07.02Z"/>
        <path class="cls-3" d="m235.13,104.54c.85.85.86,2.23.02,3.07-.84.84-2.22.84-3.07-.02-.85-.85-.86-2.23-.02-3.07.84-.84,2.22-.84,3.07.02Z"/>
        <path class="cls-3" d="m259.6,80.08c.85.85.86,2.23.02,3.07-.84.84-2.22.84-3.07-.02s-.86-2.23-.02-3.07c.84-.84,2.22-.84,3.07.02Z"/>
        <path class="cls-3" d="m284.06,55.61c.85.85.86,2.23.02,3.07-.84.84-2.22.84-3.07-.02s-.86-2.23-.02-3.07c.84-.84,2.22-.84,3.07.02Z"/>
        <path class="cls-3" d="m308.53,31.15c.85.85.86,2.23.02,3.07-.84.84-2.22.84-3.07-.02s-.86-2.23-.02-3.07c.84-.84,2.22-.84,3.07.02Z"/>
        <path class="cls-3" d="m333,6.68c.85.85.86,2.23.02,3.07-.84.84-2.22.84-3.07-.02-.85-.85-.86-2.23-.02-3.07.84-.84,2.22-.84,3.07.02Z"/>
      </g>
      <g>
        <path class="cls-3" d="m8.93,367.67c.85.85.86,2.23.02,3.07-.84.84-2.22.84-3.07-.02s-.86-2.23-.02-3.07c.84-.84,2.22-.84,3.07.02Z"/>
        <path class="cls-3" d="m33.4,343.2c.85.85.86,2.23.02,3.07-.84.84-2.22.84-3.07-.02-.85-.85-.86-2.23-.02-3.07.84-.84,2.22-.84,3.07.02Z"/>
        <path class="cls-3" d="m57.86,318.74c.85.85.86,2.23.02,3.07-.84.84-2.22.84-3.07-.02s-.86-2.23-.02-3.07c.84-.84,2.22-.84,3.07.02Z"/>
        <path class="cls-3" d="m82.33,294.27c.85.85.86,2.23.02,3.07s-2.22.84-3.07-.02-.86-2.23-.02-3.07,2.22-.84,3.07.02Z"/>
        <path class="cls-3" d="m106.8,269.81c.85.85.86,2.23.02,3.07s-2.22.84-3.07-.02c-.85-.85-.86-2.23-.02-3.07s2.22-.84,3.07.02Z"/>
        <path class="cls-3" d="m131.26,245.34c.85.85.86,2.23.02,3.07s-2.22.84-3.07-.02-.86-2.23-.02-3.07,2.22-.84,3.07.02Z"/>
        <path class="cls-3" d="m155.73,220.87c.85.85.86,2.23.02,3.07-.84.84-2.22.84-3.07-.02s-.86-2.23-.02-3.07c.84-.84,2.22-.84,3.07.02Z"/>
        <path class="cls-3" d="m180.2,196.41c.85.85.86,2.23.02,3.07-.84.84-2.22.84-3.07-.02-.85-.85-.86-2.23-.02-3.07.84-.84,2.22-.84,3.07.02Z"/>
        <path class="cls-3" d="m204.66,171.94c.85.85.86,2.23.02,3.07-.84.84-2.22.84-3.07-.02s-.86-2.23-.02-3.07c.84-.84,2.22-.84,3.07.02Z"/>
        <path class="cls-3" d="m229.13,147.47c.85.85.86,2.23.02,3.07-.84.84-2.22.84-3.07-.02s-.86-2.23-.02-3.07c.84-.84,2.22-.84,3.07.02Z"/>
        <path class="cls-3" d="m253.59,123.01c.85.85.86,2.23.02,3.07-.84.84-2.22.84-3.07-.02s-.86-2.23-.02-3.07c.84-.84,2.22-.84,3.07.02Z"/>
        <path class="cls-3" d="m278.06,98.54c.85.85.86,2.23.02,3.07-.84.84-2.22.84-3.07-.02s-.86-2.23-.02-3.07c.84-.84,2.22-.84,3.07.02Z"/>
        <path class="cls-3" d="m302.53,74.07c.85.85.86,2.23.02,3.07-.84.84-2.22.84-3.07-.02s-.86-2.23-.02-3.07c.84-.84,2.22-.84,3.07.02Z"/>
        <path class="cls-3" d="m326.99,49.61c.85.85.86,2.23.02,3.07-.84.84-2.22.84-3.07-.02-.85-.85-.86-2.23-.02-3.07.84-.84,2.22-.84,3.07.02Z"/>
        <path class="cls-3" d="m351.46,25.14c.85.85.86,2.23.02,3.07-.84.84-2.22.84-3.07-.02s-.86-2.23-.02-3.07c.84-.84,2.22-.84,3.07.02Z"/>
        <path class="cls-3" d="m375.93.68c.85.85.86,2.23.02,3.07-.84.84-2.22.84-3.07-.02s-.86-2.23-.02-3.07,2.22-.84,3.07.02Z"/>
      </g>
      <g>
        <path class="cls-3" d="m2.93,410.6c.85.85.86,2.23.02,3.07-.84.84-2.22.84-3.07-.02s-.86-2.23-.02-3.07c.84-.84,2.22-.84,3.07.02Z"/>
        <path class="cls-3" d="m27.39,386.13c.85.85.86,2.23.02,3.07-.84.84-2.22.84-3.07-.02s-.86-2.23-.02-3.07c.84-.84,2.22-.84,3.07.02Z"/>
        <path class="cls-3" d="m51.86,361.67c.85.85.86,2.23.02,3.07-.84.84-2.22.84-3.07-.02s-.86-2.23-.02-3.07c.84-.84,2.22-.84,3.07.02Z"/>
        <path class="cls-3" d="m76.33,337.2c.85.85.86,2.23.02,3.07-.84.84-2.22.84-3.07-.02s-.86-2.23-.02-3.07c.84-.84,2.22-.84,3.07.02Z"/>
        <path class="cls-3" d="m100.79,312.73c.85.85.86,2.23.02,3.07-.84.84-2.22.84-3.07-.02s-.86-2.23-.02-3.07c.84-.84,2.22-.84,3.07.02Z"/>
        <path class="cls-3" d="m125.26,288.27c.85.85.86,2.23.02,3.07-.84.84-2.22.84-3.07-.02s-.86-2.23-.02-3.07c.84-.84,2.22-.84,3.07.02Z"/>
        <path class="cls-3" d="m149.73,263.8c.85.85.86,2.23.02,3.07-.84.84-2.22.84-3.07-.02-.85-.85-.86-2.23-.02-3.07.84-.84,2.22-.84,3.07.02Z"/>
        <path class="cls-3" d="m174.19,239.33c.85.85.86,2.23.02,3.07-.84.84-2.22.84-3.07-.02s-.86-2.23-.02-3.07c.84-.84,2.22-.84,3.07.02Z"/>
        <path class="cls-3" d="m198.66,214.87c.85.85.86,2.23.02,3.07-.84.84-2.22.84-3.07-.02s-.86-2.23-.02-3.07c.84-.84,2.22-.84,3.07.02Z"/>
        <path class="cls-3" d="m223.12,190.4c.85.85.86,2.23.02,3.07-.84.84-2.22.84-3.07-.02s-.86-2.23-.02-3.07c.84-.84,2.22-.84,3.07.02Z"/>
        <path class="cls-3" d="m247.59,165.94c.85.85.86,2.23.02,3.07-.84.84-2.22.84-3.07-.02s-.86-2.23-.02-3.07c.84-.84,2.22-.84,3.07.02Z"/>
        <path class="cls-3" d="m272.06,141.47c.85.85.86,2.23.02,3.07-.84.84-2.22.84-3.07-.02-.85-.85-.86-2.23-.02-3.07.84-.84,2.22-.84,3.07.02Z"/>
        <path class="cls-3" d="m296.52,117c.85.85.86,2.23.02,3.07-.84.84-2.22.84-3.07-.02s-.86-2.23-.02-3.07c.84-.84,2.22-.84,3.07.02Z"/>
        <path class="cls-3" d="m320.99,92.54c.85.85.86,2.23.02,3.07-.84.84-2.22.84-3.07-.02s-.86-2.23-.02-3.07,2.22-.84,3.07.02Z"/>
        <path class="cls-3" d="m345.46,68.07c.85.85.86,2.23.02,3.07s-2.22.84-3.07-.02-.86-2.23-.02-3.07,2.22-.84,3.07.02Z"/>
        <path class="cls-3" d="m369.92,43.6c.85.85.86,2.23.02,3.07-.84.84-2.22.84-3.07-.02s-.86-2.23-.02-3.07c.84-.84,2.22-.84,3.07.02Z"/>
        <path class="cls-3" d="m394.39,19.14c.85.85.86,2.23.02,3.07-.84.84-2.22.84-3.07-.02s-.86-2.23-.02-3.07c.84-.84,2.22-.84,3.07.02Z"/>
      </g>
      <g>
        <path class="cls-3" d="m21.39,429.06c.85.85.86,2.23.02,3.07-.84.84-2.22.84-3.07-.02s-.86-2.23-.02-3.07c.84-.84,2.22-.84,3.07.02Z"/>
        <path class="cls-3" d="m45.86,404.6c.85.85.86,2.23.02,3.07-.84.84-2.22.84-3.07-.02-.85-.85-.86-2.23-.02-3.07.84-.84,2.22-.84,3.07.02Z"/>
        <path class="cls-3" d="m70.32,380.13c.85.85.86,2.23.02,3.07-.84.84-2.22.84-3.07-.02s-.86-2.23-.02-3.07c.84-.84,2.22-.84,3.07.02Z"/>
        <path class="cls-3" d="m94.79,355.66c.85.85.86,2.23.02,3.07s-2.22.84-3.07-.02-.86-2.23-.02-3.07,2.22-.84,3.07.02Z"/>
        <path class="cls-3" d="m119.26,331.2c.85.85.86,2.23.02,3.07-.84.84-2.22.84-3.07-.02s-.86-2.23-.02-3.07,2.22-.84,3.07.02Z"/>
        <path class="cls-3" d="m143.72,306.73c.85.85.86,2.23.02,3.07-.84.84-2.22.84-3.07-.02s-.86-2.23-.02-3.07c.84-.84,2.22-.84,3.07.02Z"/>
        <path class="cls-3" d="m168.19,282.26c.85.85.86,2.23.02,3.07-.84.84-2.22.84-3.07-.02s-.86-2.23-.02-3.07,2.22-.84,3.07.02Z"/>
        <path class="cls-3" d="m192.65,257.8c.85.85.86,2.23.02,3.07-.84.84-2.22.84-3.07-.02s-.86-2.23-.02-3.07c.84-.84,2.22-.84,3.07.02Z"/>
        <path class="cls-3" d="m217.12,233.33c.85.85.86,2.23.02,3.07-.84.84-2.22.84-3.07-.02s-.86-2.23-.02-3.07c.84-.84,2.22-.84,3.07.02Z"/>
        <path class="cls-3" d="m241.59,208.86c.85.85.86,2.23.02,3.07-.84.84-2.22.84-3.07-.02-.85-.85-.86-2.23-.02-3.07.84-.84,2.22-.84,3.07.02Z"/>
        <path class="cls-3" d="m266.05,184.4c.85.85.86,2.23.02,3.07-.84.84-2.22.84-3.07-.02s-.86-2.23-.02-3.07c.84-.84,2.22-.84,3.07.02Z"/>
        <path class="cls-3" d="m290.52,159.93c.85.85.86,2.23.02,3.07s-2.22.84-3.07-.02-.86-2.23-.02-3.07,2.22-.84,3.07.02Z"/>
        <path class="cls-3" d="m314.99,135.47c.85.85.86,2.23.02,3.07-.84.84-2.22.84-3.07-.02s-.86-2.23-.02-3.07c.84-.84,2.22-.84,3.07.02Z"/>
        <path class="cls-3" d="m339.45,111c.85.85.86,2.23.02,3.07-.84.84-2.22.84-3.07-.02s-.86-2.23-.02-3.07c.84-.84,2.22-.84,3.07.02Z"/>
        <path class="cls-3" d="m363.92,86.53c.85.85.86,2.23.02,3.07-.84.84-2.22.84-3.07-.02-.85-.85-.86-2.23-.02-3.07.84-.84,2.22-.84,3.07.02Z"/>
        <path class="cls-3" d="m388.38,62.07c.85.85.86,2.23.02,3.07-.84.84-2.22.84-3.07-.02s-.86-2.23-.02-3.07c.84-.84,2.22-.84,3.07.02Z"/>
        <path class="cls-3" d="m412.85,37.6c.85.85.86,2.23.02,3.07-.84.84-2.22.84-3.07-.02s-.86-2.23-.02-3.07c.84-.84,2.22-.84,3.07.02Z"/>
        <path class="cls-3" d="m437.32,13.13c.85.85.86,2.23.02,3.07-.84.84-2.22.84-3.07-.02s-.86-2.23-.02-3.07c.84-.84,2.22-.84,3.07.02Z"/>
      </g>
      <g>
        <path class="cls-3" d="m15.39,471.99c.85.85.86,2.23.02,3.07-.84.84-2.22.84-3.07-.02s-.86-2.23-.02-3.07c.84-.84,2.22-.84,3.07.02Z"/>
        <path class="cls-3" d="m39.85,447.52c.85.85.86,2.23.02,3.07-.84.84-2.22.84-3.07-.02s-.86-2.23-.02-3.07c.84-.84,2.22-.84,3.07.02Z"/>
        <path class="cls-3" d="m64.32,423.06c.85.85.86,2.23.02,3.07s-2.22.84-3.07-.02-.86-2.23-.02-3.07c.84-.84,2.22-.84,3.07.02Z"/>
        <path class="cls-3" d="m88.79,398.59c.85.85.86,2.23.02,3.07-.84.84-2.22.84-3.07-.02s-.86-2.23-.02-3.07c.84-.84,2.22-.84,3.07.02Z"/>
        <path class="cls-3" d="m113.25,374.13c.85.85.86,2.23.02,3.07-.84.84-2.22.84-3.07-.02s-.86-2.23-.02-3.07c.84-.84,2.22-.84,3.07.02Z"/>
        <path class="cls-3" d="m137.72,349.66c.85.85.86,2.23.02,3.07-.84.84-2.22.84-3.07-.02-.85-.85-.86-2.23-.02-3.07.84-.84,2.22-.84,3.07.02Z"/>
        <path class="cls-3" d="m162.18,325.19c.85.85.86,2.23.02,3.07s-2.22.84-3.07-.02-.86-2.23-.02-3.07,2.22-.84,3.07.02Z"/>
        <path class="cls-3" d="m186.65,300.73c.85.85.86,2.23.02,3.07-.84.84-2.22.84-3.07-.02s-.86-2.23-.02-3.07c.84-.84,2.22-.84,3.07.02Z"/>
        <path class="cls-3" d="m211.12,276.26c.85.85.86,2.23.02,3.07-.84.84-2.22.84-3.07-.02s-.86-2.23-.02-3.07c.84-.84,2.22-.84,3.07.02Z"/>
        <path class="cls-3" d="m235.58,251.79c.85.85.86,2.23.02,3.07-.84.84-2.22.84-3.07-.02s-.86-2.23-.02-3.07,2.22-.84,3.07.02Z"/>
        <path class="cls-3" d="m260.05,227.33c.85.85.86,2.23.02,3.07-.84.84-2.22.84-3.07-.02s-.86-2.23-.02-3.07c.84-.84,2.22-.84,3.07.02Z"/>
        <path class="cls-3" d="m284.52,202.86c.85.85.86,2.23.02,3.07-.84.84-2.22.84-3.07-.02s-.86-2.23-.02-3.07c.84-.84,2.22-.84,3.07.02Z"/>
        <path class="cls-3" d="m308.98,178.39c.85.85.86,2.23.02,3.07-.84.84-2.22.84-3.07-.02s-.86-2.23-.02-3.07c.84-.84,2.22-.84,3.07.02Z"/>
        <path class="cls-3" d="m333.45,153.93c.85.85.86,2.23.02,3.07-.84.84-2.22.84-3.07-.02-.85-.85-.86-2.23-.02-3.07.84-.84,2.22-.84,3.07.02Z"/>
        <path class="cls-3" d="m357.91,129.46c.85.85.86,2.23.02,3.07-.84.84-2.22.84-3.07-.02s-.86-2.23-.02-3.07c.84-.84,2.22-.84,3.07.02Z"/>
        <path class="cls-3" d="m382.38,105c.85.85.86,2.23.02,3.07-.84.84-2.22.84-3.07-.02s-.86-2.23-.02-3.07c.84-.84,2.22-.84,3.07.02Z"/>
        <path class="cls-3" d="m406.85,80.53c.85.85.86,2.23.02,3.07-.84.84-2.22.84-3.07-.02s-.86-2.23-.02-3.07c.84-.84,2.22-.84,3.07.02Z"/>
        <path class="cls-3" d="m431.31,56.06c.85.85.86,2.23.02,3.07-.84.84-2.22.84-3.07-.02s-.86-2.23-.02-3.07c.84-.84,2.22-.84,3.07.02Z"/>
        <path class="cls-3" d="m455.78,31.6c.85.85.86,2.23.02,3.07-.84.84-2.22.84-3.07-.02-.85-.85-.86-2.23-.02-3.07.84-.84,2.22-.84,3.07.02Z"/>
        <path class="cls-3" d="m480.25,7.13c.85.85.86,2.23.02,3.07-.84.84-2.22.84-3.07-.02s-.86-2.23-.02-3.07c.84-.84,2.22-.84,3.07.02Z"/>
      </g>
      <g>
        <path class="cls-3" d="m9.38,514.92c.85.85.86,2.23.02,3.07-.84.84-2.22.84-3.07-.02s-.86-2.23-.02-3.07c.84-.84,2.22-.84,3.07.02Z"/>
        <path class="cls-3" d="m33.85,490.45c.85.85.86,2.23.02,3.07-.84.84-2.22.84-3.07-.02s-.86-2.23-.02-3.07c.84-.84,2.22-.84,3.07.02Z"/>
        <path class="cls-3" d="m58.32,465.99c.85.85.86,2.23.02,3.07-.84.84-2.22.84-3.07-.02s-.86-2.23-.02-3.07c.84-.84,2.22-.84,3.07.02Z"/>
        <path class="cls-3" d="m82.78,441.52c.85.85.86,2.23.02,3.07-.84.84-2.22.84-3.07-.02s-.86-2.23-.02-3.07,2.22-.84,3.07.02Z"/>
        <path class="cls-3" d="m107.25,417.05c.85.85.86,2.23.02,3.07-.84.84-2.22.84-3.07-.02s-.86-2.23-.02-3.07c.84-.84,2.22-.84,3.07.02Z"/>
        <path class="cls-3" d="m131.71,392.59c.85.85.86,2.23.02,3.07-.84.84-2.22.84-3.07-.02s-.86-2.23-.02-3.07c.84-.84,2.22-.84,3.07.02Z"/>
        <path class="cls-3" d="m156.18,368.12c.85.85.86,2.23.02,3.07-.84.84-2.22.84-3.07-.02s-.86-2.23-.02-3.07c.84-.84,2.22-.84,3.07.02Z"/>
        <path class="cls-3" d="m180.65,343.66c.85.85.86,2.23.02,3.07s-2.22.84-3.07-.02-.86-2.23-.02-3.07,2.22-.84,3.07.02Z"/>
        <path class="cls-3" d="m205.11,319.19c.85.85.86,2.23.02,3.07-.84.84-2.22.84-3.07-.02s-.86-2.23-.02-3.07c.84-.84,2.22-.84,3.07.02Z"/>
        <path class="cls-3" d="m229.58,294.72c.85.85.86,2.23.02,3.07-.84.84-2.22.84-3.07-.02-.85-.85-.86-2.23-.02-3.07.84-.84,2.22-.84,3.07.02Z"/>
        <path class="cls-3" d="m254.05,270.26c.85.85.86,2.23.02,3.07-.84.84-2.22.84-3.07-.02s-.86-2.23-.02-3.07c.84-.84,2.22-.84,3.07.02Z"/>
        <path class="cls-3" d="m278.51,245.79c.85.85.86,2.23.02,3.07-.84.84-2.22.84-3.07-.02s-.86-2.23-.02-3.07c.84-.84,2.22-.84,3.07.02Z"/>
        <path class="cls-3" d="m302.98,221.32c.85.85.86,2.23.02,3.07-.84.84-2.22.84-3.07-.02s-.86-2.23-.02-3.07c.84-.84,2.22-.84,3.07.02Z"/>
        <path class="cls-3" d="m327.44,196.86c.85.85.86,2.23.02,3.07-.84.84-2.22.84-3.07-.02s-.86-2.23-.02-3.07c.84-.84,2.22-.84,3.07.02Z"/>
        <path class="cls-3" d="m351.91,172.39c.85.85.86,2.23.02,3.07-.84.84-2.22.84-3.07-.02s-.86-2.23-.02-3.07c.84-.84,2.22-.84,3.07.02Z"/>
        <path class="cls-3" d="m376.38,147.92c.85.85.86,2.23.02,3.07s-2.22.84-3.07-.02-.86-2.23-.02-3.07c.84-.84,2.22-.84,3.07.02Z"/>
        <path class="cls-3" d="m400.84,123.46c.85.85.86,2.23.02,3.07-.84.84-2.22.84-3.07-.02-.85-.85-.86-2.23-.02-3.07.84-.84,2.22-.84,3.07.02Z"/>
        <path class="cls-3" d="m425.31,98.99c.85.85.86,2.23.02,3.07-.84.84-2.22.84-3.07-.02-.85-.85-.86-2.23-.02-3.07.84-.84,2.22-.84,3.07.02Z"/>
        <path class="cls-3" d="m449.78,74.53c.85.85.86,2.23.02,3.07-.84.84-2.22.84-3.07-.02s-.86-2.23-.02-3.07c.84-.84,2.22-.84,3.07.02Z"/>
        <path class="cls-3" d="m474.24,50.06c.85.85.86,2.23.02,3.07-.84.84-2.22.84-3.07-.02s-.86-2.23-.02-3.07c.84-.84,2.22-.84,3.07.02Z"/>
        <path class="cls-3" d="m498.71,25.59c.85.85.86,2.23.02,3.07-.84.84-2.22.84-3.07-.02s-.86-2.23-.02-3.07c.84-.84,2.22-.84,3.07.02Z"/>
        <path class="cls-3" d="m523.18,1.13c.85.85.86,2.23.02,3.07-.84.84-2.22.84-3.07-.02-.85-.85-.86-2.23-.02-3.07.84-.84,2.22-.84,3.07.02Z"/>
      </g>
      <g>
        <path class="cls-3" d="m3.38,557.85c.85.85.86,2.23.02,3.07-.84.84-2.22.84-3.07-.02s-.86-2.23-.02-3.07c.84-.84,2.22-.84,3.07.02Z"/>
        <path class="cls-3" d="m27.84,533.38c.85.85.86,2.23.02,3.07-.84.84-2.22.84-3.07-.02-.85-.85-.86-2.23-.02-3.07.84-.84,2.22-.84,3.07.02Z"/>
        <path class="cls-3" d="m52.31,508.92c.85.85.86,2.23.02,3.07s-2.22.84-3.07-.02c-.85-.85-.86-2.23-.02-3.07.84-.84,2.22-.84,3.07.02Z"/>
        <path class="cls-3" d="m76.78,484.45c.85.85.86,2.23.02,3.07s-2.22.84-3.07-.02-.86-2.23-.02-3.07,2.22-.84,3.07.02Z"/>
        <path class="cls-3" d="m101.24,459.98c.85.85.86,2.23.02,3.07-.84.84-2.22.84-3.07-.02s-.86-2.23-.02-3.07c.84-.84,2.22-.84,3.07.02Z"/>
        <path class="cls-3" d="m125.71,435.52c.85.85.86,2.23.02,3.07s-2.22.84-3.07-.02-.86-2.23-.02-3.07c.84-.84,2.22-.84,3.07.02Z"/>
        <path class="cls-3" d="m150.18,411.05c.85.85.86,2.23.02,3.07s-2.22.84-3.07-.02-.86-2.23-.02-3.07,2.22-.84,3.07.02Z"/>
        <path class="cls-3" d="m174.64,386.58c.85.85.86,2.23.02,3.07s-2.22.84-3.07-.02-.86-2.23-.02-3.07c.84-.84,2.22-.84,3.07.02Z"/>
        <path class="cls-3" d="m199.11,362.12c.85.85.86,2.23.02,3.07-.84.84-2.22.84-3.07-.02s-.86-2.23-.02-3.07c.84-.84,2.22-.84,3.07.02Z"/>
        <path class="cls-3" d="m223.58,337.65c.85.85.86,2.23.02,3.07s-2.22.84-3.07-.02-.86-2.23-.02-3.07c.84-.84,2.22-.84,3.07.02Z"/>
        <path class="cls-3" d="m248.04,313.18c.85.85.86,2.23.02,3.07s-2.22.84-3.07-.02-.86-2.23-.02-3.07,2.22-.84,3.07.02Z"/>
        <path class="cls-3" d="m272.51,288.72c.85.85.86,2.23.02,3.07s-2.22.84-3.07-.02-.86-2.23-.02-3.07c.84-.84,2.22-.84,3.07.02Z"/>
        <path class="cls-3" d="m296.97,264.25c.85.85.86,2.23.02,3.07-.84.84-2.22.84-3.07-.02s-.86-2.23-.02-3.07c.84-.84,2.22-.84,3.07.02Z"/>
        <path class="cls-3" d="m321.44,239.79c.85.85.86,2.23.02,3.07s-2.22.84-3.07-.02-.86-2.23-.02-3.07,2.22-.84,3.07.02Z"/>
        <path class="cls-3" d="m345.91,215.32c.85.85.86,2.23.02,3.07-.84.84-2.22.84-3.07-.02-.85-.85-.86-2.23-.02-3.07.84-.84,2.22-.84,3.07.02Z"/>
        <path class="cls-3" d="m370.37,190.85c.85.85.86,2.23.02,3.07-.84.84-2.22.84-3.07-.02s-.86-2.23-.02-3.07c.84-.84,2.22-.84,3.07.02Z"/>
        <path class="cls-3" d="m394.84,166.39c.85.85.86,2.23.02,3.07-.84.84-2.22.84-3.07-.02s-.86-2.23-.02-3.07c.84-.84,2.22-.84,3.07.02Z"/>
        <path class="cls-3" d="m419.31,141.92c.85.85.86,2.23.02,3.07-.84.84-2.22.84-3.07-.02s-.86-2.23-.02-3.07c.84-.84,2.22-.84,3.07.02Z"/>
        <path class="cls-3" d="m443.77,117.45c.85.85.86,2.23.02,3.07-.84.84-2.22.84-3.07-.02s-.86-2.23-.02-3.07c.84-.84,2.22-.84,3.07.02Z"/>
        <path class="cls-3" d="m468.24,92.99c.85.85.86,2.23.02,3.07-.84.84-2.22.84-3.07-.02s-.86-2.23-.02-3.07c.84-.84,2.22-.84,3.07.02Z"/>
        <path class="cls-3" d="m492.7,68.52c.85.85.86,2.23.02,3.07-.84.84-2.22.84-3.07-.02s-.86-2.23-.02-3.07c.84-.84,2.22-.84,3.07.02Z"/>
        <path class="cls-3" d="m517.17,44.06c.85.85.86,2.23.02,3.07-.84.84-2.22.84-3.07-.02-.85-.85-.86-2.23-.02-3.07.84-.84,2.22-.84,3.07.02Z"/>
        <path class="cls-3" d="m541.64,19.59c.85.85.86,2.23.02,3.07-.84.84-2.22.84-3.07-.02s-.86-2.23-.02-3.07c.84-.84,2.22-.84,3.07.02Z"/>
      </g>
      <g>
        <path class="cls-3" d="m21.84,576.31c.85.85.86,2.23.02,3.07-.84.84-2.22.84-3.07-.02s-.86-2.23-.02-3.07c.84-.84,2.22-.84,3.07.02Z"/>
        <path class="cls-3" d="m46.31,551.84c.85.85.86,2.23.02,3.07-.84.84-2.22.84-3.07-.02s-.86-2.23-.02-3.07c.84-.84,2.22-.84,3.07.02Z"/>
        <path class="cls-3" d="m70.77,527.38c.85.85.86,2.23.02,3.07-.84.84-2.22.84-3.07-.02s-.86-2.23-.02-3.07c.84-.84,2.22-.84,3.07.02Z"/>
        <path class="cls-3" d="m95.24,502.91c.85.85.86,2.23.02,3.07-.84.84-2.22.84-3.07-.02s-.86-2.23-.02-3.07c.84-.84,2.22-.84,3.07.02Z"/>
        <path class="cls-3" d="m119.71,478.45c.85.85.86,2.23.02,3.07-.84.84-2.22.84-3.07-.02s-.86-2.23-.02-3.07c.84-.84,2.22-.84,3.07.02Z"/>
        <path class="cls-3" d="m144.17,453.98c.85.85.86,2.23.02,3.07-.84.84-2.22.84-3.07-.02-.85-.85-.86-2.23-.02-3.07.84-.84,2.22-.84,3.07.02Z"/>
        <path class="cls-3" d="m168.64,429.51c.85.85.86,2.23.02,3.07-.84.84-2.22.84-3.07-.02s-.86-2.23-.02-3.07c.84-.84,2.22-.84,3.07.02Z"/>
        <path class="cls-3" d="m193.11,405.05c.85.85.86,2.23.02,3.07-.84.84-2.22.84-3.07-.02s-.86-2.23-.02-3.07c.84-.84,2.22-.84,3.07.02Z"/>
        <path class="cls-3" d="m217.57,380.58c.85.85.86,2.23.02,3.07-.84.84-2.22.84-3.07-.02s-.86-2.23-.02-3.07c.84-.84,2.22-.84,3.07.02Z"/>
        <path class="cls-3" d="m242.04,356.11c.85.85.86,2.23.02,3.07-.84.84-2.22.84-3.07-.02s-.86-2.23-.02-3.07c.84-.84,2.22-.84,3.07.02Z"/>
        <path class="cls-3" d="m266.5,331.65c.85.85.86,2.23.02,3.07-.84.84-2.22.84-3.07-.02s-.86-2.23-.02-3.07c.84-.84,2.22-.84,3.07.02Z"/>
        <path class="cls-3" d="m290.97,307.18c.85.85.86,2.23.02,3.07-.84.84-2.22.84-3.07-.02-.85-.85-.86-2.23-.02-3.07.84-.84,2.22-.84,3.07.02Z"/>
        <path class="cls-3" d="m315.44,282.71c.85.85.86,2.23.02,3.07-.84.84-2.22.84-3.07-.02s-.86-2.23-.02-3.07c.84-.84,2.22-.84,3.07.02Z"/>
        <path class="cls-3" d="m339.9,258.25c.85.85.86,2.23.02,3.07-.84.84-2.22.84-3.07-.02-.85-.85-.86-2.23-.02-3.07.84-.84,2.22-.84,3.07.02Z"/>
        <path class="cls-3" d="m364.37,233.78c.85.85.86,2.23.02,3.07-.84.84-2.22.84-3.07-.02s-.86-2.23-.02-3.07c.84-.84,2.22-.84,3.07.02Z"/>
        <path class="cls-3" d="m388.84,209.32c.85.85.86,2.23.02,3.07-.84.84-2.22.84-3.07-.02s-.86-2.23-.02-3.07c.84-.84,2.22-.84,3.07.02Z"/>
        <path class="cls-3" d="m413.3,184.85c.85.85.86,2.23.02,3.07-.84.84-2.22.84-3.07-.02s-.86-2.23-.02-3.07c.84-.84,2.22-.84,3.07.02Z"/>
        <path class="cls-3" d="m437.77,160.38c.85.85.86,2.23.02,3.07-.84.84-2.22.84-3.07-.02s-.86-2.23-.02-3.07c.84-.84,2.22-.84,3.07.02Z"/>
        <path class="cls-3" d="m462.23,135.92c.85.85.86,2.23.02,3.07-.84.84-2.22.84-3.07-.02s-.86-2.23-.02-3.07c.84-.84,2.22-.84,3.07.02Z"/>
        <path class="cls-3" d="m486.7,111.45c.85.85.86,2.23.02,3.07-.84.84-2.22.84-3.07-.02s-.86-2.23-.02-3.07c.84-.84,2.22-.84,3.07.02Z"/>
        <path class="cls-3" d="m511.17,86.98c.85.85.86,2.23.02,3.07-.84.84-2.22.84-3.07-.02s-.86-2.23-.02-3.07c.84-.84,2.22-.84,3.07.02Z"/>
        <path class="cls-3" d="m535.63,62.52c.85.85.86,2.23.02,3.07s-2.22.84-3.07-.02-.86-2.23-.02-3.07,2.22-.84,3.07.02Z"/>
        <path class="cls-3" d="m560.1,38.05c.85.85.86,2.23.02,3.07s-2.22.84-3.07-.02c-.85-.85-.86-2.23-.02-3.07.84-.84,2.22-.84,3.07.02Z"/>
        <path class="cls-3" d="m584.57,13.59c.85.85.86,2.23.02,3.07-.84.84-2.22.84-3.07-.02-.85-.85-.86-2.23-.02-3.07.84-.84,2.22-.84,3.07.02Z"/>
      </g>
      <g>
        <path class="cls-3" d="m40.3,594.77c.85.85.86,2.23.02,3.07-.84.84-2.22.84-3.07-.02-.85-.85-.86-2.23-.02-3.07.84-.84,2.22-.84,3.07.02Z"/>
        <path class="cls-3" d="m64.77,570.31c.85.85.86,2.23.02,3.07s-2.22.84-3.07-.02-.86-2.23-.02-3.07,2.22-.84,3.07.02Z"/>
        <path class="cls-3" d="m89.24,545.84c.85.85.86,2.23.02,3.07s-2.22.84-3.07-.02-.86-2.23-.02-3.07,2.22-.84,3.07.02Z"/>
        <path class="cls-3" d="m113.7,521.37c.85.85.86,2.23.02,3.07s-2.22.84-3.07-.02-.86-2.23-.02-3.07,2.22-.84,3.07.02Z"/>
        <path class="cls-3" d="m138.17,496.91c.85.85.86,2.23.02,3.07s-2.22.84-3.07-.02-.86-2.23-.02-3.07,2.22-.84,3.07.02Z"/>
        <path class="cls-3" d="m162.64,472.44c.85.85.86,2.23.02,3.07s-2.22.84-3.07-.02-.86-2.23-.02-3.07,2.22-.84,3.07.02Z"/>
        <path class="cls-3" d="m187.1,447.98c.85.85.86,2.23.02,3.07s-2.22.84-3.07-.02-.86-2.23-.02-3.07c.84-.84,2.22-.84,3.07.02Z"/>
        <path class="cls-3" d="m211.57,423.51c.85.85.86,2.23.02,3.07s-2.22.84-3.07-.02-.86-2.23-.02-3.07,2.22-.84,3.07.02Z"/>
        <path class="cls-3" d="m236.03,399.04c.85.85.86,2.23.02,3.07s-2.22.84-3.07-.02-.86-2.23-.02-3.07,2.22-.84,3.07.02Z"/>
        <path class="cls-3" d="m260.5,374.58c.85.85.86,2.23.02,3.07s-2.22.84-3.07-.02-.86-2.23-.02-3.07,2.22-.84,3.07.02Z"/>
        <path class="cls-3" d="m284.97,350.11c.85.85.86,2.23.02,3.07s-2.22.84-3.07-.02-.86-2.23-.02-3.07c.84-.84,2.22-.84,3.07.02Z"/>
        <path class="cls-3" d="m309.43,325.64c.85.85.86,2.23.02,3.07s-2.22.84-3.07-.02-.86-2.23-.02-3.07,2.22-.84,3.07.02Z"/>
        <path class="cls-3" d="m333.9,301.18c.85.85.86,2.23.02,3.07s-2.22.84-3.07-.02-.86-2.23-.02-3.07,2.22-.84,3.07.02Z"/>
        <path class="cls-3" d="m358.37,276.71c.85.85.86,2.23.02,3.07s-2.22.84-3.07-.02-.86-2.23-.02-3.07,2.22-.84,3.07.02Z"/>
        <path class="cls-3" d="m382.83,252.24c.85.85.86,2.23.02,3.07-.84.84-2.22.84-3.07-.02s-.86-2.23-.02-3.07c.84-.84,2.22-.84,3.07.02Z"/>
        <path class="cls-3" d="m407.3,227.78c.85.85.86,2.23.02,3.07-.84.84-2.22.84-3.07-.02s-.86-2.23-.02-3.07c.84-.84,2.22-.84,3.07.02Z"/>
        <path class="cls-3" d="m431.76,203.31c.85.85.86,2.23.02,3.07-.84.84-2.22.84-3.07-.02-.85-.85-.86-2.23-.02-3.07.84-.84,2.22-.84,3.07.02Z"/>
        <path class="cls-3" d="m456.23,178.85c.85.85.86,2.23.02,3.07-.84.84-2.22.84-3.07-.02s-.86-2.23-.02-3.07c.84-.84,2.22-.84,3.07.02Z"/>
        <path class="cls-3" d="m480.7,154.38c.85.85.86,2.23.02,3.07-.84.84-2.22.84-3.07-.02s-.86-2.23-.02-3.07,2.22-.84,3.07.02Z"/>
        <path class="cls-3" d="m505.16,129.91c.85.85.86,2.23.02,3.07s-2.22.84-3.07-.02c-.85-.85-.86-2.23-.02-3.07s2.22-.84,3.07.02Z"/>
        <path class="cls-3" d="m529.63,105.45c.85.85.86,2.23.02,3.07-.84.84-2.22.84-3.07-.02s-.86-2.23-.02-3.07c.84-.84,2.22-.84,3.07.02Z"/>
        <path class="cls-3" d="m554.1,80.98c.85.85.86,2.23.02,3.07-.84.84-2.22.84-3.07-.02s-.86-2.23-.02-3.07c.84-.84,2.22-.84,3.07.02Z"/>
        <path class="cls-3" d="m578.56,56.51c.85.85.86,2.23.02,3.07-.84.84-2.22.84-3.07-.02-.85-.85-.86-2.23-.02-3.07.84-.84,2.22-.84,3.07.02Z"/>
        <path class="cls-3" d="m603.03,32.05c.85.85.86,2.23.02,3.07-.84.84-2.22.84-3.07-.02-.85-.85-.86-2.23-.02-3.07.84-.84,2.22-.84,3.07.02Z"/>
        <path class="cls-3" d="m627.5,7.58c.85.85.86,2.23.02,3.07-.84.84-2.22.84-3.07-.02-.85-.85-.86-2.23-.02-3.07.84-.84,2.22-.84,3.07.02Z"/>
      </g>
      <g>
        <path class="cls-3" d="m58.77,613.24c.85.85.86,2.23.02,3.07-.84.84-2.22.84-3.07-.02-.85-.85-.86-2.23-.02-3.07.84-.84,2.22-.84,3.07.02Z"/>
        <path class="cls-3" d="m83.23,588.77c.85.85.86,2.23.02,3.07-.84.84-2.22.84-3.07-.02s-.86-2.23-.02-3.07c.84-.84,2.22-.84,3.07.02Z"/>
        <path class="cls-3" d="m107.7,564.3c.85.85.86,2.23.02,3.07-.84.84-2.22.84-3.07-.02s-.86-2.23-.02-3.07c.84-.84,2.22-.84,3.07.02Z"/>
        <path class="cls-3" d="m132.17,539.84c.85.85.86,2.23.02,3.07-.84.84-2.22.84-3.07-.02s-.86-2.23-.02-3.07c.84-.84,2.22-.84,3.07.02Z"/>
        <path class="cls-3" d="m156.63,515.37c.85.85.86,2.23.02,3.07-.84.84-2.22.84-3.07-.02s-.86-2.23-.02-3.07c.84-.84,2.22-.84,3.07.02Z"/>
        <path class="cls-3" d="m181.1,490.9c.85.85.86,2.23.02,3.07-.84.84-2.22.84-3.07-.02-.85-.85-.86-2.23-.02-3.07.84-.84,2.22-.84,3.07.02Z"/>
        <path class="cls-3" d="m205.56,466.44c.85.85.86,2.23.02,3.07-.84.84-2.22.84-3.07-.02s-.86-2.23-.02-3.07c.84-.84,2.22-.84,3.07.02Z"/>
        <path class="cls-3" d="m230.03,441.97c.85.85.86,2.23.02,3.07-.84.84-2.22.84-3.07-.02s-.86-2.23-.02-3.07c.84-.84,2.22-.84,3.07.02Z"/>
        <path class="cls-3" d="m254.5,417.5c.85.85.86,2.23.02,3.07-.84.84-2.22.84-3.07-.02s-.86-2.23-.02-3.07c.84-.84,2.22-.84,3.07.02Z"/>
        <path class="cls-3" d="m278.96,393.04c.85.85.86,2.23.02,3.07-.84.84-2.22.84-3.07-.02s-.86-2.23-.02-3.07c.84-.84,2.22-.84,3.07.02Z"/>
        <path class="cls-3" d="m303.43,368.57c.85.85.86,2.23.02,3.07-.84.84-2.22.84-3.07-.02s-.86-2.23-.02-3.07c.84-.84,2.22-.84,3.07.02Z"/>
        <path class="cls-3" d="m327.9,344.11c.85.85.86,2.23.02,3.07-.84.84-2.22.84-3.07-.02-.85-.85-.86-2.23-.02-3.07.84-.84,2.22-.84,3.07.02Z"/>
        <path class="cls-3" d="m352.36,319.64c.85.85.86,2.23.02,3.07-.84.84-2.22.84-3.07-.02s-.86-2.23-.02-3.07c.84-.84,2.22-.84,3.07.02Z"/>
        <path class="cls-3" d="m376.83,295.17c.85.85.86,2.23.02,3.07-.84.84-2.22.84-3.07-.02s-.86-2.23-.02-3.07c.84-.84,2.22-.84,3.07.02Z"/>
        <path class="cls-3" d="m401.29,270.71c.85.85.86,2.23.02,3.07-.84.84-2.22.84-3.07-.02s-.86-2.23-.02-3.07c.84-.84,2.22-.84,3.07.02Z"/>
        <path class="cls-3" d="m425.76,246.24c.85.85.86,2.23.02,3.07-.84.84-2.22.84-3.07-.02s-.86-2.23-.02-3.07c.84-.84,2.22-.84,3.07.02Z"/>
        <path class="cls-3" d="m450.23,221.77c.85.85.86,2.23.02,3.07s-2.22.84-3.07-.02c-.85-.85-.86-2.23-.02-3.07s2.22-.84,3.07.02Z"/>
        <path class="cls-3" d="m474.69,197.31c.85.85.86,2.23.02,3.07s-2.22.84-3.07-.02-.86-2.23-.02-3.07,2.22-.84,3.07.02Z"/>
        <path class="cls-3" d="m499.16,172.84c.85.85.86,2.23.02,3.07-.84.84-2.22.84-3.07-.02s-.86-2.23-.02-3.07c.84-.84,2.22-.84,3.07.02Z"/>
        <path class="cls-3" d="m523.63,148.38c.85.85.86,2.23.02,3.07-.84.84-2.22.84-3.07-.02-.85-.85-.86-2.23-.02-3.07.84-.84,2.22-.84,3.07.02Z"/>
        <path class="cls-3" d="m548.09,123.91c.85.85.86,2.23.02,3.07-.84.84-2.22.84-3.07-.02s-.86-2.23-.02-3.07c.84-.84,2.22-.84,3.07.02Z"/>
        <path class="cls-3" d="m572.56,99.44c.85.85.86,2.23.02,3.07-.84.84-2.22.84-3.07-.02-.85-.85-.86-2.23-.02-3.07.84-.84,2.22-.84,3.07.02Z"/>
        <path class="cls-3" d="m597.03,74.98c.85.85.86,2.23.02,3.07-.84.84-2.22.84-3.07-.02-.85-.85-.86-2.23-.02-3.07.84-.84,2.22-.84,3.07.02Z"/>
        <path class="cls-3" d="m621.49,50.51c.85.85.86,2.23.02,3.07-.84.84-2.22.84-3.07-.02-.85-.85-.86-2.23-.02-3.07.84-.84,2.22-.84,3.07.02Z"/>
        <path class="cls-3" d="m645.96,26.04c.85.85.86,2.23.02,3.07-.84.84-2.22.84-3.07-.02-.85-.85-.86-2.23-.02-3.07.84-.84,2.22-.84,3.07.02Z"/>
        <path class="cls-3" d="m670.42,1.58c.85.85.86,2.23.02,3.07-.84.84-2.22.84-3.07-.02-.85-.85-.86-2.23-.02-3.07.84-.84,2.22-.84,3.07.02Z"/>
      </g>
      <g>
        <path class="cls-3" d="m77.23,631.7c.85.85.86,2.23.02,3.07s-2.22.84-3.07-.02-.86-2.23-.02-3.07,2.22-.84,3.07.02Z"/>
        <path class="cls-3" d="m101.69,607.23c.85.85.86,2.23.02,3.07-.84.84-2.22.84-3.07-.02s-.86-2.23-.02-3.07,2.22-.84,3.07.02Z"/>
        <path class="cls-3" d="m126.16,582.77c.85.85.86,2.23.02,3.07s-2.22.84-3.07-.02c-.85-.85-.86-2.23-.02-3.07s2.22-.84,3.07.02Z"/>
        <path class="cls-3" d="m150.63,558.3c.85.85.86,2.23.02,3.07s-2.22.84-3.07-.02c-.85-.85-.86-2.23-.02-3.07s2.22-.84,3.07.02Z"/>
        <path class="cls-3" d="m175.09,533.83c.85.85.86,2.23.02,3.07-.84.84-2.22.84-3.07-.02s-.86-2.23-.02-3.07,2.22-.84,3.07.02Z"/>
        <path class="cls-3" d="m199.56,509.37c.85.85.86,2.23.02,3.07-.84.84-2.22.84-3.07-.02s-.86-2.23-.02-3.07,2.22-.84,3.07.02Z"/>
        <path class="cls-3" d="m224.03,484.9c.85.85.86,2.23.02,3.07s-2.22.84-3.07-.02-.86-2.23-.02-3.07,2.22-.84,3.07.02Z"/>
        <path class="cls-3" d="m248.49,460.43c.85.85.86,2.23.02,3.07s-2.22.84-3.07-.02-.86-2.23-.02-3.07,2.22-.84,3.07.02Z"/>
        <path class="cls-3" d="m272.96,435.97c.85.85.86,2.23.02,3.07-.84.84-2.22.84-3.07-.02s-.86-2.23-.02-3.07c.84-.84,2.22-.84,3.07.02Z"/>
        <path class="cls-3" d="m297.43,411.5c.85.85.86,2.23.02,3.07s-2.22.84-3.07-.02-.86-2.23-.02-3.07,2.22-.84,3.07.02Z"/>
        <path class="cls-3" d="m321.89,387.03c.85.85.86,2.23.02,3.07s-2.22.84-3.07-.02-.86-2.23-.02-3.07,2.22-.84,3.07.02Z"/>
        <path class="cls-3" d="m346.36,362.57c.85.85.86,2.23.02,3.07-.84.84-2.22.84-3.07-.02s-.86-2.23-.02-3.07,2.22-.84,3.07.02Z"/>
        <path class="cls-3" d="m370.82,338.1c.85.85.86,2.23.02,3.07-.84.84-2.22.84-3.07-.02s-.86-2.23-.02-3.07,2.22-.84,3.07.02Z"/>
        <path class="cls-3" d="m395.29,313.64c.85.85.86,2.23.02,3.07s-2.22.84-3.07-.02c-.85-.85-.86-2.23-.02-3.07s2.22-.84,3.07.02Z"/>
        <path class="cls-3" d="m419.76,289.17c.85.85.86,2.23.02,3.07s-2.22.84-3.07-.02c-.85-.85-.86-2.23-.02-3.07s2.22-.84,3.07.02Z"/>
        <path class="cls-3" d="m444.22,264.7c.85.85.86,2.23.02,3.07-.84.84-2.22.84-3.07-.02s-.86-2.23-.02-3.07c.84-.84,2.22-.84,3.07.02Z"/>
        <path class="cls-3" d="m468.69,240.24c.85.85.86,2.23.02,3.07-.84.84-2.22.84-3.07-.02s-.86-2.23-.02-3.07c.84-.84,2.22-.84,3.07.02Z"/>
        <path class="cls-3" d="m493.16,215.77c.85.85.86,2.23.02,3.07-.84.84-2.22.84-3.07-.02-.85-.85-.86-2.23-.02-3.07.84-.84,2.22-.84,3.07.02Z"/>
        <path class="cls-3" d="m517.62,191.3c.85.85.86,2.23.02,3.07-.84.84-2.22.84-3.07-.02s-.86-2.23-.02-3.07c.84-.84,2.22-.84,3.07.02Z"/>
        <path class="cls-3" d="m542.09,166.84c.85.85.86,2.23.02,3.07-.84.84-2.22.84-3.07-.02s-.86-2.23-.02-3.07c.84-.84,2.22-.84,3.07.02Z"/>
        <path class="cls-3" d="m566.55,142.37c.85.85.86,2.23.02,3.07-.84.84-2.22.84-3.07-.02s-.86-2.23-.02-3.07c.84-.84,2.22-.84,3.07.02Z"/>
        <path class="cls-3" d="m591.02,117.91c.85.85.86,2.23.02,3.07-.84.84-2.22.84-3.07-.02-.85-.85-.86-2.23-.02-3.07.84-.84,2.22-.84,3.07.02Z"/>
        <path class="cls-3" d="m615.49,93.44c.85.85.86,2.23.02,3.07-.84.84-2.22.84-3.07-.02-.85-.85-.86-2.23-.02-3.07.84-.84,2.22-.84,3.07.02Z"/>
        <path class="cls-3" d="m639.95,68.97c.85.85.86,2.23.02,3.07-.84.84-2.22.84-3.07-.02-.85-.85-.86-2.23-.02-3.07.84-.84,2.22-.84,3.07.02Z"/>
        <path class="cls-3" d="m664.42,44.51c.85.85.86,2.23.02,3.07-.84.84-2.22.84-3.07-.02-.85-.85-.86-2.23-.02-3.07s2.22-.84,3.07.02Z"/>
        <path class="cls-3" d="m688.89,20.04c.85.85.86,2.23.02,3.07s-2.22.84-3.07-.02c-.85-.85-.86-2.23-.02-3.07s2.22-.84,3.07.02Z"/>
      </g>
      <g>
        <path class="cls-3" d="m95.69,650.16c.85.85.86,2.23.02,3.07-.84.84-2.22.84-3.07-.02s-.86-2.23-.02-3.07c.84-.84,2.22-.84,3.07.02Z"/>
        <path class="cls-3" d="m120.16,625.69c.85.85.86,2.23.02,3.07-.84.84-2.22.84-3.07-.02s-.86-2.23-.02-3.07c.84-.84,2.22-.84,3.07.02Z"/>
        <path class="cls-3" d="m144.62,601.23c.85.85.86,2.23.02,3.07-.84.84-2.22.84-3.07-.02s-.86-2.23-.02-3.07c.84-.84,2.22-.84,3.07.02Z"/>
        <path class="cls-3" d="m169.09,576.76c.85.85.86,2.23.02,3.07-.84.84-2.22.84-3.07-.02s-.86-2.23-.02-3.07c.84-.84,2.22-.84,3.07.02Z"/>
        <path class="cls-3" d="m193.56,552.3c.85.85.86,2.23.02,3.07-.84.84-2.22.84-3.07-.02s-.86-2.23-.02-3.07c.84-.84,2.22-.84,3.07.02Z"/>
        <path class="cls-3" d="m218.02,527.83c.85.85.86,2.23.02,3.07-.84.84-2.22.84-3.07-.02s-.86-2.23-.02-3.07c.84-.84,2.22-.84,3.07.02Z"/>
        <path class="cls-3" d="m242.49,503.36c.85.85.86,2.23.02,3.07-.84.84-2.22.84-3.07-.02-.85-.85-.86-2.23-.02-3.07.84-.84,2.22-.84,3.07.02Z"/>
        <path class="cls-3" d="m266.96,478.9c.85.85.86,2.23.02,3.07-.84.84-2.22.84-3.07-.02s-.86-2.23-.02-3.07c.84-.84,2.22-.84,3.07.02Z"/>
        <path class="cls-3" d="m291.42,454.43c.85.85.86,2.23.02,3.07s-2.22.84-3.07-.02-.86-2.23-.02-3.07c.84-.84,2.22-.84,3.07.02Z"/>
        <path class="cls-3" d="m315.89,429.96c.85.85.86,2.23.02,3.07-.84.84-2.22.84-3.07-.02s-.86-2.23-.02-3.07c.84-.84,2.22-.84,3.07.02Z"/>
        <path class="cls-3" d="m340.35,405.5c.85.85.86,2.23.02,3.07-.84.84-2.22.84-3.07-.02-.85-.85-.86-2.23-.02-3.07.84-.84,2.22-.84,3.07.02Z"/>
        <path class="cls-3" d="m364.82,381.03c.85.85.86,2.23.02,3.07-.84.84-2.22.84-3.07-.02s-.86-2.23-.02-3.07c.84-.84,2.22-.84,3.07.02Z"/>
        <path class="cls-3" d="m389.29,356.56c.85.85.86,2.23.02,3.07-.84.84-2.22.84-3.07-.02s-.86-2.23-.02-3.07c.84-.84,2.22-.84,3.07.02Z"/>
        <path class="cls-3" d="m413.75,332.1c.85.85.86,2.23.02,3.07-.84.84-2.22.84-3.07-.02s-.86-2.23-.02-3.07c.84-.84,2.22-.84,3.07.02Z"/>
        <path class="cls-3" d="m438.22,307.63c.85.85.86,2.23.02,3.07-.84.84-2.22.84-3.07-.02s-.86-2.23-.02-3.07c.84-.84,2.22-.84,3.07.02Z"/>
        <path class="cls-3" d="m462.69,283.17c.85.85.86,2.23.02,3.07-.84.84-2.22.84-3.07-.02s-.86-2.23-.02-3.07c.84-.84,2.22-.84,3.07.02Z"/>
        <path class="cls-3" d="m487.15,258.7c.85.85.86,2.23.02,3.07-.84.84-2.22.84-3.07-.02s-.86-2.23-.02-3.07c.84-.84,2.22-.84,3.07.02Z"/>
        <path class="cls-3" d="m511.62,234.23c.85.85.86,2.23.02,3.07-.84.84-2.22.84-3.07-.02s-.86-2.23-.02-3.07c.84-.84,2.22-.84,3.07.02Z"/>
        <path class="cls-3" d="m536.08,209.77c.85.85.86,2.23.02,3.07-.84.84-2.22.84-3.07-.02s-.86-2.23-.02-3.07c.84-.84,2.22-.84,3.07.02Z"/>
        <path class="cls-3" d="m560.55,185.3c.85.85.86,2.23.02,3.07-.84.84-2.22.84-3.07-.02s-.86-2.23-.02-3.07c.84-.84,2.22-.84,3.07.02Z"/>
        <path class="cls-3" d="m585.02,160.83c.85.85.86,2.23.02,3.07-.84.84-2.22.84-3.07-.02-.85-.85-.86-2.23-.02-3.07.84-.84,2.22-.84,3.07.02Z"/>
        <path class="cls-3" d="m609.48,136.37c.85.85.86,2.23.02,3.07-.84.84-2.22.84-3.07-.02-.85-.85-.86-2.23-.02-3.07.84-.84,2.22-.84,3.07.02Z"/>
        <path class="cls-3" d="m633.95,111.9c.85.85.86,2.23.02,3.07-.84.84-2.22.84-3.07-.02-.85-.85-.86-2.23-.02-3.07.84-.84,2.22-.84,3.07.02Z"/>
        <path class="cls-3" d="m658.42,87.44c.85.85.86,2.23.02,3.07-.84.84-2.22.84-3.07-.02-.85-.85-.86-2.23-.02-3.07.84-.84,2.22-.84,3.07.02Z"/>
        <path class="cls-3" d="m682.88,62.97c.85.85.86,2.23.02,3.07-.84.84-2.22.84-3.07-.02-.85-.85-.86-2.23-.02-3.07.84-.84,2.22-.84,3.07.02Z"/>
      </g>
      <g>
        <path class="cls-3" d="m114.15,668.62c.85.85.86,2.23.02,3.07-.84.84-2.22.84-3.07-.02s-.86-2.23-.02-3.07,2.22-.84,3.07.02Z"/>
        <path class="cls-3" d="m138.62,644.16c.85.85.86,2.23.02,3.07s-2.22.84-3.07-.02-.86-2.23-.02-3.07,2.22-.84,3.07.02Z"/>
        <path class="cls-3" d="m163.09,619.69c.85.85.86,2.23.02,3.07-.84.84-2.22.84-3.07-.02s-.86-2.23-.02-3.07c.84-.84,2.22-.84,3.07.02Z"/>
        <path class="cls-3" d="m187.55,595.22c.85.85.86,2.23.02,3.07-.84.84-2.22.84-3.07-.02s-.86-2.23-.02-3.07c.84-.84,2.22-.84,3.07.02Z"/>
        <path class="cls-3" d="m212.02,570.76c.85.85.86,2.23.02,3.07s-2.22.84-3.07-.02-.86-2.23-.02-3.07,2.22-.84,3.07.02Z"/>
        <path class="cls-3" d="m236.49,546.29c.85.85.86,2.23.02,3.07-.84.84-2.22.84-3.07-.02s-.86-2.23-.02-3.07,2.22-.84,3.07.02Z"/>
        <path class="cls-3" d="m260.95,521.83c.85.85.86,2.23.02,3.07-.84.84-2.22.84-3.07-.02s-.86-2.23-.02-3.07c.84-.84,2.22-.84,3.07.02Z"/>
        <path class="cls-3" d="m285.42,497.36c.85.85.86,2.23.02,3.07-.84.84-2.22.84-3.07-.02-.85-.85-.86-2.23-.02-3.07s2.22-.84,3.07.02Z"/>
        <path class="cls-3" d="m309.88,472.89c.85.85.86,2.23.02,3.07s-2.22.84-3.07-.02-.86-2.23-.02-3.07,2.22-.84,3.07.02Z"/>
        <path class="cls-3" d="m334.35,448.43c.85.85.86,2.23.02,3.07-.84.84-2.22.84-3.07-.02-.85-.85-.86-2.23-.02-3.07s2.22-.84,3.07.02Z"/>
        <path class="cls-3" d="m358.82,423.96c.85.85.86,2.23.02,3.07-.84.84-2.22.84-3.07-.02s-.86-2.23-.02-3.07c.84-.84,2.22-.84,3.07.02Z"/>
        <path class="cls-3" d="m383.28,399.49c.85.85.86,2.23.02,3.07-.84.84-2.22.84-3.07-.02s-.86-2.23-.02-3.07,2.22-.84,3.07.02Z"/>
        <path class="cls-3" d="m407.75,375.03c.85.85.86,2.23.02,3.07s-2.22.84-3.07-.02-.86-2.23-.02-3.07,2.22-.84,3.07.02Z"/>
        <path class="cls-3" d="m432.22,350.56c.85.85.86,2.23.02,3.07-.84.84-2.22.84-3.07-.02s-.86-2.23-.02-3.07c.84-.84,2.22-.84,3.07.02Z"/>
        <path class="cls-3" d="m456.68,326.09c.85.85.86,2.23.02,3.07-.84.84-2.22.84-3.07-.02s-.86-2.23-.02-3.07c.84-.84,2.22-.84,3.07.02Z"/>
        <path class="cls-3" d="m481.15,301.63c.85.85.86,2.23.02,3.07s-2.22.84-3.07-.02-.86-2.23-.02-3.07,2.22-.84,3.07.02Z"/>
        <path class="cls-3" d="m505.61,277.16c.85.85.86,2.23.02,3.07-.84.84-2.22.84-3.07-.02s-.86-2.23-.02-3.07,2.22-.84,3.07.02Z"/>
        <path class="cls-3" d="m530.08,252.7c.85.85.86,2.23.02,3.07-.84.84-2.22.84-3.07-.02-.85-.85-.86-2.23-.02-3.07.84-.84,2.22-.84,3.07.02Z"/>
        <path class="cls-3" d="m554.55,228.23c.85.85.86,2.23.02,3.07-.84.84-2.22.84-3.07-.02-.85-.85-.86-2.23-.02-3.07.84-.84,2.22-.84,3.07.02Z"/>
        <path class="cls-3" d="m579.01,203.76c.85.85.86,2.23.02,3.07-.84.84-2.22.84-3.07-.02-.85-.85-.86-2.23-.02-3.07s2.22-.84,3.07.02Z"/>
        <path class="cls-3" d="m603.48,179.3c.85.85.86,2.23.02,3.07s-2.22.84-3.07-.02c-.85-.85-.86-2.23-.02-3.07s2.22-.84,3.07.02Z"/>
        <path class="cls-3" d="m627.95,154.83c.85.85.86,2.23.02,3.07s-2.22.84-3.07-.02c-.85-.85-.86-2.23-.02-3.07.84-.84,2.22-.84,3.07.02Z"/>
        <path class="cls-3" d="m652.41,130.36c.85.85.86,2.23.02,3.07-.84.84-2.22.84-3.07-.02-.85-.85-.86-2.23-.02-3.07.84-.84,2.22-.84,3.07.02Z"/>
        <path class="cls-3" d="m676.88,105.9c.85.85.86,2.23.02,3.07-.84.84-2.22.84-3.07-.02-.85-.85-.86-2.23-.02-3.07.84-.84,2.22-.84,3.07.02Z"/>
      </g>
      <g>
        <path class="cls-3" d="m132.62,687.09c.85.85.86,2.23.02,3.07-.84.84-2.22.84-3.07-.02s-.86-2.23-.02-3.07c.84-.84,2.22-.84,3.07.02Z"/>
        <path class="cls-3" d="m157.08,662.62c.85.85.86,2.23.02,3.07-.84.84-2.22.84-3.07-.02-.85-.85-.86-2.23-.02-3.07.84-.84,2.22-.84,3.07.02Z"/>
        <path class="cls-3" d="m181.55,638.15c.85.85.86,2.23.02,3.07s-2.22.84-3.07-.02-.86-2.23-.02-3.07c.84-.84,2.22-.84,3.07.02Z"/>
        <path class="cls-3" d="m206.01,613.69c.85.85.86,2.23.02,3.07s-2.22.84-3.07-.02-.86-2.23-.02-3.07c.84-.84,2.22-.84,3.07.02Z"/>
        <path class="cls-3" d="m230.48,589.22c.85.85.86,2.23.02,3.07-.84.84-2.22.84-3.07-.02-.85-.85-.86-2.23-.02-3.07.84-.84,2.22-.84,3.07.02Z"/>
        <path class="cls-3" d="m254.95,564.75c.85.85.86,2.23.02,3.07-.84.84-2.22.84-3.07-.02s-.86-2.23-.02-3.07c.84-.84,2.22-.84,3.07.02Z"/>
        <path class="cls-3" d="m279.41,540.29c.85.85.86,2.23.02,3.07s-2.22.84-3.07-.02-.86-2.23-.02-3.07,2.22-.84,3.07.02Z"/>
        <path class="cls-3" d="m303.88,515.82c.85.85.86,2.23.02,3.07-.84.84-2.22.84-3.07-.02s-.86-2.23-.02-3.07c.84-.84,2.22-.84,3.07.02Z"/>
        <path class="cls-3" d="m328.35,491.35c.85.85.86,2.23.02,3.07-.84.84-2.22.84-3.07-.02s-.86-2.23-.02-3.07c.84-.84,2.22-.84,3.07.02Z"/>
        <path class="cls-3" d="m352.81,466.89c.85.85.86,2.23.02,3.07-.84.84-2.22.84-3.07-.02s-.86-2.23-.02-3.07c.84-.84,2.22-.84,3.07.02Z"/>
        <path class="cls-3" d="m377.28,442.42c.85.85.86,2.23.02,3.07s-2.22.84-3.07-.02-.86-2.23-.02-3.07,2.22-.84,3.07.02Z"/>
        <path class="cls-3" d="m401.75,417.96c.85.85.86,2.23.02,3.07-.84.84-2.22.84-3.07-.02s-.86-2.23-.02-3.07c.84-.84,2.22-.84,3.07.02Z"/>
        <path class="cls-3" d="m426.21,393.49c.85.85.86,2.23.02,3.07-.84.84-2.22.84-3.07-.02-.85-.85-.86-2.23-.02-3.07.84-.84,2.22-.84,3.07.02Z"/>
        <path class="cls-3" d="m450.68,369.02c.85.85.86,2.23.02,3.07s-2.22.84-3.07-.02-.86-2.23-.02-3.07c.84-.84,2.22-.84,3.07.02Z"/>
        <path class="cls-3" d="m475.14,344.56c.85.85.86,2.23.02,3.07s-2.22.84-3.07-.02-.86-2.23-.02-3.07c.84-.84,2.22-.84,3.07.02Z"/>
        <path class="cls-3" d="m499.61,320.09c.85.85.86,2.23.02,3.07-.84.84-2.22.84-3.07-.02-.85-.85-.86-2.23-.02-3.07.84-.84,2.22-.84,3.07.02Z"/>
        <path class="cls-3" d="m524.08,295.62c.85.85.86,2.23.02,3.07-.84.84-2.22.84-3.07-.02s-.86-2.23-.02-3.07c.84-.84,2.22-.84,3.07.02Z"/>
        <path class="cls-3" d="m548.54,271.16c.85.85.86,2.23.02,3.07s-2.22.84-3.07-.02-.86-2.23-.02-3.07c.84-.84,2.22-.84,3.07.02Z"/>
        <path class="cls-3" d="m573.01,246.69c.85.85.86,2.23.02,3.07-.84.84-2.22.84-3.07-.02-.85-.85-.86-2.23-.02-3.07.84-.84,2.22-.84,3.07.02Z"/>
        <path class="cls-3" d="m597.48,222.23c.85.85.86,2.23.02,3.07-.84.84-2.22.84-3.07-.02-.85-.85-.86-2.23-.02-3.07.84-.84,2.22-.84,3.07.02Z"/>
        <path class="cls-3" d="m621.94,197.76c.85.85.86,2.23.02,3.07-.84.84-2.22.84-3.07-.02-.85-.85-.86-2.23-.02-3.07.84-.84,2.22-.84,3.07.02Z"/>
        <path class="cls-3" d="m646.41,173.29c.85.85.86,2.23.02,3.07-.84.84-2.22.84-3.07-.02-.85-.85-.86-2.23-.02-3.07.84-.84,2.22-.84,3.07.02Z"/>
        <path class="cls-3" d="m670.87,148.83c.85.85.86,2.23.02,3.07-.84.84-2.22.84-3.07-.02-.85-.85-.86-2.23-.02-3.07.84-.84,2.22-.84,3.07.02Z"/>
        <path class="cls-3" d="m695.34,124.36c.85.85.86,2.23.02,3.07s-2.22.84-3.07-.02c-.85-.85-.86-2.23-.02-3.07s2.22-.84,3.07.02Z"/>
      </g>
      <g>
        <path class="cls-3" d="m175.54,681.08c.85.85.86,2.23.02,3.07-.84.84-2.22.84-3.07-.02-.85-.85-.86-2.23-.02-3.07.84-.84,2.22-.84,3.07.02Z"/>
        <path class="cls-3" d="m200.01,656.62c.85.85.86,2.23.02,3.07-.84.84-2.22.84-3.07-.02s-.86-2.23-.02-3.07c.84-.84,2.22-.84,3.07.02Z"/>
        <path class="cls-3" d="m224.48,632.15c.85.85.86,2.23.02,3.07-.84.84-2.22.84-3.07-.02s-.86-2.23-.02-3.07c.84-.84,2.22-.84,3.07.02Z"/>
        <path class="cls-3" d="m248.94,607.68c.85.85.86,2.23.02,3.07-.84.84-2.22.84-3.07-.02-.85-.85-.86-2.23-.02-3.07.84-.84,2.22-.84,3.07.02Z"/>
        <path class="cls-3" d="m273.41,583.22c.85.85.86,2.23.02,3.07-.84.84-2.22.84-3.07-.02s-.86-2.23-.02-3.07c.84-.84,2.22-.84,3.07.02Z"/>
        <path class="cls-3" d="m297.88,558.75c.85.85.86,2.23.02,3.07-.84.84-2.22.84-3.07-.02s-.86-2.23-.02-3.07,2.22-.84,3.07.02Z"/>
        <path class="cls-3" d="m322.34,534.28c.85.85.86,2.23.02,3.07-.84.84-2.22.84-3.07-.02s-.86-2.23-.02-3.07c.84-.84,2.22-.84,3.07.02Z"/>
        <path class="cls-3" d="m346.81,509.82c.85.85.86,2.23.02,3.07-.84.84-2.22.84-3.07-.02s-.86-2.23-.02-3.07c.84-.84,2.22-.84,3.07.02Z"/>
        <path class="cls-3" d="m371.28,485.35c.85.85.86,2.23.02,3.07-.84.84-2.22.84-3.07-.02s-.86-2.23-.02-3.07c.84-.84,2.22-.84,3.07.02Z"/>
        <path class="cls-3" d="m395.74,460.88c.85.85.86,2.23.02,3.07-.84.84-2.22.84-3.07-.02s-.86-2.23-.02-3.07,2.22-.84,3.07.02Z"/>
        <path class="cls-3" d="m420.21,436.42c.85.85.86,2.23.02,3.07-.84.84-2.22.84-3.07-.02s-.86-2.23-.02-3.07c.84-.84,2.22-.84,3.07.02Z"/>
        <path class="cls-3" d="m444.67,411.95c.85.85.86,2.23.02,3.07-.84.84-2.22.84-3.07-.02-.85-.85-.86-2.23-.02-3.07.84-.84,2.22-.84,3.07.02Z"/>
        <path class="cls-3" d="m469.14,387.49c.85.85.86,2.23.02,3.07-.84.84-2.22.84-3.07-.02s-.86-2.23-.02-3.07c.84-.84,2.22-.84,3.07.02Z"/>
        <path class="cls-3" d="m493.61,363.02c.85.85.86,2.23.02,3.07-.84.84-2.22.84-3.07-.02s-.86-2.23-.02-3.07c.84-.84,2.22-.84,3.07.02Z"/>
        <path class="cls-3" d="m518.07,338.55c.85.85.86,2.23.02,3.07-.84.84-2.22.84-3.07-.02-.85-.85-.86-2.23-.02-3.07.84-.84,2.22-.84,3.07.02Z"/>
        <path class="cls-3" d="m542.54,314.09c.85.85.86,2.23.02,3.07-.84.84-2.22.84-3.07-.02s-.86-2.23-.02-3.07c.84-.84,2.22-.84,3.07.02Z"/>
        <path class="cls-3" d="m567.01,289.62c.85.85.86,2.23.02,3.07-.84.84-2.22.84-3.07-.02s-.86-2.23-.02-3.07c.84-.84,2.22-.84,3.07.02Z"/>
        <path class="cls-3" d="m591.47,265.15c.85.85.86,2.23.02,3.07-.84.84-2.22.84-3.07-.02-.85-.85-.86-2.23-.02-3.07.84-.84,2.22-.84,3.07.02Z"/>
        <path class="cls-3" d="m615.94,240.69c.85.85.86,2.23.02,3.07-.84.84-2.22.84-3.07-.02-.85-.85-.86-2.23-.02-3.07.84-.84,2.22-.84,3.07.02Z"/>
        <path class="cls-3" d="m640.4,216.22c.85.85.86,2.23.02,3.07-.84.84-2.22.84-3.07-.02-.85-.85-.86-2.23-.02-3.07.84-.84,2.22-.84,3.07.02Z"/>
        <path class="cls-3" d="m664.87,191.76c.85.85.86,2.23.02,3.07-.84.84-2.22.84-3.07-.02-.85-.85-.86-2.23-.02-3.07.84-.84,2.22-.84,3.07.02Z"/>
        <path class="cls-3" d="m689.34,167.29c.85.85.86,2.23.02,3.07-.84.84-2.22.84-3.07-.02-.85-.85-.86-2.23-.02-3.07.84-.84,2.22-.84,3.07.02Z"/>
      </g>
      <g>
        <path class="cls-3" d="m218.47,675.08c.85.85.86,2.23.02,3.07-.84.84-2.22.84-3.07-.02s-.86-2.23-.02-3.07c.84-.84,2.22-.84,3.07.02Z"/>
        <path class="cls-3" d="m242.94,650.61c.85.85.86,2.23.02,3.07-.84.84-2.22.84-3.07-.02s-.86-2.23-.02-3.07c.84-.84,2.22-.84,3.07.02Z"/>
        <path class="cls-3" d="m267.41,626.15c.85.85.86,2.23.02,3.07s-2.22.84-3.07-.02-.86-2.23-.02-3.07,2.22-.84,3.07.02Z"/>
        <path class="cls-3" d="m291.87,601.68c.85.85.86,2.23.02,3.07s-2.22.84-3.07-.02-.86-2.23-.02-3.07,2.22-.84,3.07.02Z"/>
        <path class="cls-3" d="m316.34,577.21c.85.85.86,2.23.02,3.07-.84.84-2.22.84-3.07-.02s-.86-2.23-.02-3.07c.84-.84,2.22-.84,3.07.02Z"/>
        <path class="cls-3" d="m340.81,552.75c.85.85.86,2.23.02,3.07s-2.22.84-3.07-.02c-.85-.85-.86-2.23-.02-3.07.84-.84,2.22-.84,3.07.02Z"/>
        <path class="cls-3" d="m365.27,528.28c.85.85.86,2.23.02,3.07s-2.22.84-3.07-.02-.86-2.23-.02-3.07,2.22-.84,3.07.02Z"/>
        <path class="cls-3" d="m389.74,503.81c.85.85.86,2.23.02,3.07s-2.22.84-3.07-.02c-.85-.85-.86-2.23-.02-3.07.84-.84,2.22-.84,3.07.02Z"/>
        <path class="cls-3" d="m414.2,479.35c.85.85.86,2.23.02,3.07-.84.84-2.22.84-3.07-.02s-.86-2.23-.02-3.07c.84-.84,2.22-.84,3.07.02Z"/>
        <path class="cls-3" d="m438.67,454.88c.85.85.86,2.23.02,3.07s-2.22.84-3.07-.02-.86-2.23-.02-3.07,2.22-.84,3.07.02Z"/>
        <path class="cls-3" d="m463.14,430.41c.85.85.86,2.23.02,3.07s-2.22.84-3.07-.02-.86-2.23-.02-3.07,2.22-.84,3.07.02Z"/>
        <path class="cls-3" d="m487.6,405.95c.85.85.86,2.23.02,3.07-.84.84-2.22.84-3.07-.02s-.86-2.23-.02-3.07c.84-.84,2.22-.84,3.07.02Z"/>
        <path class="cls-3" d="m512.07,381.48c.85.85.86,2.23.02,3.07-.84.84-2.22.84-3.07-.02s-.86-2.23-.02-3.07c.84-.84,2.22-.84,3.07.02Z"/>
        <path class="cls-3" d="m536.54,357.02c.85.85.86,2.23.02,3.07s-2.22.84-3.07-.02-.86-2.23-.02-3.07,2.22-.84,3.07.02Z"/>
        <path class="cls-3" d="m561,332.55c.85.85.86,2.23.02,3.07s-2.22.84-3.07-.02-.86-2.23-.02-3.07,2.22-.84,3.07.02Z"/>
        <path class="cls-3" d="m585.47,308.08c.85.85.86,2.23.02,3.07s-2.22.84-3.07-.02c-.85-.85-.86-2.23-.02-3.07s2.22-.84,3.07.02Z"/>
        <path class="cls-3" d="m609.93,283.62c.85.85.86,2.23.02,3.07s-2.22.84-3.07-.02c-.85-.85-.86-2.23-.02-3.07s2.22-.84,3.07.02Z"/>
        <path class="cls-3" d="m634.4,259.15c.85.85.86,2.23.02,3.07s-2.22.84-3.07-.02c-.85-.85-.86-2.23-.02-3.07.84-.84,2.22-.84,3.07.02Z"/>
        <path class="cls-3" d="m658.87,234.68c.85.85.86,2.23.02,3.07-.84.84-2.22.84-3.07-.02-.85-.85-.86-2.23-.02-3.07.84-.84,2.22-.84,3.07.02Z"/>
        <path class="cls-3" d="m683.33,210.22c.85.85.86,2.23.02,3.07-.84.84-2.22.84-3.07-.02-.85-.85-.86-2.23-.02-3.07.84-.84,2.22-.84,3.07.02Z"/>
      </g>
      <g>
        <path class="cls-3" d="m236.94,693.54c.85.85.86,2.23.02,3.07-.84.84-2.22.84-3.07-.02s-.86-2.23-.02-3.07c.84-.84,2.22-.84,3.07.02Z"/>
        <path class="cls-3" d="m261.4,669.07c.85.85.86,2.23.02,3.07-.84.84-2.22.84-3.07-.02s-.86-2.23-.02-3.07c.84-.84,2.22-.84,3.07.02Z"/>
        <path class="cls-3" d="m285.87,644.61c.85.85.86,2.23.02,3.07-.84.84-2.22.84-3.07-.02s-.86-2.23-.02-3.07c.84-.84,2.22-.84,3.07.02Z"/>
        <path class="cls-3" d="m310.34,620.14c.85.85.86,2.23.02,3.07-.84.84-2.22.84-3.07-.02s-.86-2.23-.02-3.07c.84-.84,2.22-.84,3.07.02Z"/>
        <path class="cls-3" d="m334.8,595.67c.85.85.86,2.23.02,3.07-.84.84-2.22.84-3.07-.02-.85-.85-.86-2.23-.02-3.07.84-.84,2.22-.84,3.07.02Z"/>
        <path class="cls-3" d="m359.27,571.21c.85.85.86,2.23.02,3.07-.84.84-2.22.84-3.07-.02s-.86-2.23-.02-3.07c.84-.84,2.22-.84,3.07.02Z"/>
        <path class="cls-3" d="m383.73,546.74c.85.85.86,2.23.02,3.07-.84.84-2.22.84-3.07-.02s-.86-2.23-.02-3.07c.84-.84,2.22-.84,3.07.02Z"/>
        <path class="cls-3" d="m408.2,522.28c.85.85.86,2.23.02,3.07-.84.84-2.22.84-3.07-.02s-.86-2.23-.02-3.07c.84-.84,2.22-.84,3.07.02Z"/>
        <path class="cls-3" d="m432.67,497.81c.85.85.86,2.23.02,3.07-.84.84-2.22.84-3.07-.02-.85-.85-.86-2.23-.02-3.07.84-.84,2.22-.84,3.07.02Z"/>
        <path class="cls-3" d="m457.13,473.34c.85.85.86,2.23.02,3.07-.84.84-2.22.84-3.07-.02s-.86-2.23-.02-3.07c.84-.84,2.22-.84,3.07.02Z"/>
        <path class="cls-3" d="m481.6,448.88c.85.85.86,2.23.02,3.07-.84.84-2.22.84-3.07-.02s-.86-2.23-.02-3.07c.84-.84,2.22-.84,3.07.02Z"/>
        <path class="cls-3" d="m506.07,424.41c.85.85.86,2.23.02,3.07-.84.84-2.22.84-3.07-.02s-.86-2.23-.02-3.07c.84-.84,2.22-.84,3.07.02Z"/>
        <path class="cls-3" d="m530.53,399.94c.85.85.86,2.23.02,3.07-.84.84-2.22.84-3.07-.02s-.86-2.23-.02-3.07c.84-.84,2.22-.84,3.07.02Z"/>
        <path class="cls-3" d="m555,375.48c.85.85.86,2.23.02,3.07-.84.84-2.22.84-3.07-.02s-.86-2.23-.02-3.07c.84-.84,2.22-.84,3.07.02Z"/>
        <path class="cls-3" d="m579.46,351.01c.85.85.86,2.23.02,3.07-.84.84-2.22.84-3.07-.02-.85-.85-.86-2.23-.02-3.07.84-.84,2.22-.84,3.07.02Z"/>
        <path class="cls-3" d="m603.93,326.55c.85.85.86,2.23.02,3.07-.84.84-2.22.84-3.07-.02-.85-.85-.86-2.23-.02-3.07.84-.84,2.22-.84,3.07.02Z"/>
        <path class="cls-3" d="m628.4,302.08c.85.85.86,2.23.02,3.07-.84.84-2.22.84-3.07-.02-.85-.85-.86-2.23-.02-3.07.84-.84,2.22-.84,3.07.02Z"/>
        <path class="cls-3" d="m652.86,277.61c.85.85.86,2.23.02,3.07-.84.84-2.22.84-3.07-.02-.85-.85-.86-2.23-.02-3.07.84-.84,2.22-.84,3.07.02Z"/>
        <path class="cls-3" d="m677.33,253.15c.85.85.86,2.23.02,3.07-.84.84-2.22.84-3.07-.02-.85-.85-.86-2.23-.02-3.07.84-.84,2.22-.84,3.07.02Z"/>
      </g>
      <g>
        <path class="cls-3" d="m279.86,687.54c.85.85.86,2.23.02,3.07s-2.22.84-3.07-.02c-.85-.85-.86-2.23-.02-3.07s2.22-.84,3.07.02Z"/>
        <path class="cls-3" d="m304.33,663.07c.85.85.86,2.23.02,3.07s-2.22.84-3.07-.02-.86-2.23-.02-3.07,2.22-.84,3.07.02Z"/>
        <path class="cls-3" d="m328.8,638.6c.85.85.86,2.23.02,3.07s-2.22.84-3.07-.02-.86-2.23-.02-3.07,2.22-.84,3.07.02Z"/>
        <path class="cls-3" d="m353.26,614.14c.85.85.86,2.23.02,3.07s-2.22.84-3.07-.02-.86-2.23-.02-3.07,2.22-.84,3.07.02Z"/>
        <path class="cls-3" d="m377.73,589.67c.85.85.86,2.23.02,3.07s-2.22.84-3.07-.02-.86-2.23-.02-3.07,2.22-.84,3.07.02Z"/>
        <path class="cls-3" d="m402.2,565.2c.85.85.86,2.23.02,3.07-.84.84-2.22.84-3.07-.02s-.86-2.23-.02-3.07c.84-.84,2.22-.84,3.07.02Z"/>
        <path class="cls-3" d="m426.66,540.74c.85.85.86,2.23.02,3.07s-2.22.84-3.07-.02-.86-2.23-.02-3.07,2.22-.84,3.07.02Z"/>
        <path class="cls-3" d="m451.13,516.27c.85.85.86,2.23.02,3.07s-2.22.84-3.07-.02-.86-2.23-.02-3.07,2.22-.84,3.07.02Z"/>
        <path class="cls-3" d="m475.6,491.81c.85.85.86,2.23.02,3.07s-2.22.84-3.07-.02-.86-2.23-.02-3.07,2.22-.84,3.07.02Z"/>
        <path class="cls-3" d="m500.06,467.34c.85.85.86,2.23.02,3.07s-2.22.84-3.07-.02-.86-2.23-.02-3.07,2.22-.84,3.07.02Z"/>
        <path class="cls-3" d="m524.53,442.87c.85.85.86,2.23.02,3.07s-2.22.84-3.07-.02-.86-2.23-.02-3.07,2.22-.84,3.07.02Z"/>
        <path class="cls-3" d="m548.99,418.41c.85.85.86,2.23.02,3.07s-2.22.84-3.07-.02c-.85-.85-.86-2.23-.02-3.07s2.22-.84,3.07.02Z"/>
        <path class="cls-3" d="m573.46,393.94c.85.85.86,2.23.02,3.07s-2.22.84-3.07-.02c-.85-.85-.86-2.23-.02-3.07.84-.84,2.22-.84,3.07.02Z"/>
        <path class="cls-3" d="m597.93,369.47c.85.85.86,2.23.02,3.07-.84.84-2.22.84-3.07-.02-.85-.85-.86-2.23-.02-3.07.84-.84,2.22-.84,3.07.02Z"/>
        <path class="cls-3" d="m622.39,345.01c.85.85.86,2.23.02,3.07-.84.84-2.22.84-3.07-.02-.85-.85-.86-2.23-.02-3.07.84-.84,2.22-.84,3.07.02Z"/>
        <path class="cls-3" d="m646.86,320.54c.85.85.86,2.23.02,3.07-.84.84-2.22.84-3.07-.02-.85-.85-.86-2.23-.02-3.07.84-.84,2.22-.84,3.07.02Z"/>
        <path class="cls-3" d="m671.33,296.08c.85.85.86,2.23.02,3.07-.84.84-2.22.84-3.07-.02-.85-.85-.86-2.23-.02-3.07.84-.84,2.22-.84,3.07.02Z"/>
        <path class="cls-3" d="m695.79,271.61c.85.85.86,2.23.02,3.07-.84.84-2.22.84-3.07-.02-.85-.85-.86-2.23-.02-3.07.84-.84,2.22-.84,3.07.02Z"/>
      </g>
      <g>
        <path class="cls-3" d="m322.79,681.53c.85.85.86,2.23.02,3.07-.84.84-2.22.84-3.07-.02s-.86-2.23-.02-3.07c.84-.84,2.22-.84,3.07.02Z"/>
        <path class="cls-3" d="m347.26,657.07c.85.85.86,2.23.02,3.07-.84.84-2.22.84-3.07-.02s-.86-2.23-.02-3.07c.84-.84,2.22-.84,3.07.02Z"/>
        <path class="cls-3" d="m371.73,632.6c.85.85.86,2.23.02,3.07-.84.84-2.22.84-3.07-.02s-.86-2.23-.02-3.07c.84-.84,2.22-.84,3.07.02Z"/>
        <path class="cls-3" d="m396.19,608.13c.85.85.86,2.23.02,3.07-.84.84-2.22.84-3.07-.02s-.86-2.23-.02-3.07c.84-.84,2.22-.84,3.07.02Z"/>
        <path class="cls-3" d="m420.66,583.67c.85.85.86,2.23.02,3.07-.84.84-2.22.84-3.07-.02s-.86-2.23-.02-3.07c.84-.84,2.22-.84,3.07.02Z"/>
        <path class="cls-3" d="m445.13,559.2c.85.85.86,2.23.02,3.07-.84.84-2.22.84-3.07-.02s-.86-2.23-.02-3.07c.84-.84,2.22-.84,3.07.02Z"/>
        <path class="cls-3" d="m469.59,534.73c.85.85.86,2.23.02,3.07-.84.84-2.22.84-3.07-.02s-.86-2.23-.02-3.07c.84-.84,2.22-.84,3.07.02Z"/>
        <path class="cls-3" d="m494.06,510.27c.85.85.86,2.23.02,3.07-.84.84-2.22.84-3.07-.02-.85-.85-.86-2.23-.02-3.07.84-.84,2.22-.84,3.07.02Z"/>
        <path class="cls-3" d="m518.52,485.8c.85.85.86,2.23.02,3.07-.84.84-2.22.84-3.07-.02s-.86-2.23-.02-3.07c.84-.84,2.22-.84,3.07.02Z"/>
        <path class="cls-3" d="m542.99,461.34c.85.85.86,2.23.02,3.07-.84.84-2.22.84-3.07-.02s-.86-2.23-.02-3.07c.84-.84,2.22-.84,3.07.02Z"/>
        <path class="cls-3" d="m567.46,436.87c.85.85.86,2.23.02,3.07-.84.84-2.22.84-3.07-.02-.85-.85-.86-2.23-.02-3.07.84-.84,2.22-.84,3.07.02Z"/>
        <path class="cls-3" d="m591.92,412.4c.85.85.86,2.23.02,3.07-.84.84-2.22.84-3.07-.02-.85-.85-.86-2.23-.02-3.07.84-.84,2.22-.84,3.07.02Z"/>
        <path class="cls-3" d="m616.39,387.94c.85.85.86,2.23.02,3.07-.84.84-2.22.84-3.07-.02s-.86-2.23-.02-3.07c.84-.84,2.22-.84,3.07.02Z"/>
        <path class="cls-3" d="m640.86,363.47c.85.85.86,2.23.02,3.07-.84.84-2.22.84-3.07-.02-.85-.85-.86-2.23-.02-3.07.84-.84,2.22-.84,3.07.02Z"/>
        <path class="cls-3" d="m665.32,339c.85.85.86,2.23.02,3.07s-2.22.84-3.07-.02c-.85-.85-.86-2.23-.02-3.07.84-.84,2.22-.84,3.07.02Z"/>
        <path class="cls-3" d="m689.79,314.54c.85.85.86,2.23.02,3.07-.84.84-2.22.84-3.07-.02-.85-.85-.86-2.23-.02-3.07.84-.84,2.22-.84,3.07.02Z"/>
      </g>
      <g>
        <path class="cls-3" d="m365.72,675.53c.85.85.86,2.23.02,3.07s-2.22.84-3.07-.02-.86-2.23-.02-3.07,2.22-.84,3.07.02Z"/>
        <path class="cls-3" d="m390.19,651.06c.85.85.86,2.23.02,3.07-.84.84-2.22.84-3.07-.02s-.86-2.23-.02-3.07c.84-.84,2.22-.84,3.07.02Z"/>
        <path class="cls-3" d="m414.66,626.6c.85.85.86,2.23.02,3.07s-2.22.84-3.07-.02-.86-2.23-.02-3.07,2.22-.84,3.07.02Z"/>
        <path class="cls-3" d="m439.12,602.13c.85.85.86,2.23.02,3.07s-2.22.84-3.07-.02-.86-2.23-.02-3.07,2.22-.84,3.07.02Z"/>
        <path class="cls-3" d="m463.59,577.66c.85.85.86,2.23.02,3.07s-2.22.84-3.07-.02-.86-2.23-.02-3.07,2.22-.84,3.07.02Z"/>
        <path class="cls-3" d="m488.05,553.2c.85.85.86,2.23.02,3.07-.84.84-2.22.84-3.07-.02s-.86-2.23-.02-3.07c.84-.84,2.22-.84,3.07.02Z"/>
        <path class="cls-3" d="m512.52,528.73c.85.85.86,2.23.02,3.07s-2.22.84-3.07-.02-.86-2.23-.02-3.07,2.22-.84,3.07.02Z"/>
        <path class="cls-3" d="m536.99,504.26c.85.85.86,2.23.02,3.07s-2.22.84-3.07-.02-.86-2.23-.02-3.07,2.22-.84,3.07.02Z"/>
        <path class="cls-3" d="m561.45,479.8c.85.85.86,2.23.02,3.07-.84.84-2.22.84-3.07-.02s-.86-2.23-.02-3.07,2.22-.84,3.07.02Z"/>
        <path class="cls-3" d="m585.92,455.33c.85.85.86,2.23.02,3.07-.84.84-2.22.84-3.07-.02-.85-.85-.86-2.23-.02-3.07.84-.84,2.22-.84,3.07.02Z"/>
        <path class="cls-3" d="m610.39,430.87c.85.85.86,2.23.02,3.07-.84.84-2.22.84-3.07-.02-.85-.85-.86-2.23-.02-3.07.84-.84,2.22-.84,3.07.02Z"/>
        <path class="cls-3" d="m634.85,406.4c.85.85.86,2.23.02,3.07-.84.84-2.22.84-3.07-.02-.85-.85-.86-2.23-.02-3.07.84-.84,2.22-.84,3.07.02Z"/>
        <path class="cls-3" d="m659.32,381.93c.85.85.86,2.23.02,3.07-.84.84-2.22.84-3.07-.02-.85-.85-.86-2.23-.02-3.07.84-.84,2.22-.84,3.07.02Z"/>
        <path class="cls-3" d="m683.78,357.47c.85.85.86,2.23.02,3.07-.84.84-2.22.84-3.07-.02-.85-.85-.86-2.23-.02-3.07.84-.84,2.22-.84,3.07.02Z"/>
      </g>
      <g>
        <path class="cls-3" d="m408.65,669.52c.85.85.86,2.23.02,3.07-.84.84-2.22.84-3.07-.02s-.86-2.23-.02-3.07c.84-.84,2.22-.84,3.07.02Z"/>
        <path class="cls-3" d="m433.12,645.06c.85.85.86,2.23.02,3.07-.84.84-2.22.84-3.07-.02s-.86-2.23-.02-3.07c.84-.84,2.22-.84,3.07.02Z"/>
        <path class="cls-3" d="m457.58,620.59c.85.85.86,2.23.02,3.07-.84.84-2.22.84-3.07-.02s-.86-2.23-.02-3.07c.84-.84,2.22-.84,3.07.02Z"/>
        <path class="cls-3" d="m482.05,596.13c.85.85.86,2.23.02,3.07-.84.84-2.22.84-3.07-.02s-.86-2.23-.02-3.07c.84-.84,2.22-.84,3.07.02Z"/>
        <path class="cls-3" d="m506.52,571.66c.85.85.86,2.23.02,3.07-.84.84-2.22.84-3.07-.02s-.86-2.23-.02-3.07c.84-.84,2.22-.84,3.07.02Z"/>
        <path class="cls-3" d="m530.98,547.19c.85.85.86,2.23.02,3.07-.84.84-2.22.84-3.07-.02s-.86-2.23-.02-3.07c.84-.84,2.22-.84,3.07.02Z"/>
        <path class="cls-3" d="m555.45,522.73c.85.85.86,2.23.02,3.07-.84.84-2.22.84-3.07-.02s-.86-2.23-.02-3.07c.84-.84,2.22-.84,3.07.02Z"/>
        <path class="cls-3" d="m579.92,498.26c.85.85.86,2.23.02,3.07s-2.22.84-3.07-.02c-.85-.85-.86-2.23-.02-3.07s2.22-.84,3.07.02Z"/>
        <path class="cls-3" d="m604.38,473.79c.85.85.86,2.23.02,3.07-.84.84-2.22.84-3.07-.02-.85-.85-.86-2.23-.02-3.07.84-.84,2.22-.84,3.07.02Z"/>
        <path class="cls-3" d="m628.85,449.33c.85.85.86,2.23.02,3.07-.84.84-2.22.84-3.07-.02-.85-.85-.86-2.23-.02-3.07.84-.84,2.22-.84,3.07.02Z"/>
        <path class="cls-3" d="m653.31,424.86c.85.85.86,2.23.02,3.07-.84.84-2.22.84-3.07-.02-.85-.85-.86-2.23-.02-3.07.84-.84,2.22-.84,3.07.02Z"/>
        <path class="cls-3" d="m677.78,400.4c.85.85.86,2.23.02,3.07-.84.84-2.22.84-3.07-.02-.85-.85-.86-2.23-.02-3.07.84-.84,2.22-.84,3.07.02Z"/>
      </g>
      <g>
        <path class="cls-3" d="m427.11,687.99c.85.85.86,2.23.02,3.07s-2.22.84-3.07-.02-.86-2.23-.02-3.07,2.22-.84,3.07.02Z"/>
        <path class="cls-3" d="m451.58,663.52c.85.85.86,2.23.02,3.07-.84.84-2.22.84-3.07-.02s-.86-2.23-.02-3.07,2.22-.84,3.07.02Z"/>
        <path class="cls-3" d="m476.05,639.05c.85.85.86,2.23.02,3.07-.84.84-2.22.84-3.07-.02s-.86-2.23-.02-3.07c.84-.84,2.22-.84,3.07.02Z"/>
        <path class="cls-3" d="m500.51,614.59c.85.85.86,2.23.02,3.07-.84.84-2.22.84-3.07-.02s-.86-2.23-.02-3.07,2.22-.84,3.07.02Z"/>
        <path class="cls-3" d="m524.98,590.12c.85.85.86,2.23.02,3.07s-2.22.84-3.07-.02-.86-2.23-.02-3.07,2.22-.84,3.07.02Z"/>
        <path class="cls-3" d="m549.45,565.66c.85.85.86,2.23.02,3.07-.84.84-2.22.84-3.07-.02s-.86-2.23-.02-3.07c.84-.84,2.22-.84,3.07.02Z"/>
        <path class="cls-3" d="m573.91,541.19c.85.85.86,2.23.02,3.07-.84.84-2.22.84-3.07-.02-.85-.85-.86-2.23-.02-3.07.84-.84,2.22-.84,3.07.02Z"/>
        <path class="cls-3" d="m598.38,516.72c.85.85.86,2.23.02,3.07-.84.84-2.22.84-3.07-.02-.85-.85-.86-2.23-.02-3.07.84-.84,2.22-.84,3.07.02Z"/>
        <path class="cls-3" d="m622.84,492.26c.85.85.86,2.23.02,3.07-.84.84-2.22.84-3.07-.02-.85-.85-.86-2.23-.02-3.07.84-.84,2.22-.84,3.07.02Z"/>
        <path class="cls-3" d="m647.31,467.79c.85.85.86,2.23.02,3.07-.84.84-2.22.84-3.07-.02-.85-.85-.86-2.23-.02-3.07.84-.84,2.22-.84,3.07.02Z"/>
        <path class="cls-3" d="m671.78,443.32c.85.85.86,2.23.02,3.07-.84.84-2.22.84-3.07-.02-.85-.85-.86-2.23-.02-3.07.84-.84,2.22-.84,3.07.02Z"/>
        <path class="cls-3" d="m696.24,418.86c.85.85.86,2.23.02,3.07-.84.84-2.22.84-3.07-.02-.85-.85-.86-2.23-.02-3.07.84-.84,2.22-.84,3.07.02Z"/>
      </g>
      <g>
        <path class="cls-3" d="m470.04,681.98c.85.85.86,2.23.02,3.07-.84.84-2.22.84-3.07-.02-.85-.85-.86-2.23-.02-3.07.84-.84,2.22-.84,3.07.02Z"/>
        <path class="cls-3" d="m494.51,657.52c.85.85.86,2.23.02,3.07s-2.22.84-3.07-.02-.86-2.23-.02-3.07,2.22-.84,3.07.02Z"/>
        <path class="cls-3" d="m518.98,633.05c.85.85.86,2.23.02,3.07-.84.84-2.22.84-3.07-.02s-.86-2.23-.02-3.07c.84-.84,2.22-.84,3.07.02Z"/>
        <path class="cls-3" d="m543.44,608.58c.85.85.86,2.23.02,3.07-.84.84-2.22.84-3.07-.02s-.86-2.23-.02-3.07c.84-.84,2.22-.84,3.07.02Z"/>
        <path class="cls-3" d="m567.91,584.12c.85.85.86,2.23.02,3.07-.84.84-2.22.84-3.07-.02-.85-.85-.86-2.23-.02-3.07.84-.84,2.22-.84,3.07.02Z"/>
        <path class="cls-3" d="m592.37,559.65c.85.85.86,2.23.02,3.07-.84.84-2.22.84-3.07-.02-.85-.85-.86-2.23-.02-3.07.84-.84,2.22-.84,3.07.02Z"/>
        <path class="cls-3" d="m616.84,535.19c.85.85.86,2.23.02,3.07-.84.84-2.22.84-3.07-.02-.85-.85-.86-2.23-.02-3.07.84-.84,2.22-.84,3.07.02Z"/>
        <path class="cls-3" d="m641.31,510.72c.85.85.86,2.23.02,3.07-.84.84-2.22.84-3.07-.02-.85-.85-.86-2.23-.02-3.07.84-.84,2.22-.84,3.07.02Z"/>
        <path class="cls-3" d="m665.77,486.25c.85.85.86,2.23.02,3.07-.84.84-2.22.84-3.07-.02-.85-.85-.86-2.23-.02-3.07.84-.84,2.22-.84,3.07.02Z"/>
        <path class="cls-3" d="m690.24,461.79c.85.85.86,2.23.02,3.07-.84.84-2.22.84-3.07-.02-.85-.85-.86-2.23-.02-3.07.84-.84,2.22-.84,3.07.02Z"/>
      </g>
      <g>
        <path class="cls-3" d="m512.97,675.98c.85.85.86,2.23.02,3.07-.84.84-2.22.84-3.07-.02s-.86-2.23-.02-3.07,2.22-.84,3.07.02Z"/>
        <path class="cls-3" d="m537.44,651.51c.85.85.86,2.23.02,3.07-.84.84-2.22.84-3.07-.02s-.86-2.23-.02-3.07c.84-.84,2.22-.84,3.07.02Z"/>
        <path class="cls-3" d="m561.9,627.05c.85.85.86,2.23.02,3.07-.84.84-2.22.84-3.07-.02-.85-.85-.86-2.23-.02-3.07.84-.84,2.22-.84,3.07.02Z"/>
        <path class="cls-3" d="m586.37,602.58c.85.85.86,2.23.02,3.07-.84.84-2.22.84-3.07-.02-.85-.85-.86-2.23-.02-3.07.84-.84,2.22-.84,3.07.02Z"/>
        <path class="cls-3" d="m610.84,578.11c.85.85.86,2.23.02,3.07-.84.84-2.22.84-3.07-.02s-.86-2.23-.02-3.07c.84-.84,2.22-.84,3.07.02Z"/>
        <path class="cls-3" d="m635.3,553.65c.85.85.86,2.23.02,3.07-.84.84-2.22.84-3.07-.02-.85-.85-.86-2.23-.02-3.07.84-.84,2.22-.84,3.07.02Z"/>
        <path class="cls-3" d="m659.77,529.18c.85.85.86,2.23.02,3.07-.84.84-2.22.84-3.07-.02-.85-.85-.86-2.23-.02-3.07.84-.84,2.22-.84,3.07.02Z"/>
        <path class="cls-3" d="m684.24,504.72c.85.85.86,2.23.02,3.07-.84.84-2.22.84-3.07-.02-.85-.85-.86-2.23-.02-3.07.84-.84,2.22-.84,3.07.02Z"/>
      </g>
      <g>
        <path class="cls-3" d="m555.9,669.98c.85.85.86,2.23.02,3.07s-2.22.84-3.07-.02-.86-2.23-.02-3.07,2.22-.84,3.07.02Z"/>
        <path class="cls-3" d="m580.37,645.51c.85.85.86,2.23.02,3.07-.84.84-2.22.84-3.07-.02-.85-.85-.86-2.23-.02-3.07.84-.84,2.22-.84,3.07.02Z"/>
        <path class="cls-3" d="m604.83,621.04c.85.85.86,2.23.02,3.07-.84.84-2.22.84-3.07-.02-.85-.85-.86-2.23-.02-3.07.84-.84,2.22-.84,3.07.02Z"/>
        <path class="cls-3" d="m629.3,596.58c.85.85.86,2.23.02,3.07-.84.84-2.22.84-3.07-.02-.85-.85-.86-2.23-.02-3.07.84-.84,2.22-.84,3.07.02Z"/>
        <path class="cls-3" d="m653.77,572.11c.85.85.86,2.23.02,3.07-.84.84-2.22.84-3.07-.02-.85-.85-.86-2.23-.02-3.07.84-.84,2.22-.84,3.07.02Z"/>
        <path class="cls-3" d="m678.23,547.64c.85.85.86,2.23.02,3.07-.84.84-2.22.84-3.07-.02-.85-.85-.86-2.23-.02-3.07.84-.84,2.22-.84,3.07.02Z"/>
      </g>
      <g>
        <path class="cls-3" d="m574.36,688.44c.85.85.86,2.23.02,3.07-.84.84-2.22.84-3.07-.02-.85-.85-.86-2.23-.02-3.07.84-.84,2.22-.84,3.07.02Z"/>
        <path class="cls-3" d="m598.83,663.97c.85.85.86,2.23.02,3.07-.84.84-2.22.84-3.07-.02-.85-.85-.86-2.23-.02-3.07.84-.84,2.22-.84,3.07.02Z"/>
        <path class="cls-3" d="m623.3,639.51c.85.85.86,2.23.02,3.07-.84.84-2.22.84-3.07-.02-.85-.85-.86-2.23-.02-3.07.84-.84,2.22-.84,3.07.02Z"/>
        <path class="cls-3" d="m647.76,615.04c.85.85.86,2.23.02,3.07-.84.84-2.22.84-3.07-.02-.85-.85-.86-2.23-.02-3.07.84-.84,2.22-.84,3.07.02Z"/>
        <path class="cls-3" d="m672.23,590.57c.85.85.86,2.23.02,3.07-.84.84-2.22.84-3.07-.02-.85-.85-.86-2.23-.02-3.07.84-.84,2.22-.84,3.07.02Z"/>
        <path class="cls-3" d="m696.69,566.11c.85.85.86,2.23.02,3.07-.84.84-2.22.84-3.07-.02-.85-.85-.86-2.23-.02-3.07s2.22-.84,3.07.02Z"/>
      </g>
      <g>
        <path class="cls-3" d="m617.29,682.43c.85.85.86,2.23.02,3.07-.84.84-2.22.84-3.07-.02-.85-.85-.86-2.23-.02-3.07.84-.84,2.22-.84,3.07.02Z"/>
        <path class="cls-3" d="m641.76,657.97c.85.85.86,2.23.02,3.07-.84.84-2.22.84-3.07-.02-.85-.85-.86-2.23-.02-3.07.84-.84,2.22-.84,3.07.02Z"/>
        <path class="cls-3" d="m666.22,633.5c.85.85.86,2.23.02,3.07-.84.84-2.22.84-3.07-.02-.85-.85-.86-2.23-.02-3.07.84-.84,2.22-.84,3.07.02Z"/>
        <path class="cls-3" d="m690.69,609.04c.85.85.86,2.23.02,3.07-.84.84-2.22.84-3.07-.02-.85-.85-.86-2.23-.02-3.07.84-.84,2.22-.84,3.07.02Z"/>
      </g>
      <g>
        <path class="cls-3" d="m660.22,676.43c.85.85.86,2.23.02,3.07-.84.84-2.22.84-3.07-.02-.85-.85-.86-2.23-.02-3.07.84-.84,2.22-.84,3.07.02Z"/>
        <path class="cls-3" d="m684.69,651.96c.85.85.86,2.23.02,3.07-.84.84-2.22.84-3.07-.02-.85-.85-.86-2.23-.02-3.07.84-.84,2.22-.84,3.07.02Z"/>
      </g>
    </g>
  </g>
</svg>