<?xml version="1.0" encoding="UTF-8"?>
<svg id="_圖層_1" data-name="圖層 1" xmlns="http://www.w3.org/2000/svg" viewBox="0 0 24.14 33.11">
  <defs>
    <style>
      .cls-1 {
        fill: none;
        stroke: #455d7d;
        stroke-linecap: round;
        stroke-linejoin: round;
        stroke-width: 7px;
      }
    </style>
  </defs>
  <line class="cls-1" x1="3.5" y1="3.5" x2="3.5" y2="29.61"/>
  <line class="cls-1" x1="20.64" y1="3.5" x2="20.64" y2="29.61"/>
</svg>